,US,pred,label
0,"As a Consumer, I want to download the data package in one file, so that that I don't have to download descriptor and each resource by hand.",8.013162005227059e-05,usability
0,"As a Researcher, I want an app that create proxy Data Packages for well know and reliable data, sources, so that I can load high quality data using Data Package tooling. ",4.539787187241018e-05,reliability
0,"As a repository administrator, I want author/creator to store the DUID of the person to allow for name authority control and interoperability with other systems like Symplectic Elements.",0.016002170741558075,portability
