,US,pred,label
0,"As a collection curator housed in the Protected Data Network, I want my collection to be encrypted with a key maintained on that server, a checksum made and stored of the encrypted file, and the encrypted file replicated to our remote storage site.",4.539787187241018e-05,reliability
1,"As a Consumer, I want to be able to get the data for a data package even if the original data has been moved or removed, so that that I can still use is and my app or analysis keeps working.",4.539787187241018e-05,reliability
2,"As a repository manager, I want to specify the remote replication policy for each collection. I want to be able to elect to either replicate remotely or not and possibly to replicate beyond the primary remote site. E.g., some collections may not leave Duke, some may be replicated to DuraCloud, and some may be replicated to both DuraCloud and Glacier.",4.539787187241018e-05,reliability
3,"As an OlderPerson, I want to have an ALFRED device that informs me about a low battery when leaving the house. ",4.539787187241018e-05,reliability
4,"As a library staff member, I want to preserve both the content and the metadata within the repository in a robust manner, so that I can provide stable, long-term access to this material.",4.539787187241018e-05,reliability
5,"As a repository administrator, I would like to be able to continue to provide access to the repository in the event that the server fails.",4.539787187241018e-05,reliability
6,"As a user, I want to ensure that if reconfiguration of a dataset fails then no changes have taken effect, so that all steps required to reconfigure a dataset must be done as a single atomic action.",4.539787187241018e-05,reliability
7,"As a researcher, I want to have services to support the long term curation of data, so that I can be sure that data will not get 'lost' with the passage of time.",4.539787187241018e-05,reliability
8,"As a dataset developer, I want to delete outdated versions of a dataset type and I expect this to fail if there are any dataset instances with that version of the type.",4.539787187241018e-05,reliability
9,"As an app developer, I want to ensure that application redeployment fails if any of its datasets cannot be reconfigured.",4.539787187241018e-05,reliability
