,eval
0,"{'QA': {'textcat_f': 0.08999999995899999, 'textcat_r': 0.0467239527279002, 'textcat_p': 1.4999999875000003, 'eval': {'textcat_f': 0.0089999999959, 'textcat_r': 0.00467239527279002, 'textcat_p': 0.14999999875000003}}}"
1,"{'QA': {'textcat_f': 1.0039360417255518, 'textcat_r': 0.6051303581958734, 'textcat_p': 4.450216438015367, 'eval': {'textcat_f': 0.10039360417255519, 'textcat_r': 0.060513035819587335, 'textcat_p': 0.44502164380153675}}}"
2,"{'QA': {'textcat_f': 2.074837493012834, 'textcat_r': 1.2492638961346951, 'textcat_p': 7.2217948601167805, 'eval': {'textcat_f': 0.2074837493012834, 'textcat_r': 0.12492638961346951, 'textcat_p': 0.722179486011678}}}"
3,"{'QA': {'textcat_f': 3.4756546895392666, 'textcat_r': 2.436021867455103, 'textcat_p': 6.6157895162197535, 'eval': {'textcat_f': 0.34756546895392665, 'textcat_r': 0.24360218674551032, 'textcat_p': 0.6615789516219753}}}"
4,"{'QA': {'textcat_f': 4.002402822062478, 'textcat_r': 2.9658117122016594, 'textcat_p': 6.524543587857659, 'eval': {'textcat_f': 0.40024028220624774, 'textcat_r': 0.2965811712201659, 'textcat_p': 0.6524543587857659}}}"
5,"{'QA': {'textcat_f': 4.380137134262227, 'textcat_r': 3.3960983658880117, 'textcat_p': 6.4136121691643835, 'eval': {'textcat_f': 0.43801371342622264, 'textcat_r': 0.3396098365888012, 'textcat_p': 0.6413612169164383}}}"
6,"{'QA': {'textcat_f': 4.8624556108565065, 'textcat_r': 3.894655104882652, 'textcat_p': 6.732758442402814, 'eval': {'textcat_f': 0.48624556108565065, 'textcat_r': 0.3894655104882652, 'textcat_p': 0.6732758442402814}}}"
7,"{'QA': {'textcat_f': 5.052322831349942, 'textcat_r': 4.232777456342306, 'textcat_p': 6.411364990844776, 'eval': {'textcat_f': 0.5052322831349942, 'textcat_r': 0.4232777456342306, 'textcat_p': 0.6411364990844776}}}"
8,"{'QA': {'textcat_f': 4.99924105086004, 'textcat_r': 4.184416874537592, 'textcat_p': 6.379499128326958, 'eval': {'textcat_f': 0.49992410508600404, 'textcat_r': 0.4184416874537592, 'textcat_p': 0.6379499128326958}}}"
9,"{'QA': {'textcat_f': 5.188928863535169, 'textcat_r': 4.435752666760443, 'textcat_p': 6.423065911730234, 'eval': {'textcat_f': 0.5188928863535169, 'textcat_r': 0.4435752666760443, 'textcat_p': 0.6423065911730234}}}"
10,"{'QA': {'textcat_f': 5.135585642217834, 'textcat_r': 4.425940203867201, 'textcat_p': 6.262664981647094, 'eval': {'textcat_f': 0.5135585642217835, 'textcat_r': 0.44259402038672013, 'textcat_p': 0.6262664981647095}}}"
11,"{'QA': {'textcat_f': 5.298557477333083, 'textcat_r': 4.683123138540637, 'textcat_p': 6.296339169951533, 'eval': {'textcat_f': 0.5298557477333083, 'textcat_r': 0.4683123138540637, 'textcat_p': 0.6296339169951534}}}"
12,"{'QA': {'textcat_f': 5.3751006028533235, 'textcat_r': 4.743371273787232, 'textcat_p': 6.335906360399355, 'eval': {'textcat_f': 0.5375100602853323, 'textcat_r': 0.4743371273787232, 'textcat_p': 0.6335906360399355}}}"
13,"{'QA': {'textcat_f': 5.492822044596349, 'textcat_r': 4.910999194487371, 'textcat_p': 6.365977777126242, 'eval': {'textcat_f': 0.5492822044596349, 'textcat_r': 0.49109991944873715, 'textcat_p': 0.6365977777126242}}}"
14,"{'QA': {'textcat_f': 5.6318664204658395, 'textcat_r': 5.077721279162285, 'textcat_p': 6.487485755801285, 'eval': {'textcat_f': 0.563186642046584, 'textcat_r': 0.5077721279162285, 'textcat_p': 0.6487485755801286}}}"
15,"{'QA': {'textcat_f': 5.518242330492184, 'textcat_r': 4.980318696537658, 'textcat_p': 6.361623317066514, 'eval': {'textcat_f': 0.5518242330492183, 'textcat_r': 0.49803186965376584, 'textcat_p': 0.6361623317066514}}}"
16,"{'QA': {'textcat_f': 5.471092014817248, 'textcat_r': 4.93501981976837, 'textcat_p': 6.327063853559543, 'eval': {'textcat_f': 0.5471092014817248, 'textcat_r': 0.49350198197683703, 'textcat_p': 0.6327063853559542}}}"
17,"{'QA': {'textcat_f': 5.567454067546281, 'textcat_r': 5.089925590654592, 'textcat_p': 6.3248634788100055, 'eval': {'textcat_f': 0.5567454067546281, 'textcat_r': 0.5089925590654591, 'textcat_p': 0.6324863478810006}}}"
18,"{'QA': {'textcat_f': 5.5468097187795635, 'textcat_r': 5.039739695765864, 'textcat_p': 6.356918406405722, 'eval': {'textcat_f': 0.5546809718779564, 'textcat_r': 0.5039739695765864, 'textcat_p': 0.6356918406405722}}}"
19,"{'QA': {'textcat_f': 5.501348428153209, 'textcat_r': 4.999739695773863, 'textcat_p': 6.327084940062372, 'eval': {'textcat_f': 0.5501348428153209, 'textcat_r': 0.4999739695773863, 'textcat_p': 0.6327084940062372}}}"
20,"{'QA': {'textcat_f': 5.577446724543702, 'textcat_r': 5.071302098585772, 'textcat_p': 6.382982767097493, 'eval': {'textcat_f': 0.5577446724543702, 'textcat_r': 0.5071302098585772, 'textcat_p': 0.6382982767097494}}}"
21,"{'QA': {'textcat_f': 5.630285609978095, 'textcat_r': 5.117838895111733, 'textcat_p': 6.480703349244177, 'eval': {'textcat_f': 0.5630285609978095, 'textcat_r': 0.5117838895111733, 'textcat_p': 0.6480703349244177}}}"
22,"{'QA': {'textcat_f': 5.711854843549535, 'textcat_r': 5.221145566016177, 'textcat_p': 6.509845600702145, 'eval': {'textcat_f': 0.5711854843549535, 'textcat_r': 0.5221145566016177, 'textcat_p': 0.6509845600702145}}}"
23,"{'QA': {'textcat_f': 5.588512986510738, 'textcat_r': 5.111783850060609, 'textcat_p': 6.362044538333372, 'eval': {'textcat_f': 0.5588512986510737, 'textcat_r': 0.5111783850060609, 'textcat_p': 0.6362044538333371}}}"
24,"{'QA': {'textcat_f': 5.572868401692731, 'textcat_r': 5.074792968614926, 'textcat_p': 6.357080146815246, 'eval': {'textcat_f': 0.5572868401692731, 'textcat_r': 0.5074792968614925, 'textcat_p': 0.6357080146815246}}}"
25,"{'QA': {'textcat_f': 5.563445335096054, 'textcat_r': 5.072314411975986, 'textcat_p': 6.32390372622112, 'eval': {'textcat_f': 0.5563445335096053, 'textcat_r': 0.5072314411975987, 'textcat_p': 0.6323903726221121}}}"
26,"{'QA': {'textcat_f': 5.59237091735394, 'textcat_r': 5.082915915737216, 'textcat_p': 6.376303945367702, 'eval': {'textcat_f': 0.559237091735394, 'textcat_r': 0.5082915915737216, 'textcat_p': 0.6376303945367703}}}"
27,"{'QA': {'textcat_f': 5.68125952834953, 'textcat_r': 5.175796210749901, 'textcat_p': 6.443506201199936, 'eval': {'textcat_f': 0.568125952834953, 'textcat_r': 0.5175796210749901, 'textcat_p': 0.6443506201199936}}}"
28,"{'QA': {'textcat_f': 5.608142767306029, 'textcat_r': 5.077934631361173, 'textcat_p': 6.419958846892885, 'eval': {'textcat_f': 0.5608142767306029, 'textcat_r': 0.5077934631361173, 'textcat_p': 0.6419958846892885}}}"
29,"{'QA': {'textcat_f': 5.50359168884655, 'textcat_r': 4.953411946334691, 'textcat_p': 6.3554516719313146, 'eval': {'textcat_f': 0.550359168884655, 'textcat_r': 0.49534119463346904, 'textcat_p': 0.6355451671931315}}}"
30,"{'QA': {'textcat_f': 5.473582462420412, 'textcat_r': 4.942039656809948, 'textcat_p': 6.281923092841836, 'eval': {'textcat_f': 0.5473582462420412, 'textcat_r': 0.4942039656809948, 'textcat_p': 0.6281923092841837}}}"
31,"{'QA': {'textcat_f': 5.573675561921744, 'textcat_r': 5.035656886733387, 'textcat_p': 6.358777119501867, 'eval': {'textcat_f': 0.5573675561921745, 'textcat_r': 0.5035656886733386, 'textcat_p': 0.6358777119501867}}}"
32,"{'QA': {'textcat_f': 5.53807677365806, 'textcat_r': 5.010202341285171, 'textcat_p': 6.293769006021632, 'eval': {'textcat_f': 0.5538076773658059, 'textcat_r': 0.5010202341285172, 'textcat_p': 0.6293769006021632}}}"
33,"{'QA': {'textcat_f': 5.506387082852889, 'textcat_r': 4.931827763451336, 'textcat_p': 6.340264374877798, 'eval': {'textcat_f': 0.5506387082852889, 'textcat_r': 0.49318277634513363, 'textcat_p': 0.6340264374877798}}}"
34,"{'QA': {'textcat_f': 5.55764366734652, 'textcat_r': 4.989954206030577, 'textcat_p': 6.402067354756222, 'eval': {'textcat_f': 0.555764366734652, 'textcat_r': 0.4989954206030577, 'textcat_p': 0.6402067354756222}}}"
35,"{'QA': {'textcat_f': 5.510716655947478, 'textcat_r': 4.940117346212065, 'textcat_p': 6.335792064634795, 'eval': {'textcat_f': 0.5510716655947479, 'textcat_r': 0.4940117346212065, 'textcat_p': 0.6335792064634795}}}"
36,"{'QA': {'textcat_f': 5.5445290531981755, 'textcat_r': 4.909224897708604, 'textcat_p': 6.46833562349495, 'eval': {'textcat_f': 0.5544529053198175, 'textcat_r': 0.49092248977086045, 'textcat_p': 0.646833562349495}}}"
37,"{'QA': {'textcat_f': 5.511033271289609, 'textcat_r': 4.912820602913725, 'textcat_p': 6.399425452876114, 'eval': {'textcat_f': 0.5511033271289609, 'textcat_r': 0.4912820602913725, 'textcat_p': 0.6399425452876114}}}"
38,"{'QA': {'textcat_f': 5.605059245301073, 'textcat_r': 5.0462792494850754, 'textcat_p': 6.440776463009531, 'eval': {'textcat_f': 0.5605059245301073, 'textcat_r': 0.5046279249485075, 'textcat_p': 0.6440776463009531}}}"
39,"{'QA': {'textcat_f': 5.622727324058781, 'textcat_r': 5.026279249489075, 'textcat_p': 6.511168406954276, 'eval': {'textcat_f': 0.562272732405878, 'textcat_r': 0.5026279249489075, 'textcat_p': 0.6511168406954276}}}"
40,"{'QA': {'textcat_f': 5.611054088004154, 'textcat_r': 5.049006522211183, 'textcat_p': 6.455204112901759, 'eval': {'textcat_f': 0.5611054088004155, 'textcat_r': 0.5049006522211184, 'textcat_p': 0.6455204112901759}}}"
41,"{'QA': {'textcat_f': 5.6700291761533625, 'textcat_r': 5.098049584400049, 'textcat_p': 6.522423538194023, 'eval': {'textcat_f': 0.5670029176153363, 'textcat_r': 0.5098049584400048, 'textcat_p': 0.6522423538194023}}}"
42,"{'QA': {'textcat_f': 5.690785562086818, 'textcat_r': 5.106552985755012, 'textcat_p': 6.554837277118608, 'eval': {'textcat_f': 0.5690785562086818, 'textcat_r': 0.5106552985755012, 'textcat_p': 0.6554837277118608}}}"
43,"{'QA': {'textcat_f': 5.599764225803109, 'textcat_r': 4.981068820828773, 'textcat_p': 6.5238671845677905, 'eval': {'textcat_f': 0.5599764225803109, 'textcat_r': 0.49810688208287723, 'textcat_p': 0.6523867184567791}}}"
44,"{'QA': {'textcat_f': 5.689950867214687, 'textcat_r': 5.059891880121258, 'textcat_p': 6.612601409564198, 'eval': {'textcat_f': 0.5689950867214687, 'textcat_r': 0.5059891880121258, 'textcat_p': 0.6612601409564198}}}"
45,"{'QA': {'textcat_f': 5.681408924278626, 'textcat_r': 5.13450080500383, 'textcat_p': 6.484894333757998, 'eval': {'textcat_f': 0.5681408924278626, 'textcat_r': 0.513450080500383, 'textcat_p': 0.6484894333757998}}}"
46,"{'QA': {'textcat_f': 5.736062682954742, 'textcat_r': 5.174819458774531, 'textcat_p': 6.568318358251085, 'eval': {'textcat_f': 0.5736062682954742, 'textcat_r': 0.5174819458774531, 'textcat_p': 0.6568318358251085}}}"
47,"{'QA': {'textcat_f': 5.746985424758083, 'textcat_r': 5.181638101128701, 'textcat_p': 6.60003591279438, 'eval': {'textcat_f': 0.5746985424758083, 'textcat_r': 0.5181638101128702, 'textcat_p': 0.660003591279438}}}"
48,"{'QA': {'textcat_f': 5.702821795546323, 'textcat_r': 5.139898970702644, 'textcat_p': 6.553161244490609, 'eval': {'textcat_f': 0.5702821795546323, 'textcat_r': 0.5139898970702644, 'textcat_p': 0.655316124449061}}}"
49,"{'QA': {'textcat_f': 5.712172901848265, 'textcat_r': 5.161389385045532, 'textcat_p': 6.538010673825531, 'eval': {'textcat_f': 0.5712172901848265, 'textcat_r': 0.5161389385045532, 'textcat_p': 0.6538010673825532}}}"
50,"{'QA': {'textcat_f': 5.673853758302616, 'textcat_r': 5.098253949066284, 'textcat_p': 6.545063234715255, 'eval': {'textcat_f': 0.5673853758302616, 'textcat_r': 0.5098253949066284, 'textcat_p': 0.6545063234715255}}}"
51,"{'QA': {'textcat_f': 5.697299993027183, 'textcat_r': 5.119242091354335, 'textcat_p': 6.579140942267849, 'eval': {'textcat_f': 0.5697299993027183, 'textcat_r': 0.5119242091354335, 'textcat_p': 0.6579140942267849}}}"
52,"{'QA': {'textcat_f': 5.64019035244079, 'textcat_r': 5.0895249413448616, 'textcat_p': 6.491244873337043, 'eval': {'textcat_f': 0.564019035244079, 'textcat_r': 0.5089524941344862, 'textcat_p': 0.6491244873337043}}}"
53,"{'QA': {'textcat_f': 5.650745836402773, 'textcat_r': 5.074564135075468, 'textcat_p': 6.5077812426895285, 'eval': {'textcat_f': 0.5650745836402773, 'textcat_r': 0.5074564135075468, 'textcat_p': 0.6507781242689529}}}"
54,"{'QA': {'textcat_f': 5.61122551974622, 'textcat_r': 5.0207028862232, 'textcat_p': 6.516351610070529, 'eval': {'textcat_f': 0.561122551974622, 'textcat_r': 0.50207028862232, 'textcat_p': 0.651635161007053}}}"
55,"{'QA': {'textcat_f': 5.66168148157581, 'textcat_r': 5.05060719243461, 'textcat_p': 6.599665514382372, 'eval': {'textcat_f': 0.566168148157581, 'textcat_r': 0.505060719243461, 'textcat_p': 0.6599665514382372}}}"
56,"{'QA': {'textcat_f': 5.651763396808763, 'textcat_r': 5.076922981901369, 'textcat_p': 6.5304929405420316, 'eval': {'textcat_f': 0.5651763396808762, 'textcat_r': 0.5076922981901368, 'textcat_p': 0.6530492940542032}}}"
57,"{'QA': {'textcat_f': 5.613224727655342, 'textcat_r': 5.03060719243861, 'textcat_p': 6.511519959486281, 'eval': {'textcat_f': 0.5613224727655342, 'textcat_r': 0.503060719243861, 'textcat_p': 0.6511519959486282}}}"
58,"{'QA': {'textcat_f': 5.661546739658981, 'textcat_r': 5.047692763506564, 'textcat_p': 6.616578756784339, 'eval': {'textcat_f': 0.566154673965898, 'textcat_r': 0.5047692763506564, 'textcat_p': 0.6616578756784339}}}"
59,"{'QA': {'textcat_f': 5.678264209269372, 'textcat_r': 5.074008552973323, 'textcat_p': 6.6157851060051565, 'eval': {'textcat_f': 0.5678264209269372, 'textcat_r': 0.5074008552973324, 'textcat_p': 0.6615785106005156}}}"
60,"{'QA': {'textcat_f': 5.703465262250189, 'textcat_r': 5.129367404632949, 'textcat_p': 6.577917744046529, 'eval': {'textcat_f': 0.5703465262250189, 'textcat_r': 0.5129367404632948, 'textcat_p': 0.6577917744046529}}}"
61,"{'QA': {'textcat_f': 5.667461658392134, 'textcat_r': 5.088090808896795, 'textcat_p': 6.565328800406583, 'eval': {'textcat_f': 0.5667461658392134, 'textcat_r': 0.5088090808896795, 'textcat_p': 0.6565328800406582}}}"
62,"{'QA': {'textcat_f': 5.62419527119463, 'textcat_r': 5.036728637246963, 'textcat_p': 6.513268673733146, 'eval': {'textcat_f': 0.562419527119463, 'textcat_r': 0.5036728637246963, 'textcat_p': 0.6513268673733146}}}"
63,"{'QA': {'textcat_f': 5.61637380815368, 'textcat_r': 5.055186116947343, 'textcat_p': 6.4674006101972505, 'eval': {'textcat_f': 0.5616373808153681, 'textcat_r': 0.5055186116947343, 'textcat_p': 0.646740061019725}}}"
64,"{'QA': {'textcat_f': 5.616459325739095, 'textcat_r': 5.058100545875388, 'textcat_p': 6.457051006851736, 'eval': {'textcat_f': 0.5616459325739095, 'textcat_r': 0.5058100545875388, 'textcat_p': 0.6457051006851736}}}"
65,"{'QA': {'textcat_f': 5.661896629475871, 'textcat_r': 5.073469515409925, 'textcat_p': 6.537728093551299, 'eval': {'textcat_f': 0.5661896629475871, 'textcat_r': 0.5073469515409925, 'textcat_p': 0.6537728093551298}}}"
66,"{'QA': {'textcat_f': 5.717408245462853, 'textcat_r': 5.157881547129327, 'textcat_p': 6.533450723459561, 'eval': {'textcat_f': 0.5717408245462854, 'textcat_r': 0.5157881547129327, 'textcat_p': 0.6533450723459561}}}"
67,"{'QA': {'textcat_f': 5.721329485141361, 'textcat_r': 5.180028840824526, 'textcat_p': 6.503867928184959, 'eval': {'textcat_f': 0.5721329485141361, 'textcat_r': 0.5180028840824525, 'textcat_p': 0.6503867928184959}}}"
68,"{'QA': {'textcat_f': 5.702582452027263, 'textcat_r': 5.138095365736062, 'textcat_p': 6.518974882642201, 'eval': {'textcat_f': 0.5702582452027263, 'textcat_r': 0.5138095365736062, 'textcat_p': 0.6518974882642201}}}"
69,"{'QA': {'textcat_f': 5.6685034229798745, 'textcat_r': 5.114959929748814, 'textcat_p': 6.466078455875381, 'eval': {'textcat_f': 0.5668503422979875, 'textcat_r': 0.5114959929748814, 'textcat_p': 0.6466078455875381}}}"
70,"{'QA': {'textcat_f': 5.682299702621101, 'textcat_r': 5.114959929748814, 'textcat_p': 6.500703308956213, 'eval': {'textcat_f': 0.5682299702621101, 'textcat_r': 0.5114959929748814, 'textcat_p': 0.6500703308956213}}}"
71,"{'QA': {'textcat_f': 5.624011834019711, 'textcat_r': 5.0718898321538415, 'textcat_p': 6.423062948220483, 'eval': {'textcat_f': 0.5624011834019711, 'textcat_r': 0.5071889832153842, 'textcat_p': 0.6423062948220484}}}"
72,"{'QA': {'textcat_f': 5.64350554718813, 'textcat_r': 5.12458297097259, 'textcat_p': 6.385909336852365, 'eval': {'textcat_f': 0.564350554718813, 'textcat_r': 0.512458297097259, 'textcat_p': 0.6385909336852366}}}"
73,"{'QA': {'textcat_f': 5.622875034399975, 'textcat_r': 5.166267729973884, 'textcat_p': 6.286095670497696, 'eval': {'textcat_f': 0.5622875034399974, 'textcat_r': 0.5166267729973885, 'textcat_p': 0.6286095670497696}}}"
74,"{'QA': {'textcat_f': 5.609232512859116, 'textcat_r': 5.134497395054911, 'textcat_p': 6.291271011833338, 'eval': {'textcat_f': 0.5609232512859116, 'textcat_r': 0.5134497395054911, 'textcat_p': 0.6291271011833338}}}"
75,"{'QA': {'textcat_f': 5.66206400353763, 'textcat_r': 5.178264335185226, 'textcat_p': 6.3472061945173275, 'eval': {'textcat_f': 0.566206400353763, 'textcat_r': 0.5178264335185225, 'textcat_p': 0.6347206194517327}}}"
76,"{'QA': {'textcat_f': 5.684478297213585, 'textcat_r': 5.193687676144524, 'textcat_p': 6.368267273047798, 'eval': {'textcat_f': 0.5684478297213584, 'textcat_r': 0.5193687676144524, 'textcat_p': 0.6368267273047798}}}"
77,"{'QA': {'textcat_f': 5.6139885631601505, 'textcat_r': 5.097654736676292, 'textcat_p': 6.3493648489349965, 'eval': {'textcat_f': 0.561398856316015, 'textcat_r': 0.5097654736676291, 'textcat_p': 0.6349364848934996}}}"
78,"{'QA': {'textcat_f': 5.574479092344507, 'textcat_r': 5.0332658146821005, 'textcat_p': 6.35452055607947, 'eval': {'textcat_f': 0.5574479092344508, 'textcat_r': 0.5033265814682101, 'textcat_p': 0.635452055607947}}}"
79,"{'QA': {'textcat_f': 5.631938722750014, 'textcat_r': 5.1246943860811625, 'textcat_p': 6.3685924850897635, 'eval': {'textcat_f': 0.5631938722750014, 'textcat_r': 0.5124694386081162, 'textcat_p': 0.6368592485089763}}}"
80,"{'QA': {'textcat_f': 5.604609590414904, 'textcat_r': 5.0612704966498105, 'textcat_p': 6.41010772190404, 'eval': {'textcat_f': 0.5604609590414904, 'textcat_r': 0.506127049664981, 'textcat_p': 0.6410107721904039}}}"
81,"{'QA': {'textcat_f': 5.595470932811304, 'textcat_r': 5.086162271535413, 'textcat_p': 6.359021673481088, 'eval': {'textcat_f': 0.5595470932811304, 'textcat_r': 0.5086162271535413, 'textcat_p': 0.6359021673481088}}}"
82,"{'QA': {'textcat_f': 5.614203882500979, 'textcat_r': 5.114984326665075, 'textcat_p': 6.362472222938534, 'eval': {'textcat_f': 0.5614203882500979, 'textcat_r': 0.5114984326665075, 'textcat_p': 0.6362472222938533}}}"
83,"{'QA': {'textcat_f': 5.623537569947976, 'textcat_r': 5.13838568720379, 'textcat_p': 6.352648749412817, 'eval': {'textcat_f': 0.5623537569947976, 'textcat_r': 0.513838568720379, 'textcat_p': 0.6352648749412817}}}"
84,"{'QA': {'textcat_f': 5.643159979881938, 'textcat_r': 5.13838568720379, 'textcat_p': 6.374552559625089, 'eval': {'textcat_f': 0.5643159979881938, 'textcat_r': 0.513838568720379, 'textcat_p': 0.6374552559625088}}}"
85,"{'QA': {'textcat_f': 5.653890437167108, 'textcat_r': 5.1651096399356895, 'textcat_p': 6.3652467461558615, 'eval': {'textcat_f': 0.5653890437167108, 'textcat_r': 0.516510963993569, 'textcat_p': 0.6365246746155862}}}"
86,"{'QA': {'textcat_f': 5.646210375874363, 'textcat_r': 5.1651096399356895, 'textcat_p': 6.349846065436137, 'eval': {'textcat_f': 0.5646210375874363, 'textcat_r': 0.516510963993569, 'textcat_p': 0.6349846065436137}}}"
87,"{'QA': {'textcat_f': 5.675119149189532, 'textcat_r': 5.156579576179931, 'textcat_p': 6.424790990568754, 'eval': {'textcat_f': 0.5675119149189533, 'textcat_r': 0.5156579576179932, 'textcat_p': 0.6424790990568754}}}"
88,"{'QA': {'textcat_f': 5.691071410943347, 'textcat_r': 5.1538523034538235, 'textcat_p': 6.455666616864953, 'eval': {'textcat_f': 0.5691071410943347, 'textcat_r': 0.5153852303453823, 'textcat_p': 0.6455666616864952}}}"
89,"{'QA': {'textcat_f': 5.633813090058542, 'textcat_r': 5.05741120072045, 'textcat_p': 6.457296835267712, 'eval': {'textcat_f': 0.5633813090058541, 'textcat_r': 0.505741120072045, 'textcat_p': 0.6457296835267712}}}"
90,"{'QA': {'textcat_f': 5.657494814521378, 'textcat_r': 5.069751834915735, 'textcat_p': 6.484137551998246, 'eval': {'textcat_f': 0.5657494814521378, 'textcat_r': 0.5069751834915734, 'textcat_p': 0.6484137551998246}}}"
91,"{'QA': {'textcat_f': 5.654489492003286, 'textcat_r': 5.097055766674545, 'textcat_p': 6.435940409170389, 'eval': {'textcat_f': 0.5654489492003286, 'textcat_r': 0.5097055766674545, 'textcat_p': 0.6435940409170389}}}"
92,"{'QA': {'textcat_f': 5.633465352991236, 'textcat_r': 5.076067624386495, 'textcat_p': 6.415398136064306, 'eval': {'textcat_f': 0.5633465352991236, 'textcat_r': 0.5076067624386494, 'textcat_p': 0.6415398136064306}}}"
93,"{'QA': {'textcat_f': 5.605870426716263, 'textcat_r': 5.05479102864634, 'textcat_p': 6.38750986477344, 'eval': {'textcat_f': 0.5605870426716263, 'textcat_r': 0.505479102864634, 'textcat_p': 0.638750986477344}}}"
94,"{'QA': {'textcat_f': 5.505405162302973, 'textcat_r': 4.946515101698321, 'textcat_p': 6.295502106964147, 'eval': {'textcat_f': 0.5505405162302973, 'textcat_r': 0.49465151016983205, 'textcat_p': 0.6295502106964147}}}"
95,"{'QA': {'textcat_f': 5.581209713053635, 'textcat_r': 5.03266626385178, 'textcat_p': 6.349087952413778, 'eval': {'textcat_f': 0.5581209713053635, 'textcat_r': 0.503266626385178, 'textcat_p': 0.6349087952413778}}}"
96,"{'QA': {'textcat_f': 5.566237891573191, 'textcat_r': 5.012258100590639, 'textcat_p': 6.353228583019527, 'eval': {'textcat_f': 0.5566237891573191, 'textcat_r': 0.5012258100590639, 'textcat_p': 0.6353228583019528}}}"
97,"{'QA': {'textcat_f': 5.586113838524737, 'textcat_r': 5.053942859591935, 'textcat_p': 6.3326870330974865, 'eval': {'textcat_f': 0.5586113838524737, 'textcat_r': 0.5053942859591934, 'textcat_p': 0.6332687033097486}}}"
98,"{'QA': {'textcat_f': 5.6306368584108535, 'textcat_r': 5.135205799527377, 'textcat_p': 6.332514820144318, 'eval': {'textcat_f': 0.5630636858410853, 'textcat_r': 0.5135205799527377, 'textcat_p': 0.6332514820144318}}}"
99,"{'QA': {'textcat_f': 5.615659582269882, 'textcat_r': 5.113521040522081, 'textcat_p': 6.33647487705259, 'eval': {'textcat_f': 0.5615659582269882, 'textcat_r': 0.5113521040522081, 'textcat_p': 0.6336474877052589}}}"
