,eval,epoch
0,"{'QA': {'tp': 34.0, 'fp': 28.00000001, 'fn': 13.00000001, 'tn': 12.0, 'tot': 47.00000001, 'eval': {'textcat_p': 0.548387096685744, 'textcat_r': 0.7234042551652331, 'textcat_f': 0.6238532108947058}}, 'eval_global': {'textcat_p': 0.548387096685744, 'textcat_r': 0.7234042551652331, 'textcat_f': 0.6238532108947058}}",0
1,"{'QA': {'tp': 36.0, 'fp': 26.00000001, 'fn': 11.00000001, 'tn': 14.0, 'tot': 47.00000001, 'eval': {'textcat_p': 0.5806451611966701, 'textcat_r': 0.765957446645541, 'textcat_f': 0.6605504585943944}}, 'eval_global': {'textcat_p': 0.5806451611966701, 'textcat_r': 0.765957446645541, 'textcat_f': 0.6605504585943944}}",1
2,"{'QA': {'tp': 38.0, 'fp': 24.00000001, 'fn': 9.00000001, 'tn': 16.0, 'tot': 47.00000001, 'eval': {'textcat_p': 0.6129032257075963, 'textcat_r': 0.8085106381258488, 'textcat_f': 0.697247706294083}}, 'eval_global': {'textcat_p': 0.6129032257075963, 'textcat_r': 0.8085106381258488, 'textcat_f': 0.697247706294083}}",2
3,"{'QA': {'tp': 33.0, 'fp': 16.00000001, 'fn': 14.00000001, 'tn': 24.0, 'tot': 47.00000001, 'eval': {'textcat_p': 0.6734693876176593, 'textcat_r': 0.7021276594250792, 'textcat_f': 0.6874999998567708}}, 'eval_global': {'textcat_p': 0.6734693876176593, 'textcat_r': 0.7021276594250792, 'textcat_f': 0.6874999998567708}}",3
4,"{'QA': {'tp': 28.0, 'fp': 14.00000001, 'fn': 19.00000001, 'tn': 26.0, 'tot': 47.00000001, 'eval': {'textcat_p': 0.6666666665079365, 'textcat_r': 0.5957446807243096, 'textcat_f': 0.6292134830046711}}, 'eval_global': {'textcat_p': 0.6666666665079365, 'textcat_r': 0.5957446807243096, 'textcat_f': 0.6292134830046711}}",4
5,"{'QA': {'tp': 30.0, 'fp': 13.00000001, 'fn': 17.00000001, 'tn': 27.0, 'tot': 47.00000001, 'eval': {'textcat_p': 0.6976744184424013, 'textcat_r': 0.6382978722046174, 'textcat_f': 0.6666666665185185}}, 'eval_global': {'textcat_p': 0.6976744184424013, 'textcat_r': 0.6382978722046174, 'textcat_f': 0.6666666665185185}}",5
6,"{'QA': {'tp': 30.0, 'fp': 13.00000001, 'fn': 17.00000001, 'tn': 27.0, 'tot': 47.00000001, 'eval': {'textcat_p': 0.6976744184424013, 'textcat_r': 0.6382978722046174, 'textcat_f': 0.6666666665185185}}, 'eval_global': {'textcat_p': 0.6976744184424013, 'textcat_r': 0.6382978722046174, 'textcat_f': 0.6666666665185185}}",6
7,"{'QA': {'tp': 32.0, 'fp': 14.00000001, 'fn': 15.00000001, 'tn': 26.0, 'tot': 47.00000001, 'eval': {'textcat_p': 0.6956521737618148, 'textcat_r': 0.6808510636849253, 'textcat_f': 0.6881720428627587}}, 'eval_global': {'textcat_p': 0.6956521737618148, 'textcat_r': 0.6808510636849253, 'textcat_f': 0.6881720428627587}}",7
8,"{'QA': {'tp': 31.0, 'fp': 13.00000001, 'fn': 16.00000001, 'tn': 27.0, 'tot': 47.00000001, 'eval': {'textcat_p': 0.7045454543853306, 'textcat_r': 0.6595744679447714, 'textcat_f': 0.6813186811689409}}, 'eval_global': {'textcat_p': 0.7045454543853306, 'textcat_r': 0.6595744679447714, 'textcat_f': 0.6813186811689409}}",8
9,"{'QA': {'tp': 29.0, 'fp': 14.00000001, 'fn': 18.00000001, 'tn': 26.0, 'tot': 47.00000001, 'eval': {'textcat_p': 0.6744186044943212, 'textcat_r': 0.6170212764644636, 'textcat_f': 0.6444444443012346}}, 'eval_global': {'textcat_p': 0.6744186044943212, 'textcat_r': 0.6170212764644636, 'textcat_f': 0.6444444443012346}}",9
10,"{'QA': {'tp': 27.0, 'fp': 14.00000001, 'fn': 20.00000001, 'tn': 26.0, 'tot': 47.00000001, 'eval': {'textcat_p': 0.658536585205235, 'textcat_r': 0.5744680849841557, 'textcat_f': 0.6136363634969008}}, 'eval_global': {'textcat_p': 0.658536585205235, 'textcat_r': 0.5744680849841557, 'textcat_f': 0.6136363634969008}}",10
11,"{'QA': {'tp': 27.0, 'fp': 14.00000001, 'fn': 20.00000001, 'tn': 26.0, 'tot': 47.00000001, 'eval': {'textcat_p': 0.658536585205235, 'textcat_r': 0.5744680849841557, 'textcat_f': 0.6136363634969008}}, 'eval_global': {'textcat_p': 0.658536585205235, 'textcat_r': 0.5744680849841557, 'textcat_f': 0.6136363634969008}}",11
12,"{'QA': {'tp': 28.0, 'fp': 16.00000001, 'fn': 19.00000001, 'tn': 24.0, 'tot': 47.00000001, 'eval': {'textcat_p': 0.6363636362190083, 'textcat_r': 0.5957446807243096, 'textcat_f': 0.6153846152493659}}, 'eval_global': {'textcat_p': 0.6363636362190083, 'textcat_r': 0.5957446807243096, 'textcat_f': 0.6153846152493659}}",12
13,"{'QA': {'tp': 28.0, 'fp': 15.00000001, 'fn': 19.00000001, 'tn': 25.0, 'tot': 47.00000001, 'eval': {'textcat_p': 0.6511627905462412, 'textcat_r': 0.5957446807243096, 'textcat_f': 0.6222222220839506}}, 'eval_global': {'textcat_p': 0.6511627905462412, 'textcat_r': 0.5957446807243096, 'textcat_f': 0.6222222220839506}}",13
14,"{'QA': {'tp': 28.0, 'fp': 15.00000001, 'fn': 19.00000001, 'tn': 25.0, 'tot': 47.00000001, 'eval': {'textcat_p': 0.6511627905462412, 'textcat_r': 0.5957446807243096, 'textcat_f': 0.6222222220839506}}, 'eval_global': {'textcat_p': 0.6511627905462412, 'textcat_r': 0.5957446807243096, 'textcat_f': 0.6222222220839506}}",14
15,"{'QA': {'tp': 29.0, 'fp': 16.00000001, 'fn': 18.00000001, 'tn': 24.0, 'tot': 47.00000001, 'eval': {'textcat_p': 0.6444444443012346, 'textcat_r': 0.6170212764644636, 'textcat_f': 0.6304347824716446}}, 'eval_global': {'textcat_p': 0.6444444443012346, 'textcat_r': 0.6170212764644636, 'textcat_f': 0.6304347824716446}}",15
16,"{'QA': {'tp': 30.0, 'fp': 16.00000001, 'fn': 17.00000001, 'tn': 24.0, 'tot': 47.00000001, 'eval': {'textcat_p': 0.6521739129017013, 'textcat_r': 0.6382978722046174, 'textcat_f': 0.6451612901838363}}, 'eval_global': {'textcat_p': 0.6521739129017013, 'textcat_r': 0.6382978722046174, 'textcat_f': 0.6451612901838363}}",16
17,"{'QA': {'tp': 31.0, 'fp': 17.00000001, 'fn': 16.00000001, 'tn': 23.0, 'tot': 47.00000001, 'eval': {'textcat_p': 0.6458333331987847, 'textcat_r': 0.6595744679447714, 'textcat_f': 0.6526315788099722}}, 'eval_global': {'textcat_p': 0.6458333331987847, 'textcat_r': 0.6595744679447714, 'textcat_f': 0.6526315788099722}}",17
18,"{'QA': {'tp': 33.0, 'fp': 17.00000001, 'fn': 14.00000001, 'tn': 23.0, 'tot': 47.00000001, 'eval': {'textcat_p': 0.659999999868, 'textcat_r': 0.7021276594250792, 'textcat_f': 0.6804123709937294}}, 'eval_global': {'textcat_p': 0.659999999868, 'textcat_r': 0.7021276594250792, 'textcat_f': 0.6804123709937294}}",18
19,"{'QA': {'tp': 33.0, 'fp': 17.00000001, 'fn': 14.00000001, 'tn': 23.0, 'tot': 47.00000001, 'eval': {'textcat_p': 0.659999999868, 'textcat_r': 0.7021276594250792, 'textcat_f': 0.6804123709937294}}, 'eval_global': {'textcat_p': 0.659999999868, 'textcat_r': 0.7021276594250792, 'textcat_f': 0.6804123709937294}}",19
20,"{'QA': {'tp': 34.0, 'fp': 17.00000001, 'fn': 13.00000001, 'tn': 23.0, 'tot': 47.00000001, 'eval': {'textcat_p': 0.6666666665359477, 'textcat_r': 0.7234042551652331, 'textcat_f': 0.6938775508788004}}, 'eval_global': {'textcat_p': 0.6666666665359477, 'textcat_r': 0.7234042551652331, 'textcat_f': 0.6938775508788004}}",20
21,"{'QA': {'tp': 35.0, 'fp': 16.00000001, 'fn': 12.00000001, 'tn': 24.0, 'tot': 47.00000001, 'eval': {'textcat_p': 0.6862745096693579, 'textcat_r': 0.744680850905387, 'textcat_f': 0.7142857141399417}}, 'eval_global': {'textcat_p': 0.6862745096693579, 'textcat_r': 0.744680850905387, 'textcat_f': 0.7142857141399417}}",21
22,"{'QA': {'tp': 35.0, 'fp': 15.00000001, 'fn': 12.00000001, 'tn': 25.0, 'tot': 47.00000001, 'eval': {'textcat_p': 0.6999999998599999, 'textcat_r': 0.744680850905387, 'textcat_f': 0.7216494843872887}}, 'eval_global': {'textcat_p': 0.6999999998599999, 'textcat_r': 0.744680850905387, 'textcat_f': 0.7216494843872887}}",22
23,"{'QA': {'tp': 34.0, 'fp': 17.00000001, 'fn': 13.00000001, 'tn': 23.0, 'tot': 47.00000001, 'eval': {'textcat_p': 0.6666666665359477, 'textcat_r': 0.7234042551652331, 'textcat_f': 0.6938775508788004}}, 'eval_global': {'textcat_p': 0.6666666665359477, 'textcat_r': 0.7234042551652331, 'textcat_f': 0.6938775508788004}}",23
24,"{'QA': {'tp': 34.0, 'fp': 16.00000001, 'fn': 13.00000001, 'tn': 24.0, 'tot': 47.00000001, 'eval': {'textcat_p': 0.679999999864, 'textcat_r': 0.7234042551652331, 'textcat_f': 0.7010309276905091}}, 'eval_global': {'textcat_p': 0.679999999864, 'textcat_r': 0.7234042551652331, 'textcat_f': 0.7010309276905091}}",24
25,"{'QA': {'tp': 34.0, 'fp': 15.00000001, 'fn': 13.00000001, 'tn': 25.0, 'tot': 47.00000001, 'eval': {'textcat_p': 0.6938775508788005, 'textcat_r': 0.7234042551652331, 'textcat_f': 0.7083333331857639}}, 'eval_global': {'textcat_p': 0.6938775508788005, 'textcat_r': 0.7234042551652331, 'textcat_f': 0.7083333331857639}}",25
26,"{'QA': {'tp': 32.0, 'fp': 15.00000001, 'fn': 15.00000001, 'tn': 25.0, 'tot': 47.00000001, 'eval': {'textcat_p': 0.6808510636849253, 'textcat_r': 0.6808510636849253, 'textcat_f': 0.6808510636849253}}, 'eval_global': {'textcat_p': 0.6808510636849253, 'textcat_r': 0.6808510636849253, 'textcat_f': 0.6808510636849253}}",26
27,"{'QA': {'tp': 32.0, 'fp': 15.00000001, 'fn': 15.00000001, 'tn': 25.0, 'tot': 47.00000001, 'eval': {'textcat_p': 0.6808510636849253, 'textcat_r': 0.6808510636849253, 'textcat_f': 0.6808510636849253}}, 'eval_global': {'textcat_p': 0.6808510636849253, 'textcat_r': 0.6808510636849253, 'textcat_f': 0.6808510636849253}}",27
28,"{'QA': {'tp': 31.0, 'fp': 15.00000001, 'fn': 16.00000001, 'tn': 25.0, 'tot': 47.00000001, 'eval': {'textcat_p': 0.673913043331758, 'textcat_r': 0.6595744679447714, 'textcat_f': 0.6666666665232974}}, 'eval_global': {'textcat_p': 0.673913043331758, 'textcat_r': 0.6595744679447714, 'textcat_f': 0.6666666665232974}}",28
29,"{'QA': {'tp': 30.0, 'fp': 15.00000001, 'fn': 17.00000001, 'tn': 25.0, 'tot': 47.00000001, 'eval': {'textcat_p': 0.6666666665185185, 'textcat_r': 0.6382978722046174, 'textcat_f': 0.6521739129017012}}, 'eval_global': {'textcat_p': 0.6666666665185185, 'textcat_r': 0.6382978722046174, 'textcat_f': 0.6521739129017012}}",29
30,"{'QA': {'tp': 29.0, 'fp': 15.00000001, 'fn': 18.00000001, 'tn': 25.0, 'tot': 47.00000001, 'eval': {'textcat_p': 0.6590909089411157, 'textcat_r': 0.6170212764644636, 'textcat_f': 0.6373626372225577}}, 'eval_global': {'textcat_p': 0.6590909089411157, 'textcat_r': 0.6170212764644636, 'textcat_f': 0.6373626372225577}}",30
31,"{'QA': {'tp': 30.0, 'fp': 16.00000001, 'fn': 17.00000001, 'tn': 24.0, 'tot': 47.00000001, 'eval': {'textcat_p': 0.6521739129017013, 'textcat_r': 0.6382978722046174, 'textcat_f': 0.6451612901838363}}, 'eval_global': {'textcat_p': 0.6521739129017013, 'textcat_r': 0.6382978722046174, 'textcat_f': 0.6451612901838363}}",31
32,"{'QA': {'tp': 30.0, 'fp': 17.00000001, 'fn': 17.00000001, 'tn': 23.0, 'tot': 47.00000001, 'eval': {'textcat_p': 0.6382978722046174, 'textcat_r': 0.6382978722046174, 'textcat_f': 0.6382978722046174}}, 'eval_global': {'textcat_p': 0.6382978722046174, 'textcat_r': 0.6382978722046174, 'textcat_f': 0.6382978722046174}}",32
33,"{'QA': {'tp': 29.0, 'fp': 16.00000001, 'fn': 18.00000001, 'tn': 24.0, 'tot': 47.00000001, 'eval': {'textcat_p': 0.6444444443012346, 'textcat_r': 0.6170212764644636, 'textcat_f': 0.6304347824716446}}, 'eval_global': {'textcat_p': 0.6444444443012346, 'textcat_r': 0.6170212764644636, 'textcat_f': 0.6304347824716446}}",33
34,"{'QA': {'tp': 29.0, 'fp': 16.00000001, 'fn': 18.00000001, 'tn': 24.0, 'tot': 47.00000001, 'eval': {'textcat_p': 0.6444444443012346, 'textcat_r': 0.6170212764644636, 'textcat_f': 0.6304347824716446}}, 'eval_global': {'textcat_p': 0.6444444443012346, 'textcat_r': 0.6170212764644636, 'textcat_f': 0.6304347824716446}}",34
35,"{'QA': {'tp': 28.0, 'fp': 15.00000001, 'fn': 19.00000001, 'tn': 25.0, 'tot': 47.00000001, 'eval': {'textcat_p': 0.6511627905462412, 'textcat_r': 0.5957446807243096, 'textcat_f': 0.6222222220839506}}, 'eval_global': {'textcat_p': 0.6511627905462412, 'textcat_r': 0.5957446807243096, 'textcat_f': 0.6222222220839506}}",35
36,"{'QA': {'tp': 28.0, 'fp': 15.00000001, 'fn': 19.00000001, 'tn': 25.0, 'tot': 47.00000001, 'eval': {'textcat_p': 0.6511627905462412, 'textcat_r': 0.5957446807243096, 'textcat_f': 0.6222222220839506}}, 'eval_global': {'textcat_p': 0.6511627905462412, 'textcat_r': 0.5957446807243096, 'textcat_f': 0.6222222220839506}}",36
37,"{'QA': {'tp': 28.0, 'fp': 15.00000001, 'fn': 19.00000001, 'tn': 25.0, 'tot': 47.00000001, 'eval': {'textcat_p': 0.6511627905462412, 'textcat_r': 0.5957446807243096, 'textcat_f': 0.6222222220839506}}, 'eval_global': {'textcat_p': 0.6511627905462412, 'textcat_r': 0.5957446807243096, 'textcat_f': 0.6222222220839506}}",37
38,"{'QA': {'tp': 28.0, 'fp': 15.00000001, 'fn': 19.00000001, 'tn': 25.0, 'tot': 47.00000001, 'eval': {'textcat_p': 0.6511627905462412, 'textcat_r': 0.5957446807243096, 'textcat_f': 0.6222222220839506}}, 'eval_global': {'textcat_p': 0.6511627905462412, 'textcat_r': 0.5957446807243096, 'textcat_f': 0.6222222220839506}}",38
39,"{'QA': {'tp': 28.0, 'fp': 15.00000001, 'fn': 19.00000001, 'tn': 25.0, 'tot': 47.00000001, 'eval': {'textcat_p': 0.6511627905462412, 'textcat_r': 0.5957446807243096, 'textcat_f': 0.6222222220839506}}, 'eval_global': {'textcat_p': 0.6511627905462412, 'textcat_r': 0.5957446807243096, 'textcat_f': 0.6222222220839506}}",39
40,"{'QA': {'tp': 28.0, 'fp': 15.00000001, 'fn': 19.00000001, 'tn': 25.0, 'tot': 47.00000001, 'eval': {'textcat_p': 0.6511627905462412, 'textcat_r': 0.5957446807243096, 'textcat_f': 0.6222222220839506}}, 'eval_global': {'textcat_p': 0.6511627905462412, 'textcat_r': 0.5957446807243096, 'textcat_f': 0.6222222220839506}}",40
41,"{'QA': {'tp': 28.0, 'fp': 15.00000001, 'fn': 19.00000001, 'tn': 25.0, 'tot': 47.00000001, 'eval': {'textcat_p': 0.6511627905462412, 'textcat_r': 0.5957446807243096, 'textcat_f': 0.6222222220839506}}, 'eval_global': {'textcat_p': 0.6511627905462412, 'textcat_r': 0.5957446807243096, 'textcat_f': 0.6222222220839506}}",41
42,"{'QA': {'tp': 28.0, 'fp': 15.00000001, 'fn': 19.00000001, 'tn': 25.0, 'tot': 47.00000001, 'eval': {'textcat_p': 0.6511627905462412, 'textcat_r': 0.5957446807243096, 'textcat_f': 0.6222222220839506}}, 'eval_global': {'textcat_p': 0.6511627905462412, 'textcat_r': 0.5957446807243096, 'textcat_f': 0.6222222220839506}}",42
43,"{'QA': {'tp': 28.0, 'fp': 15.00000001, 'fn': 19.00000001, 'tn': 25.0, 'tot': 47.00000001, 'eval': {'textcat_p': 0.6511627905462412, 'textcat_r': 0.5957446807243096, 'textcat_f': 0.6222222220839506}}, 'eval_global': {'textcat_p': 0.6511627905462412, 'textcat_r': 0.5957446807243096, 'textcat_f': 0.6222222220839506}}",43
44,"{'QA': {'tp': 29.0, 'fp': 15.00000001, 'fn': 18.00000001, 'tn': 25.0, 'tot': 47.00000001, 'eval': {'textcat_p': 0.6590909089411157, 'textcat_r': 0.6170212764644636, 'textcat_f': 0.6373626372225577}}, 'eval_global': {'textcat_p': 0.6590909089411157, 'textcat_r': 0.6170212764644636, 'textcat_f': 0.6373626372225577}}",44
45,"{'QA': {'tp': 29.0, 'fp': 15.00000001, 'fn': 18.00000001, 'tn': 25.0, 'tot': 47.00000001, 'eval': {'textcat_p': 0.6590909089411157, 'textcat_r': 0.6170212764644636, 'textcat_f': 0.6373626372225577}}, 'eval_global': {'textcat_p': 0.6590909089411157, 'textcat_r': 0.6170212764644636, 'textcat_f': 0.6373626372225577}}",45
46,"{'QA': {'tp': 29.0, 'fp': 15.00000001, 'fn': 18.00000001, 'tn': 25.0, 'tot': 47.00000001, 'eval': {'textcat_p': 0.6590909089411157, 'textcat_r': 0.6170212764644636, 'textcat_f': 0.6373626372225577}}, 'eval_global': {'textcat_p': 0.6590909089411157, 'textcat_r': 0.6170212764644636, 'textcat_f': 0.6373626372225577}}",46
47,"{'QA': {'tp': 30.0, 'fp': 15.00000001, 'fn': 17.00000001, 'tn': 25.0, 'tot': 47.00000001, 'eval': {'textcat_p': 0.6666666665185185, 'textcat_r': 0.6382978722046174, 'textcat_f': 0.6521739129017012}}, 'eval_global': {'textcat_p': 0.6666666665185185, 'textcat_r': 0.6382978722046174, 'textcat_f': 0.6521739129017012}}",47
48,"{'QA': {'tp': 28.0, 'fp': 15.00000001, 'fn': 19.00000001, 'tn': 25.0, 'tot': 47.00000001, 'eval': {'textcat_p': 0.6511627905462412, 'textcat_r': 0.5957446807243096, 'textcat_f': 0.6222222220839506}}, 'eval_global': {'textcat_p': 0.6511627905462412, 'textcat_r': 0.5957446807243096, 'textcat_f': 0.6222222220839506}}",48
49,"{'QA': {'tp': 29.0, 'fp': 15.00000001, 'fn': 18.00000001, 'tn': 25.0, 'tot': 47.00000001, 'eval': {'textcat_p': 0.6590909089411157, 'textcat_r': 0.6170212764644636, 'textcat_f': 0.6373626372225577}}, 'eval_global': {'textcat_p': 0.6590909089411157, 'textcat_r': 0.6170212764644636, 'textcat_f': 0.6373626372225577}}",49
50,"{'QA': {'tp': 29.0, 'fp': 15.00000001, 'fn': 18.00000001, 'tn': 25.0, 'tot': 47.00000001, 'eval': {'textcat_p': 0.6590909089411157, 'textcat_r': 0.6170212764644636, 'textcat_f': 0.6373626372225577}}, 'eval_global': {'textcat_p': 0.6590909089411157, 'textcat_r': 0.6170212764644636, 'textcat_f': 0.6373626372225577}}",50
51,"{'QA': {'tp': 29.0, 'fp': 15.00000001, 'fn': 18.00000001, 'tn': 25.0, 'tot': 47.00000001, 'eval': {'textcat_p': 0.6590909089411157, 'textcat_r': 0.6170212764644636, 'textcat_f': 0.6373626372225577}}, 'eval_global': {'textcat_p': 0.6590909089411157, 'textcat_r': 0.6170212764644636, 'textcat_f': 0.6373626372225577}}",51
52,"{'QA': {'tp': 28.0, 'fp': 15.00000001, 'fn': 19.00000001, 'tn': 25.0, 'tot': 47.00000001, 'eval': {'textcat_p': 0.6511627905462412, 'textcat_r': 0.5957446807243096, 'textcat_f': 0.6222222220839506}}, 'eval_global': {'textcat_p': 0.6511627905462412, 'textcat_r': 0.5957446807243096, 'textcat_f': 0.6222222220839506}}",52
53,"{'QA': {'tp': 29.0, 'fp': 16.00000001, 'fn': 18.00000001, 'tn': 24.0, 'tot': 47.00000001, 'eval': {'textcat_p': 0.6444444443012346, 'textcat_r': 0.6170212764644636, 'textcat_f': 0.6304347824716446}}, 'eval_global': {'textcat_p': 0.6444444443012346, 'textcat_r': 0.6170212764644636, 'textcat_f': 0.6304347824716446}}",53
54,"{'QA': {'tp': 29.0, 'fp': 16.00000001, 'fn': 18.00000001, 'tn': 24.0, 'tot': 47.00000001, 'eval': {'textcat_p': 0.6444444443012346, 'textcat_r': 0.6170212764644636, 'textcat_f': 0.6304347824716446}}, 'eval_global': {'textcat_p': 0.6444444443012346, 'textcat_r': 0.6170212764644636, 'textcat_f': 0.6304347824716446}}",54
55,"{'QA': {'tp': 28.0, 'fp': 15.00000001, 'fn': 19.00000001, 'tn': 25.0, 'tot': 47.00000001, 'eval': {'textcat_p': 0.6511627905462412, 'textcat_r': 0.5957446807243096, 'textcat_f': 0.6222222220839506}}, 'eval_global': {'textcat_p': 0.6511627905462412, 'textcat_r': 0.5957446807243096, 'textcat_f': 0.6222222220839506}}",55
56,"{'QA': {'tp': 27.0, 'fp': 15.00000001, 'fn': 20.00000001, 'tn': 25.0, 'tot': 47.00000001, 'eval': {'textcat_p': 0.6428571427040817, 'textcat_r': 0.5744680849841557, 'textcat_f': 0.6067415728973614}}, 'eval_global': {'textcat_p': 0.6428571427040817, 'textcat_r': 0.5744680849841557, 'textcat_f': 0.6067415728973614}}",56
57,"{'QA': {'tp': 27.0, 'fp': 15.00000001, 'fn': 20.00000001, 'tn': 25.0, 'tot': 47.00000001, 'eval': {'textcat_p': 0.6428571427040817, 'textcat_r': 0.5744680849841557, 'textcat_f': 0.6067415728973614}}, 'eval_global': {'textcat_p': 0.6428571427040817, 'textcat_r': 0.5744680849841557, 'textcat_f': 0.6067415728973614}}",57
58,"{'QA': {'tp': 27.0, 'fp': 15.00000001, 'fn': 20.00000001, 'tn': 25.0, 'tot': 47.00000001, 'eval': {'textcat_p': 0.6428571427040817, 'textcat_r': 0.5744680849841557, 'textcat_f': 0.6067415728973614}}, 'eval_global': {'textcat_p': 0.6428571427040817, 'textcat_r': 0.5744680849841557, 'textcat_f': 0.6067415728973614}}",58
59,"{'QA': {'tp': 27.0, 'fp': 15.00000001, 'fn': 20.00000001, 'tn': 25.0, 'tot': 47.00000001, 'eval': {'textcat_p': 0.6428571427040817, 'textcat_r': 0.5744680849841557, 'textcat_f': 0.6067415728973614}}, 'eval_global': {'textcat_p': 0.6428571427040817, 'textcat_r': 0.5744680849841557, 'textcat_f': 0.6067415728973614}}",59
60,"{'QA': {'tp': 27.0, 'fp': 15.00000001, 'fn': 20.00000001, 'tn': 25.0, 'tot': 47.00000001, 'eval': {'textcat_p': 0.6428571427040817, 'textcat_r': 0.5744680849841557, 'textcat_f': 0.6067415728973614}}, 'eval_global': {'textcat_p': 0.6428571427040817, 'textcat_r': 0.5744680849841557, 'textcat_f': 0.6067415728973614}}",60
61,"{'QA': {'tp': 26.0, 'fp': 15.00000001, 'fn': 21.00000001, 'tn': 25.0, 'tot': 47.00000001, 'eval': {'textcat_p': 0.6341463413087448, 'textcat_r': 0.5531914892440019, 'textcat_f': 0.5909090907747934}}, 'eval_global': {'textcat_p': 0.6341463413087448, 'textcat_r': 0.5531914892440019, 'textcat_f': 0.5909090907747934}}",61
62,"{'QA': {'tp': 26.0, 'fp': 15.00000001, 'fn': 21.00000001, 'tn': 25.0, 'tot': 47.00000001, 'eval': {'textcat_p': 0.6341463413087448, 'textcat_r': 0.5531914892440019, 'textcat_f': 0.5909090907747934}}, 'eval_global': {'textcat_p': 0.6341463413087448, 'textcat_r': 0.5531914892440019, 'textcat_f': 0.5909090907747934}}",62
63,"{'QA': {'tp': 27.0, 'fp': 15.00000001, 'fn': 20.00000001, 'tn': 25.0, 'tot': 47.00000001, 'eval': {'textcat_p': 0.6428571427040817, 'textcat_r': 0.5744680849841557, 'textcat_f': 0.6067415728973614}}, 'eval_global': {'textcat_p': 0.6428571427040817, 'textcat_r': 0.5744680849841557, 'textcat_f': 0.6067415728973614}}",63
64,"{'QA': {'tp': 27.0, 'fp': 15.00000001, 'fn': 20.00000001, 'tn': 25.0, 'tot': 47.00000001, 'eval': {'textcat_p': 0.6428571427040817, 'textcat_r': 0.5744680849841557, 'textcat_f': 0.6067415728973614}}, 'eval_global': {'textcat_p': 0.6428571427040817, 'textcat_r': 0.5744680849841557, 'textcat_f': 0.6067415728973614}}",64
65,"{'QA': {'tp': 26.0, 'fp': 15.00000001, 'fn': 21.00000001, 'tn': 25.0, 'tot': 47.00000001, 'eval': {'textcat_p': 0.6341463413087448, 'textcat_r': 0.5531914892440019, 'textcat_f': 0.5909090907747934}}, 'eval_global': {'textcat_p': 0.6341463413087448, 'textcat_r': 0.5531914892440019, 'textcat_f': 0.5909090907747934}}",65
66,"{'QA': {'tp': 26.0, 'fp': 15.00000001, 'fn': 21.00000001, 'tn': 25.0, 'tot': 47.00000001, 'eval': {'textcat_p': 0.6341463413087448, 'textcat_r': 0.5531914892440019, 'textcat_f': 0.5909090907747934}}, 'eval_global': {'textcat_p': 0.6341463413087448, 'textcat_r': 0.5531914892440019, 'textcat_f': 0.5909090907747934}}",66
67,"{'QA': {'tp': 26.0, 'fp': 15.00000001, 'fn': 21.00000001, 'tn': 25.0, 'tot': 47.00000001, 'eval': {'textcat_p': 0.6341463413087448, 'textcat_r': 0.5531914892440019, 'textcat_f': 0.5909090907747934}}, 'eval_global': {'textcat_p': 0.6341463413087448, 'textcat_r': 0.5531914892440019, 'textcat_f': 0.5909090907747934}}",67
68,"{'QA': {'tp': 27.0, 'fp': 15.00000001, 'fn': 20.00000001, 'tn': 25.0, 'tot': 47.00000001, 'eval': {'textcat_p': 0.6428571427040817, 'textcat_r': 0.5744680849841557, 'textcat_f': 0.6067415728973614}}, 'eval_global': {'textcat_p': 0.6428571427040817, 'textcat_r': 0.5744680849841557, 'textcat_f': 0.6067415728973614}}",68
69,"{'QA': {'tp': 27.0, 'fp': 15.00000001, 'fn': 20.00000001, 'tn': 25.0, 'tot': 47.00000001, 'eval': {'textcat_p': 0.6428571427040817, 'textcat_r': 0.5744680849841557, 'textcat_f': 0.6067415728973614}}, 'eval_global': {'textcat_p': 0.6428571427040817, 'textcat_r': 0.5744680849841557, 'textcat_f': 0.6067415728973614}}",69
70,"{'QA': {'tp': 28.0, 'fp': 15.00000001, 'fn': 19.00000001, 'tn': 25.0, 'tot': 47.00000001, 'eval': {'textcat_p': 0.6511627905462412, 'textcat_r': 0.5957446807243096, 'textcat_f': 0.6222222220839506}}, 'eval_global': {'textcat_p': 0.6511627905462412, 'textcat_r': 0.5957446807243096, 'textcat_f': 0.6222222220839506}}",70
71,"{'QA': {'tp': 28.0, 'fp': 15.00000001, 'fn': 19.00000001, 'tn': 25.0, 'tot': 47.00000001, 'eval': {'textcat_p': 0.6511627905462412, 'textcat_r': 0.5957446807243096, 'textcat_f': 0.6222222220839506}}, 'eval_global': {'textcat_p': 0.6511627905462412, 'textcat_r': 0.5957446807243096, 'textcat_f': 0.6222222220839506}}",71
72,"{'QA': {'tp': 28.0, 'fp': 15.00000001, 'fn': 19.00000001, 'tn': 25.0, 'tot': 47.00000001, 'eval': {'textcat_p': 0.6511627905462412, 'textcat_r': 0.5957446807243096, 'textcat_f': 0.6222222220839506}}, 'eval_global': {'textcat_p': 0.6511627905462412, 'textcat_r': 0.5957446807243096, 'textcat_f': 0.6222222220839506}}",72
73,"{'QA': {'tp': 28.0, 'fp': 15.00000001, 'fn': 19.00000001, 'tn': 25.0, 'tot': 47.00000001, 'eval': {'textcat_p': 0.6511627905462412, 'textcat_r': 0.5957446807243096, 'textcat_f': 0.6222222220839506}}, 'eval_global': {'textcat_p': 0.6511627905462412, 'textcat_r': 0.5957446807243096, 'textcat_f': 0.6222222220839506}}",73
74,"{'QA': {'tp': 28.0, 'fp': 15.00000001, 'fn': 19.00000001, 'tn': 25.0, 'tot': 47.00000001, 'eval': {'textcat_p': 0.6511627905462412, 'textcat_r': 0.5957446807243096, 'textcat_f': 0.6222222220839506}}, 'eval_global': {'textcat_p': 0.6511627905462412, 'textcat_r': 0.5957446807243096, 'textcat_f': 0.6222222220839506}}",74
75,"{'QA': {'tp': 27.0, 'fp': 15.00000001, 'fn': 20.00000001, 'tn': 25.0, 'tot': 47.00000001, 'eval': {'textcat_p': 0.6428571427040817, 'textcat_r': 0.5744680849841557, 'textcat_f': 0.6067415728973614}}, 'eval_global': {'textcat_p': 0.6428571427040817, 'textcat_r': 0.5744680849841557, 'textcat_f': 0.6067415728973614}}",75
76,"{'QA': {'tp': 27.0, 'fp': 15.00000001, 'fn': 20.00000001, 'tn': 25.0, 'tot': 47.00000001, 'eval': {'textcat_p': 0.6428571427040817, 'textcat_r': 0.5744680849841557, 'textcat_f': 0.6067415728973614}}, 'eval_global': {'textcat_p': 0.6428571427040817, 'textcat_r': 0.5744680849841557, 'textcat_f': 0.6067415728973614}}",76
77,"{'QA': {'tp': 26.0, 'fp': 15.00000001, 'fn': 21.00000001, 'tn': 25.0, 'tot': 47.00000001, 'eval': {'textcat_p': 0.6341463413087448, 'textcat_r': 0.5531914892440019, 'textcat_f': 0.5909090907747934}}, 'eval_global': {'textcat_p': 0.6341463413087448, 'textcat_r': 0.5531914892440019, 'textcat_f': 0.5909090907747934}}",77
78,"{'QA': {'tp': 26.0, 'fp': 15.00000001, 'fn': 21.00000001, 'tn': 25.0, 'tot': 47.00000001, 'eval': {'textcat_p': 0.6341463413087448, 'textcat_r': 0.5531914892440019, 'textcat_f': 0.5909090907747934}}, 'eval_global': {'textcat_p': 0.6341463413087448, 'textcat_r': 0.5531914892440019, 'textcat_f': 0.5909090907747934}}",78
79,"{'QA': {'tp': 26.0, 'fp': 15.00000001, 'fn': 21.00000001, 'tn': 25.0, 'tot': 47.00000001, 'eval': {'textcat_p': 0.6341463413087448, 'textcat_r': 0.5531914892440019, 'textcat_f': 0.5909090907747934}}, 'eval_global': {'textcat_p': 0.6341463413087448, 'textcat_r': 0.5531914892440019, 'textcat_f': 0.5909090907747934}}",79
80,"{'QA': {'tp': 26.0, 'fp': 15.00000001, 'fn': 21.00000001, 'tn': 25.0, 'tot': 47.00000001, 'eval': {'textcat_p': 0.6341463413087448, 'textcat_r': 0.5531914892440019, 'textcat_f': 0.5909090907747934}}, 'eval_global': {'textcat_p': 0.6341463413087448, 'textcat_r': 0.5531914892440019, 'textcat_f': 0.5909090907747934}}",80
81,"{'QA': {'tp': 26.0, 'fp': 15.00000001, 'fn': 21.00000001, 'tn': 25.0, 'tot': 47.00000001, 'eval': {'textcat_p': 0.6341463413087448, 'textcat_r': 0.5531914892440019, 'textcat_f': 0.5909090907747934}}, 'eval_global': {'textcat_p': 0.6341463413087448, 'textcat_r': 0.5531914892440019, 'textcat_f': 0.5909090907747934}}",81
82,"{'QA': {'tp': 26.0, 'fp': 14.00000001, 'fn': 21.00000001, 'tn': 26.0, 'tot': 47.00000001, 'eval': {'textcat_p': 0.6499999998375, 'textcat_r': 0.5531914892440019, 'textcat_f': 0.5977011492878849}}, 'eval_global': {'textcat_p': 0.6499999998375, 'textcat_r': 0.5531914892440019, 'textcat_f': 0.5977011492878849}}",82
83,"{'QA': {'tp': 27.0, 'fp': 14.00000001, 'fn': 20.00000001, 'tn': 26.0, 'tot': 47.00000001, 'eval': {'textcat_p': 0.658536585205235, 'textcat_r': 0.5744680849841557, 'textcat_f': 0.6136363634969008}}, 'eval_global': {'textcat_p': 0.658536585205235, 'textcat_r': 0.5744680849841557, 'textcat_f': 0.6136363634969008}}",83
84,"{'QA': {'tp': 27.0, 'fp': 14.00000001, 'fn': 20.00000001, 'tn': 26.0, 'tot': 47.00000001, 'eval': {'textcat_p': 0.658536585205235, 'textcat_r': 0.5744680849841557, 'textcat_f': 0.6136363634969008}}, 'eval_global': {'textcat_p': 0.658536585205235, 'textcat_r': 0.5744680849841557, 'textcat_f': 0.6136363634969008}}",84
85,"{'QA': {'tp': 27.0, 'fp': 14.00000001, 'fn': 20.00000001, 'tn': 26.0, 'tot': 47.00000001, 'eval': {'textcat_p': 0.658536585205235, 'textcat_r': 0.5744680849841557, 'textcat_f': 0.6136363634969008}}, 'eval_global': {'textcat_p': 0.658536585205235, 'textcat_r': 0.5744680849841557, 'textcat_f': 0.6136363634969008}}",85
86,"{'QA': {'tp': 27.0, 'fp': 14.00000001, 'fn': 20.00000001, 'tn': 26.0, 'tot': 47.00000001, 'eval': {'textcat_p': 0.658536585205235, 'textcat_r': 0.5744680849841557, 'textcat_f': 0.6136363634969008}}, 'eval_global': {'textcat_p': 0.658536585205235, 'textcat_r': 0.5744680849841557, 'textcat_f': 0.6136363634969008}}",86
87,"{'QA': {'tp': 27.0, 'fp': 14.00000001, 'fn': 20.00000001, 'tn': 26.0, 'tot': 47.00000001, 'eval': {'textcat_p': 0.658536585205235, 'textcat_r': 0.5744680849841557, 'textcat_f': 0.6136363634969008}}, 'eval_global': {'textcat_p': 0.658536585205235, 'textcat_r': 0.5744680849841557, 'textcat_f': 0.6136363634969008}}",87
88,"{'QA': {'tp': 27.0, 'fp': 14.00000001, 'fn': 20.00000001, 'tn': 26.0, 'tot': 47.00000001, 'eval': {'textcat_p': 0.658536585205235, 'textcat_r': 0.5744680849841557, 'textcat_f': 0.6136363634969008}}, 'eval_global': {'textcat_p': 0.658536585205235, 'textcat_r': 0.5744680849841557, 'textcat_f': 0.6136363634969008}}",88
89,"{'QA': {'tp': 27.0, 'fp': 14.00000001, 'fn': 20.00000001, 'tn': 26.0, 'tot': 47.00000001, 'eval': {'textcat_p': 0.658536585205235, 'textcat_r': 0.5744680849841557, 'textcat_f': 0.6136363634969008}}, 'eval_global': {'textcat_p': 0.658536585205235, 'textcat_r': 0.5744680849841557, 'textcat_f': 0.6136363634969008}}",89
90,"{'QA': {'tp': 27.0, 'fp': 14.00000001, 'fn': 20.00000001, 'tn': 26.0, 'tot': 47.00000001, 'eval': {'textcat_p': 0.658536585205235, 'textcat_r': 0.5744680849841557, 'textcat_f': 0.6136363634969008}}, 'eval_global': {'textcat_p': 0.658536585205235, 'textcat_r': 0.5744680849841557, 'textcat_f': 0.6136363634969008}}",90
91,"{'QA': {'tp': 28.0, 'fp': 14.00000001, 'fn': 19.00000001, 'tn': 26.0, 'tot': 47.00000001, 'eval': {'textcat_p': 0.6666666665079365, 'textcat_r': 0.5957446807243096, 'textcat_f': 0.6292134830046711}}, 'eval_global': {'textcat_p': 0.6666666665079365, 'textcat_r': 0.5957446807243096, 'textcat_f': 0.6292134830046711}}",91
92,"{'QA': {'tp': 28.0, 'fp': 14.00000001, 'fn': 19.00000001, 'tn': 26.0, 'tot': 47.00000001, 'eval': {'textcat_p': 0.6666666665079365, 'textcat_r': 0.5957446807243096, 'textcat_f': 0.6292134830046711}}, 'eval_global': {'textcat_p': 0.6666666665079365, 'textcat_r': 0.5957446807243096, 'textcat_f': 0.6292134830046711}}",92
93,"{'QA': {'tp': 28.0, 'fp': 14.00000001, 'fn': 19.00000001, 'tn': 26.0, 'tot': 47.00000001, 'eval': {'textcat_p': 0.6666666665079365, 'textcat_r': 0.5957446807243096, 'textcat_f': 0.6292134830046711}}, 'eval_global': {'textcat_p': 0.6666666665079365, 'textcat_r': 0.5957446807243096, 'textcat_f': 0.6292134830046711}}",93
94,"{'QA': {'tp': 28.0, 'fp': 14.00000001, 'fn': 19.00000001, 'tn': 26.0, 'tot': 47.00000001, 'eval': {'textcat_p': 0.6666666665079365, 'textcat_r': 0.5957446807243096, 'textcat_f': 0.6292134830046711}}, 'eval_global': {'textcat_p': 0.6666666665079365, 'textcat_r': 0.5957446807243096, 'textcat_f': 0.6292134830046711}}",94
95,"{'QA': {'tp': 28.0, 'fp': 14.00000001, 'fn': 19.00000001, 'tn': 26.0, 'tot': 47.00000001, 'eval': {'textcat_p': 0.6666666665079365, 'textcat_r': 0.5957446807243096, 'textcat_f': 0.6292134830046711}}, 'eval_global': {'textcat_p': 0.6666666665079365, 'textcat_r': 0.5957446807243096, 'textcat_f': 0.6292134830046711}}",95
96,"{'QA': {'tp': 28.0, 'fp': 14.00000001, 'fn': 19.00000001, 'tn': 26.0, 'tot': 47.00000001, 'eval': {'textcat_p': 0.6666666665079365, 'textcat_r': 0.5957446807243096, 'textcat_f': 0.6292134830046711}}, 'eval_global': {'textcat_p': 0.6666666665079365, 'textcat_r': 0.5957446807243096, 'textcat_f': 0.6292134830046711}}",96
97,"{'QA': {'tp': 28.0, 'fp': 14.00000001, 'fn': 19.00000001, 'tn': 26.0, 'tot': 47.00000001, 'eval': {'textcat_p': 0.6666666665079365, 'textcat_r': 0.5957446807243096, 'textcat_f': 0.6292134830046711}}, 'eval_global': {'textcat_p': 0.6666666665079365, 'textcat_r': 0.5957446807243096, 'textcat_f': 0.6292134830046711}}",97
98,"{'QA': {'tp': 28.0, 'fp': 14.00000001, 'fn': 19.00000001, 'tn': 26.0, 'tot': 47.00000001, 'eval': {'textcat_p': 0.6666666665079365, 'textcat_r': 0.5957446807243096, 'textcat_f': 0.6292134830046711}}, 'eval_global': {'textcat_p': 0.6666666665079365, 'textcat_r': 0.5957446807243096, 'textcat_f': 0.6292134830046711}}",98
99,"{'QA': {'tp': 28.0, 'fp': 15.00000001, 'fn': 19.00000001, 'tn': 25.0, 'tot': 47.00000001, 'eval': {'textcat_p': 0.6511627905462412, 'textcat_r': 0.5957446807243096, 'textcat_f': 0.6222222220839506}}, 'eval_global': {'textcat_p': 0.6511627905462412, 'textcat_r': 0.5957446807243096, 'textcat_f': 0.6222222220839506}}",99
