,US,pred,label
0,"As a developer, I want to have created database indexes, so that the queries run as fast as possible.",4.539787187241018e-05,security
1,"As a participant, I want to immediately see that an estimate has been given by a specific estimator, so that I know who has already given an estimate and who we're still waiting for.",4.539787187241018e-05,security
2,"As an archive, I want to get information about the volume of data to preserve at an early stage, so that I can provide the adequate storage infrastructure.",4.539787187241018e-05,security
3,"As a user, I want to have the application respond quickly to my actions, so that I don't get bored.",4.539787187241018e-05,security
4,"As a Developer, I want to get a Data Package into Julia in seconds, so that I can start using the data in doing analysis and visualizations. ",4.539787187241018e-05,security
5,"As a PI, I want to plan what kind of data I want to record/store, so that I can ensure it will possible to store it.",4.539787187241018e-05,security
6,"As an IT staff member, I want to have an estimate of the produced data volume, so that I can plan the overall storage consumption.",5.4420299420598894e-05,security
7,"As a Developer, I want to get a Data Package into Python in seconds, so that I can start using the data for doing analysis and visualizations. ",4.539787187241018e-05,security
8,"As a Cornell faculty member, I want to share on the repository files that are larger than 1GB in a way that still allows users to download them if I want to use them, so that I can meet funder requirements.",4.539787187241018e-05,security
9,"As a repository operator, I want to know about the kind of data, so that I can evaluate the storage size and system.",4.539787187241018e-05,security
10,"As a Researcher, I want to get a Data Package into LibreOffice/OpenOffice in seconds, so that I can start using the data for doing analysis and visualizations. ",4.539787187241018e-05,security
11,"As a Developer, I want D Files generation requests to be managed and cached, so that duplicate requests do not cause performance issues.",4.539787187241018e-05,security
12,"As a Developer, I want to get a Data Package into C++ in seconds, so that I can start using the data in doing analysis and visualizations. ",4.539787187241018e-05,security
13,"As an Agency user, I want to be able to include a large number of flexfields without performance impact.",4.539787187241018e-05,security
14,"As an OlderPerson, I want to have a very good battery for ALFRED so I can keep him on the whole day.",4.539787187241018e-05,security
15,"As a depositor, I want to deposit arbitrarily large files, so that I am not limited in what files I can and cannot deposit.",4.539787187241018e-05,security
16,"As a user, I want to upload large files of over 1GB in size.",4.539787187241018e-05,security
17,"As a Researcher, I want an app that create proxy Data Packages for well know and reliable data, sources, so that I can load high quality data using Data Package tooling. ",4.539787187241018e-05,security
18,"As a FABS user, I want to have my validations run in a reasonable amount of time.",4.539787187241018e-05,security
19,"As a user, I want to upload my week's schedule, so that I can get recommendations for recycling centers that best fit my availability.",4.539787187241018e-05,security
20,"As a metadata batch editor, I'd like to be able to export and import descriptive and administrative metadata for multiple collections together.",4.539787187241018e-05,security
21,"As a Data Publishing User, I want to be able to edit the model of data I have already imported, So that I can fix bugs or make enhancements in the API built for my data.",4.539787187241018e-05,security
22,"As an OlderPerson, I want to use ALFRED to maintain my contact list in my phone. ",4.539787187241018e-05,security
23,"As an Archivist, I want to import EAD data.",4.539787187241018e-05,security
24,"As a depositor, I want to link datasets to publications in Opus, so that both my data and publications are more easily discovered.",4.539787187241018e-05,security
25,"As a researcher, I want to point my Mendeley client at a group-wide shared repository of research papers and get notifications via Mendeley when new content is added.",4.539787187241018e-05,security
26,"As an Archivist, I want to import only Agent and Subject information from MARCXML records.",5.842678001499735e-05,security
27,"As a user, I want to specify schema as a SQL schema string.",4.539787187241018e-05,security
28,"As a repository manager, I'd like to be able to export a spreadsheet of technical metadata at the repository, collection, or item level.",4.539787187241018e-05,security
29,"As a data reuser, I want to search the archive through Primo , so that I can search books, articles and data all in one place.",4.539787187241018e-05,security
30,"As a institutional data steward, I want to be able to extract the data sets that are submitted to external repositories, so that I can add them to an institutional data catalogue.",4.539787187241018e-05,security
31,"As a developer, I want an DSpace integration, so that I can integrate data-packaged data with pipelines that use Dspace. ",4.539787187241018e-05,security
32,"As a DeveloperWrangler, I want to use a command line tool that allows me to validate data, so that I can feel trust in the validity and usefulness of the data quickly and in the context of my command line workflow. ",4.539787187241018e-05,security
33,"As a developer, I want to deposit and maintain datasets via an API such as SWORD2, so that my service can interact with the archive. ",4.539787187241018e-05,security
34,"As a Researcher, I want to get a Data Package into LibreOffice/OpenOffice in seconds, so that I can start using the data for doing analysis and visualizations. ",4.539787187241018e-05,security
35,"As a patron, I want to download report/dataset release calendar to load into own calendar.",4.539787187241018e-05,security
36,"As a Zooniverse admin, I want to automatically detect Plankton Portal images with no classifiable plankton in them.",4.539787187241018e-05,security
37,"As a Technical Staff member, I want to update the GIS Property Management, so that I can successfully update the transactional Parcel Pin to reference the GIS layer where the Split or Merged Parcel Pin exists.",4.539787187241018e-05,security
38,"As an agency user, I want to be confident that the data coming from SAM is complete.",4.539787187241018e-05,security
39,"As a Researcher, I want to get a Data Package into SPSS in seconds, so that I can start using the data for doing analysis and visualizations. ",4.539787187241018e-05,security
40,"As an agency user, I want to use the schema v1.1 headers in my FABS file.",4.539787187241018e-05,security
41,"As a Developer , I want to develop a custom importer.",4.539787187241018e-05,security
42,"As a user, I want to click on the address, so that it takes me to a new tab with Google Maps.",4.539787187241018e-05,security
43,"As a researcher, I want to access files stored in my Neurohub workspace, using a network drive attached to my workstation.",4.539787187241018e-05,security
44,"As an agency user, I want to submit my data elements surrounded by quotation marks, so that Excel won't strip off leading and trailing zeroes.",4.539787187241018e-05,security
45,"As a Data Publishing User, I want to be able to edit the data source of data I have already imported, So that I can fix bugs or make enhancements in the API built for my data.",4.539787187241018e-05,security
46,"As an UnivITservice, I want to store archived data on existing storage systems, so that university data storage is consistent and maintainable and future availability of data can be guaranteed.",4.539787187241018e-05,security
47,"As a developer, I want to use bootstrap in the process of developing, so that I can easily design my website.",4.539787187241018e-05,security
48,"As an assistant archivist, I want to easily access interdepartmental forms.",6.369099719449878e-05,security
49,"As a repository administrator, I would like Symplectic Elements to be able to communicate bidirectionally with the repository.",4.539787187241018e-05,security
50,"As a user, I want to sync events created in NeuroHub with a web-based Calendar such as Google Calendar.",4.539787187241018e-05,security
51,"As a Data Publishing User, I want to be able to import data in Excel, So that I do not have to convert data formats in order to use the data packager.",4.539787187241018e-05,security
52,"As a collection curator, I want to deposit items into the repository from within ArchivesSpace and to view the status of those objects in ArchivesSpace.",4.539787187241018e-05,security
53,"As an agency user, I want the maximum length allowed for LegalEntityAddressLine3 to match Schema v1.1.",4.539787187241018e-05,security
54,"As a developer, I want to have an easy way to read data from health sensors the user is wearing. ",4.539787187241018e-05,security
55,"As a Developer, I want a jQuery plugin for Core Data Packages, so that I can use it to apply to form control that uses a core dataset for autocompletion. ",4.539787187241018e-05,security
56,"As a Data Publishing User, I want to have the Packager support Constants, So that I can model dimensions that may not exist in the source file.",4.539787187241018e-05,security
57,"As a metadata batch editor, I want to export the CSV, remove the fields I'm not editing, edit the remaining fields, and upload the remediated file to overwrite values",4.539787187241018e-05,security
58,"As a Zooniverse admin, I want to assess how interesting or appealing or complex a picture is based on automated analysis, citizen annotations, and comments on Talk.",4.539787187241018e-05,security
59,"As a collection curator, when I update the metadata for an object, that change should be propagated to the DOI system if the repository has assigned a DOI to that object.",4.539787187241018e-05,security
60,"As a Broker user, I want the D1 file generation to be synced with the FPDS data load, so that I don't have to regenerate a file if no data has been updated.",4.539787187241018e-05,security
61,"As a depositor, I want to deposit arbitrarily large files, so that I am not limited in what files I can and cannot deposit.",4.539787187241018e-05,security
62,"As an IT staff member, I want to know which formats are used, so that I can determine what kind of technical services and functionalities are required.",4.539787187241018e-05,security
63,"As a depositor, I want to have metadata automatically filled from other University systems and remembered from previous deposits, so that I don't have to waste time reentering the same information.",4.539787187241018e-05,security
64,"As a Visitor, I want to sign up via github or google, so that that I don't have to enter lots of information and remember my password for yet another website.",4.539787187241018e-05,security
65,"As an archivist, I want to access the digital files on the X-drive, so that I can use them.",4.539787187241018e-05,security
66,"As a user, I want to view the group's shared calendars via the Neurohub Nodes' Web page as well as on my mobile device.",4.539787187241018e-05,security
67,"As a moderator, I want to copy/paste stories from a spreadsheet, so that I can get started more quickly.",4.539787187241018e-05,security
68,"As a data depositor, I'd like to use the Simple Ingest Format to update existing items and components creating new versions where they already exist and creating new ones where the don't.",4.539787187241018e-05,security
69,"As a user, I want to have the option to tell Neurohub to push posted content to my Twitter feed at the same time.",4.539787187241018e-05,security
70,"As a Researcher, I want to get a Data Package into R in seconds, so that I can start using the data for doing analysis and visualizations. ",4.539787187241018e-05,security
71,"As a Zooniverse admin, I want to perform automatic preclassification of plankton species in Plankton Portal images.",4.539787187241018e-05,security
72,"As a Research Information manager, I want to track citation counts for published datasets, so that impact of datasets within academia can be demonstrated.",4.539787187241018e-05,security
73,"As a Zooniverse admin, I want to detect when a scientist should be prompted to look at a subject, based on annotations and information from Talk comments.",4.539787187241018e-05,security
74,"As a ResearcherPublisher, I want an integration with Zenodo, so that when I store my dataset in GitHub, I don't have to retype descriptive information about my dataset. ",4.539787187241018e-05,security
75,"As an Archivist, I want to import Agent information from EAC-CPF records.",4.539787187241018e-05,security
76,"As a Researcher, I want to be able to translate my EML dataset to a Data Package, so that I can benefit from the wide array of tools available for Data Packages. ",5.083313226350583e-05,security
77,"As a Researcher, I want to get my Excel spreadsheet into a Data Package, so that I can benefit from better tooling and standardization. ",4.539787187241018e-05,security
78,"As an archivist, I want to automatically create access derivatives of digital objects, so that I don't have to do this manually.",4.539787187241018e-05,security
79,"As a Data Consuming User, I want to be able to download a CSV of the data that is used in any visualisation I am viewing, So that I can use the data in other tools.",4.539787187241018e-05,security
80,"As a developer, I would like to create a web socket protocol for Frictionless data tools, so that I can easily use data packages with additional data analysis tools. ",4.539787187241018e-05,security
81,"As a researcher, I want the DMP to prepopulate information that I have already entered in other institutional systems, so that I do not have to re-enter information ensuring the DMP contains accurate and standardized information.",4.539787187241018e-05,security
82,"As a Researcher, working with data in NetCDF, I want NetCDF integration, so that I can store my data in plaintext while still retaining its metadata. ",4.539787187241018e-05,security
83,"As a collection curator, I would like metadata changes made to items with repository-assigned DOIs to be propagated to the EZID.",8.480375981889665e-05,security
84,"As a moderator, I want to import stories from a spreadsheet, so that I don't have to copy and paste each individual story.",4.539787187241018e-05,security
85,"As a library staff member, I want to make digital items held in trusted external system searchable within our system, so that I can provide seamless access to disparate collections.",4.539787187241018e-05,security
86,"As a Developer, I want a DAT integration, so that I can integrate data-packaged data with pipelines that use DAT. ",4.539787187241018e-05,security
87,"As a developer, I want to have the application function correctly in Internet Explorer 6 and 7, Firefox 1.5 and 2, and Safari 2, so that as many people as possible can fully use the application.",4.539787187241018e-05,security
88,"As Metadata Architect, I want to be able to use batch tools to ingest, update, and export descriptive and administrative metadata in lieu of METS ingest.",4.539787187241018e-05,security
89,"As a Developer, I want to get a Data Package into C++ in seconds, so that I can start using the data in doing analysis and visualizations. ",4.539787187241018e-05,security
90,"As a Developer, I want to get a Data Package into Julia in seconds, so that I can start using the data in doing analysis and visualizations. ",4.539787187241018e-05,security
91,"As a Data Publishing User, I want to be able to import data from a Google Spreadsheet, So that I do not have to convert data formats in order to use the data packager.",4.539787187241018e-05,security
92,"As a Developer, I want an EPrints integration, so that I can integrate data-packaged data with pipelines that use EPrints. ",4.539787187241018e-05,security
93,"As a Staff member, I want to Send or Post Citations and Fines, so that I can successfully send the Notice Of Violation document to the property owner and log information about the action.",4.539787187241018e-05,security
94,"As a serious games developer, I want to be able to take control over some functions to provide the desired user experience. ",4.539787187241018e-05,security
95,"As a Planning Staff member, I want to Generate Planning-related Reports, so that I can access, analyze and/or export the needed information in the format I requested.",4.539787187241018e-05,security
96,"As a Data Publishing User, I want to have a functioning Python Client, So that I can add data to the datastore in bulk from the command line or my own programs.",4.539787187241018e-05,security
97,"As a researcher,  I want to have the ability to interact with a revision control system so that I can keep track of changes to files over time.",4.539787187241018e-05,security
98,"As a user, I want to have that my Twitter Tweets to appear in Neurohub, so that other researchers in the centre can see what I am up to.",4.539787187241018e-05,security
99,"As a researcher, I want to import metadata that I captured with a metadata tool, so that I do not have to capture it again in a DMP.",4.539787187241018e-05,security
100,"As a Researcher, I want to be able to reference a remote-controlled vocabulary for my dataset, so that I can be sure that column of my dataset are valid against a single shared list of terms. ",4.539787187241018e-05,security
101,"As a Developer, I want the data loaded from historical FABS to include the FREC derivations, so that I can have consistent FREC data for USASpending.gov.",4.539787187241018e-05,security
102,"As a Zooniverse admin, I want to perform automatic animal species preclassification in Snapshot Serengeti.",4.539787187241018e-05,security
103,"As an Archivist, I want to import Accessions data in CSV.",6.651235889876261e-05,security
104,"As a Developer, I want HDF5 integration, so that I can integrate data-packaged data with pipelines that use HDF5.",4.539787187241018e-05,security
105,"As a depositor, I want to deposit and maintain datasets through Virtual Research Environments and other workflow tools, so that I can continue to work with tools with which I'm familiar.",4.539787187241018e-05,security
106,"As a content editor, I want to be able to add videos from Brightcove.",4.539787187241018e-05,security
107,"As a Researcher, I want to get a Data Package into Julia in seconds, so that I can start using the data for doing analysis and visualizations. ",4.539787187241018e-05,security
108,"As an API User, I want to be able to get a CSV output of any cube-based query, So that I can use work with tools that read CSV.",4.539787187241018e-05,security
109,"As a Data Publishing User, I want to be able to provide the Platform Administrator with additional GeoJSON sources, So that I can improve the map-based visualisations of my data.",4.539787187241018e-05,security
110,"As an Archivist, I want to import EAD files that were exported by the Archivists' Toolkit.",4.539787187241018e-05,security
111,"As a developer, I want to have the API components to be on a high level so that I don't have to deal with their details. ",4.539787187241018e-05,security
112,"As an Archivist, I want to export a description as EAD.",4.539787187241018e-05,security
113,"As a Researcher, I want to get a Data Package into Excel in seconds, so that I can start using the data for doing analysis and visualizations. ",4.539787187241018e-05,security
114,"As a Data Publishing User, I want to be able to import data in JSON, So that I do not have to convert data formats in order to use the data packager.",4.539787187241018e-05,security
115,"As a Zooniverse admin, I want to perform automatic animal number detection in Snapshot Serengeti.",4.539787187241018e-05,security
116,"As a Zooniverse admin, I want to perform automatic segmentation or localization of plankton in Plankton Portal.",4.539787187241018e-05,security
117,"As a ResearcherDeveloper, would like the ability import/export from MS-SQL, so that I can use Data Packages in workflows that involve MS-SQL. ",4.539787187241018e-05,security
118,"As a user, I want to specify schema as a JSON string.",4.539787187241018e-05,security
119,"As a Zooniverse admin, I want to perform automatic detection of plankton size or orientation in Plankton Portal images.",4.539787187241018e-05,security
120,"As a repository administrator, I want Symplectic Elements to integrate with DDR. They provide a Fedora Connector and Emory is using a hidden Fedora instance that Hydra collects objects for. Note that there is bidirectional communication with Elements.",4.790821549249813e-05,security
121,"As an owner, I want to be sure that USAspending only send grant records to my system.",0.00012913807586301118,security
122,"As an Archivist, I want to import Resources from MARCXML records.",4.539787187241018e-05,security
123,"As a Developer, I want Feather integration, so that I can integrate data-packaged data with pipelines that use Feather. ",4.539787187241018e-05,security
124,"As an OlderPerson, I want to have my data stored directly on the phone.",0.0002166640479117632,security
125,"As a Developer, I want to do exploratory data analysis in R and operationalize that analysis in Python, so that I can use the best tool for the job.",4.539787187241018e-05,security
126,"As a depositor, I want to have a user interface that is familiar to me, so that I feel like all the University systems are joined up.",4.539787187241018e-05,security
127,"As a ProspectiveApplicant, I want to research requirements and to select a service, so that I can find the relevant service and/or application type to initiate via the online portal.",4.539787187241018e-05,security
128,"As a UI designer, I want to report to the Agencies about user testing, so that they are aware of their contributions to making Broker a better UX.",4.539787187241018e-05,security
129,"As a user, I want to be able to anonymously view public information, so that I know about recycling centers near me before creating an account.",4.539787187241018e-05,security
130,"As a FABS user, I do not want  DABS banner messages and vice versa, so that I have the appropriate information for my application.",4.539787187241018e-05,security
131,"As a Platform administrator, I want to be able to translate the data types hierarchies of the Viewer while in embed mode, So that my users can understand the interface in their native language.",4.539787187241018e-05,security
132,"As an Agency user, I want to accurately see who created a submission, so that I'm not confused about who last updated a submission.",4.539787187241018e-05,security
133,"As a Consumer, I want to see some example data packages quickly, so that I get a sense of what is on this site and if it is useful to look further.",4.539787187241018e-05,security
134,"As a Publisher, I want to data to be validated when I publish it, so that that I know immediately if I have accidentally broken my data or have bugs and can take action to correct.",4.539787187241018e-05,security
135,"As a depositor, I want to deposit and maintain datasets through Pure, so that I have a single onestop shop for managing my research outputs.",4.539787187241018e-05,security
136,"As a data reuser, I want to access the system in my native language, so that I am not put off reusing University of Bath data by language barriers.",4.539787187241018e-05,security
137,"As a ResearcherPublisher, I want to understand the ways in which my data is invalid, so that I can know how to fix it. ",4.539787187241018e-05,security
138,"As a participant, I want to always have the cards in the same order across multiple draws, so that it's easy to compare estimates.",4.539787187241018e-05,security
139,"As a user, I want to be able to use Unicode, so that I can use any language I like.",4.539787187241018e-05,security
140,"As a repository manager, I want to have metadata in additional languages, so that I can allow for multilingual data archive.",4.539787187241018e-05,security
141,"As an OlderPerson, I want to use only well-visible buttons.",4.539787187241018e-05,security
142,"As a Developer I want to quickly access Broker application data, so that I can investigate issues.",4.539787187241018e-05,security
143,"As a Publisher, I want to preview a datapackage I have prepared, so that that I can check it works and share the results.",4.539787187241018e-05,security
144,"As a site editor, I want to have a prominent area on the home page where I can put special announcements not necessarily news or articles, so that I can give them additional exposure.",4.539787187241018e-05,security
145,"As a Data Consuming User, I want to be able to filter, sort and aggregate data by multiple dimensions and measures, So that I can get more granular views on the data.",4.539787187241018e-05,security
146,"As an OlderPerson, I want to receive information from ALFRED by speech technology. ",4.8693636927055195e-05,security
147,"As a publisher, I want to be able to check that every time I update my data it is still good, so that I can catch errors early and store reliable data. ",4.539787187241018e-05,security
148,"As a FABS user, I want the frontend URLs to more accurately reflect the page I'm accessing, so that I'm not confused.",4.539787187241018e-05,security
149,"As a moderator, I want to add an item to the list of items to be estimated, so that so that we can be flexible and accommodate situations where we think of a new story while playing.",4.539787187241018e-05,security
150,"As a Broker user, I want the D1 file generation to be synced with the FPDS data load, so that I don't have to regenerate a file if no data has been updated.",4.539787187241018e-05,security
151,"As a site visitor, I want to be able to get back to the home page quickly and easily, so that I don't get lost navigating.",4.539787187241018e-05,security
152,"As an OlderPerson, I want to use ALFRED as much as possible with speech interaction.",4.539787187241018e-05,security
153,"As a Data Consuming User, I want to be able to have stepped zoom on map visualisations, So that I can have better control over the navigation experience inside a map view.",4.539787187241018e-05,security
154,"As a user, I want to have the ability to move multiple files around and rearrange them using the Neurohub file browser while processing data.",4.539787187241018e-05,security
155,"As a developer, I want to have the site comply with the W3C accessibility guidelines where possible, so that people with accessibility issues can use the application.",4.539787187241018e-05,security
156,"As a Data Consuming User, I want to have consistent use of colour on map visualisations, So that I can better understand the visual logic of the map view.",4.539787187241018e-05,security
157,"As an Agency user, I want to receive a more helpful file-level error when I upload a file with the wrong extension.",4.539787187241018e-05,security
158,"As a participant, I want to have a small thumbnail photo displayed near where my cards are played, so that the game is more personal because I see who I'm estimating with.",4.539787187241018e-05,security
159,"As a FABS user, I want the language on FABS pages to be appropriate for me, so that I am not confused.",6.934531847946346e-05,security
160,"As a Staff member, I need to be notified when Geospatial attributes change, so that I can ensure that I am reviewing the permit/application to the most current data and appropriate standards.",4.539787187241018e-05,security
161,"As a trainer, I want to be assured that no one can submit the same answers multiple time and skew my results, so that my ratings are accurate.",4.539787187241018e-05,security
162,"As a user, I want to navigate forwards and backwards between log books and log book pages without having to use my browser's back button.",4.539787187241018e-05,security
163,"As an archivist, I want to search images by uploading an image, so that so I can find images when i don't have any metadata.",5.0186587031930685e-05,security
164,"As a publisher, I want to embed a preview button on my site, so that users can preview the data and be encouraged that this is the correct data for them.",4.539787187241018e-05,security
165,"As a UI designer, I want to redesign the Resources page, so that it matches the new Broker design styles.",4.539787187241018e-05,security
166,"As a moderator, I want to see dates and times in my local timezone, so that I don't have to do timezone conversion myself.",4.539787187241018e-05,security
167,"As a Publisher, I want to see real examples of published packages so that I can understand how useful and simple the datapackage format and the registry is.",4.539787187241018e-05,security
168,"As a Publisher, I want to be warned that a tag exists when I try to overwrite it, so that that I don't accidentally overwrite stable tagged data which is relied on by consumers.",4.539787187241018e-05,security
169,"As a Broker user, I want  to help create content mockups, so that I can submit my data efficiently.",4.539787187241018e-05,security
170,"As a user, I want the flexfields in my submission file to appear in the warning and error files when the only error is a missing required element.",5.4169955546967685e-05,security
171,"As a user, I want to view user documentation for the website, so that I know how to use the web app.",4.539787187241018e-05,security
172,"As a researcher, I want to have the ability to insert Greek symbols into my logbook entries.",4.539787187241018e-05,security
173,"As an Applicant, I want to Check the Status of a transaction, so that I can understand where the provisioning of my service is in the process, such as information related to service levels, fees, plan review, permit, or inspection results.",4.539787187241018e-05,security
174,"As a researcher, I want to promote/share my work through interactive maps, so that I can display the range and extent of my work graphically.",4.539787187241018e-05,security
175,"As an Agency user, I want to better understand my file-level errors.",5.042674092692323e-05,security
176,"As a donor representative, I want to see thumbnails of images, so that I can select which one I want.",4.539787187241018e-05,security
177,"As a user, I want to get feedback when I enter an invalid zip code.",4.539787187241018e-05,security
178,"As an archivist, I want to automatically create access derivatives of digital objects, so that I don't have to do this manually.",4.539787187241018e-05,security
179,"As an app developer, I want to ensure that application redeployment fails if any of its datasets cannot be reconfigured.",4.539787187241018e-05,security
180,"As a Publisher, I want to publish a data package where its resource data is stored on my servers but the registry caches a copy of that data, so that that if my data is lost or gets broken I still have a copy people can use.",4.539787187241018e-05,security
181,"As a data manager, I want to know whether the data can be reproduced efficiently, so that I can determine whether and how the data has to be stored.",4.539787187241018e-05,security
182,"As a Consumer, I want to be able to get the data for a data package even if the original data has been moved or removed, so that that I can still use is and my app or analysis keeps working.",4.539787187241018e-05,security
183,"As an asset manager, I want to be assured that threats to copies in one repository are not automatically incurred by the redundant copies.",4.539787187241018e-05,security
184,"As a pipeline designer, I want to get a meaningful error message when pipeline creation fails when I use an existing dataset as a sink or source, so that I know that the schema or any other property of the dataset is incompatible with what the pipeline requires. ",4.539787187241018e-05,security
185,"As a repository administrator, I would like to be able to continue to provide access to the repository in the event that the server fails.",6.44470055704005e-05,security
186,"As an OlderPerson, I want to have an ALFRED device that informs me about a low battery when leaving the house. ",4.539787187241018e-05,security
187,"As a collection curator, I want the repository to queue my collection for replication upon ingest to our remote storage site and to display the remote replication status in each item and component page in the staff interface. I would also like to see a summary of this at the collection level on my dashboard.",5.0078208005288616e-05,security
188,"As a user, I want to ensure that an update of explore never leads to silent loss of data or data available for explore. ",4.791064202436246e-05,security
189,"As an asset manager, I want to be assured that the digital copy I deposit is stored redundantly, so that when one copy suffers destruction or unwanted changes, I still have other good copies to restore from.",9.234941535396501e-05,security
190,"As a researcher, I want to indicate where my data will be stored during the project and where after the project, so that it remains accessible during all stages of the data lifecycle.",0.00021598010789602995,security
191,"As a library staff member, I want to deliver streaming media from within the repository, so that I can deliver such content in the manner expected and ensure continued access to said content.",4.539787187241018e-05,security
192,"As a systems administrator, I want to be able to control the location of the demo database and I want it to be backed up.",4.7185123548842967e-05,security
193,"As a Researcher, I want an app that create proxy Data Packages for well know and reliable data, sources, so that I can load high quality data using Data Package tooling. ",4.539787187241018e-05,security
194,"As a depositor, I want to have guarantees about data integrity, so that I can use my data in the future and I can fulfil funder requirements for archival.",4.539787187241018e-05,security
195,"As a developer, I want a dummy app to test DDR models on Fedora 4.",4.539787187241018e-05,security
196,"As repository developer, I want to find opportunities to merge functionality in batch tools.",4.539787187241018e-05,security
197,"As a developer, I want to have the ALFRED API to reduce the work to achieve my goals. ",4.539787187241018e-05,security
198,"As a dataset developer, I want to deploy a new version of a dataset type without affecting the dataset instances of that type.",4.539787187241018e-05,security
199,"As an app developer, I want to ensure that when I deploy a new version of an app that includes an older version of a dataset type deployed by another app and I expect that the dataset instances created by this app use the dataset type code included in this app.",4.539787187241018e-05,security
200,"As a tester, I want to have access to test features in environments other than Staging, so that I can test any nonProd feature in any environment.",4.539787187241018e-05,security
201,"As a user, I want to update the properties of a dataset instance and I expect this to fail if the new properties are not compatible with a meaningful error message.",4.539787187241018e-05,security
202,"As Metadata Architect, I want to be able to use batch tools to ingest, update, and export descriptive and administrative metadata in lieu of METS ingest.",4.539787187241018e-05,security
203,"As a Developer I want to quickly access Broker application data, so that I can investigate issues.",4.539787187241018e-05,security
204,"As a Web Developer, I want to be able to install multiple versions of the same datapackage separately, so that that all my projects could be developed independently and deployed locally.",4.539787187241018e-05,security
205,"As a plugin developer, I want to use a custom dataset type that was deployed independently or as part of an app inside the plugin. ",4.539787187241018e-05,security
206,"As a developer, I want to have the API to be well defined and well documented. ",4.539787187241018e-05,security
207,"As a UI designer, I want to report to the Agencies about user testing, so that they are aware of their contributions to making Broker a better UX.",4.539787187241018e-05,security
208,"As an Owner, I want to reset the environment to only take Staging MAX permissions, so that I can ensure that the FABS testers no longer have access.",4.566006828099489e-05,security
209,"As a Developer , I want to be able to log better, so that I can troubleshoot issues with particular submissions and functions.",4.539787187241018e-05,security
210,"As a dataset developer, I want to have the option of implementing a migration procedure that can be run after an upgrade of a dataset instance to a new version of it type. ",4.539787187241018e-05,security
211,"As an app developer, I want to deploy a new version of a dataset type as part of an app artifact, without affecting other datasets of this type.",4.539787187241018e-05,security
212,"As a dataset developer, I want to separate the interface from the implementation of a dataset type.",4.539787187241018e-05,security
213,"As a developer, I want a version of the DDR Batch gem that works with Active Fedora 9 and passes all tests on Fedora 4.",4.539787187241018e-05,security
214,"As a developer, I want to deposit and maintain datasets via an API such as SWORD2, so that my service can interact with the archive. ",4.539787187241018e-05,security
215,"As a UI designer, I want to track the issues that come up in Tech Thursday, so that I know what to test and what want s to be fixed.",4.539787187241018e-05,security
216,"As a team member, I want to have a platform that allows me to rapidly prototype HTML ideas.",4.539787187241018e-05,security
217,"As an NSF administrator, I want to shadow the CMS implementation, so that I can learn as the prototype is developed further.",4.539787187241018e-05,security
218,"As an app developer, I want to deploy a new version of a dataset type as part of deploying a new version of the app that includes it and I expect that all dataset instances of that type that were created as part of the app deployment start using the new code.",4.539787187241018e-05,security
219,"As an app developer, I want to ensure that when I deploy a new version of an app that includes a shared dataset type that all dataset instances created by this app start using the new code but all dataset instances created by other apps remain unchanged.",4.539787187241018e-05,security
220,"As a dataset developer, I want to deploy a dataset type independent from any app and allow apps to create and use dataset instances of that type.",4.539787187241018e-05,security
221,"As a Developer, I want to be able to customise the Brand Name and Icon, and Primary Color of all frontend Javascript apps, So that I can customise the branding for my own needs.",4.539787187241018e-05,security
222,"As a developer, I want to use a configuration that is not prepackaged within a built version of application.",4.539787187241018e-05,security
223,"As an Owner, I want to create a user testing summary from the UI SME, so that I can know what UI improvements we will follow through on.",4.539787187241018e-05,security
224,"As a UI designer, I want to begin user testing, so that I can validate stakeholder UI improvement requests.",4.539787187241018e-05,security
225,"As a dataset developer, I want to have the option of forcing applications to have the dataset code injected at runtime.",4.539787187241018e-05,security
226,"As a Data Publishing User, I want to be able to edit the data source of data I have already imported, So that I can fix bugs or make enhancements in the API built for my data.",4.539787187241018e-05,security
227,"As a developer, I want a version of the DDR models gem that uses Active Fedora 9 and passes all tests on Fedora 4.",4.539787187241018e-05,security
228,"As an app developer, I want to ensure that when I deploy a new version of an app that includes a different version of a dataset type deployed by another app and this app shares a dataset instance of this type with the other app the deployment will fail with a version conflict error. ",4.539787187241018e-05,security
229,"As an app developer, I want to only depend on the interface of a dataset type in my app and have the system inject the implementation at runtime.",4.539787187241018e-05,security
230,"As a data scientist, I want to be able to upgrade a dataset instance to a new version of its code.",4.539787187241018e-05,security
231,"As a broker team member, I want to make some updates to the SQL codes for clarity.",4.539787187241018e-05,security
232,"As an admin, I want to view user error logs, so that I can fix or review any issues that are being faced by users of the system.",4.539787187241018e-05,security
233,"As a plugin developer, I want to upgrade the code of a dataset type used by a dataset instance created by that plugin when I deploy a new version of the plugin and update the pipeline to use that version.",4.539787187241018e-05,security
234,"As a team member, I want to see the first iteration of beta up on cloud.gov.",4.539787187241018e-05,security
235,"As a developer, I want a dummy app to test DDR models on Fedora 4.",4.539787187241018e-05,security
236,"As a user, I want to view the group's shared calendars via the Neurohub Nodes' Web page as well as on my mobile device.",4.539787187241018e-05,security
237,"As a developer, I want a version of the DDR models gem that uses Active Fedora 9 and passes all tests on Fedora 4.",4.539787187241018e-05,security
238,"As a repository administrator, I want author/creator to store the DUID of the person to allow for name authority control and interoperability with other systems like Symplectic Elements.",9.991383558372036e-05,security
239,"As an NSF administrator, I want to shadow the CMS implementation, so that I can learn as the prototype is developed further.",4.539787187241018e-05,security
240,"As a developer, I want a version of the DDR Batch gem that works with Active Fedora 9 and passes all tests on Fedora 4.",4.539787187241018e-05,security
241,"As a system administrator, I want to migrate data from an older version of NeuroHub to the current version.",4.539787187241018e-05,security
242,"As a repository developer, I would like to upgrade to Fedora 4 and migrate our applications and data.",4.539787187241018e-05,security
243,"As a release engineer, I want to configure nightly builds that automatically perform a Neurohub installation on a virgin operating system, execute tests and report back results, without requiring any manual input/interaction.",4.539787187241018e-05,security
244,"As an Admin, I want to set key configuration parameters for my site deployment, so that that I can change key information like the site title.",8.067553426371887e-05,security
245,"As a developer, I want to present my App in several ways. ",4.539787187241018e-05,security
246,"As a Web Developer, I want to be able to install multiple versions of the same datapackage separately, so that that all my projects could be developed independently and deployed locally.",4.539787187241018e-05,security
247,"As a system administrator, I want to run a script that installs the Neurohub node onto a virgin Ubuntu operating system.",4.539787187241018e-05,security
248,"As a Cornell faculty member, I want to search the repository and browse through its contents on my phone, so that I can check things on the go.",5.584997416008264e-05,security
249,"As a user, I want to view all locations of recycling centers on a map, so that I can check which routes to take to drop off waste.",4.539787187241018e-05,security
250,"As a user, I want to configure time-to-live in a uniform way across all dataset types.",4.539787187241018e-05,security
251,"As a DAMS manager, I want to indicate the source-capture information for a file where it is useful to do so. ",4.539787187241018e-05,security
252,"As a researcher, I want to see the sections on costing by other researchers in my department, so that I can see if we could share data manager posts.",0.0001879613264463842,security
253,"As a user researcher, I want to test the user research plan, so that I make sure the in-person interviews are effective and capturing the right information.",4.539787187241018e-05,security
254,"As a sponsor, I want to link BADCamp attendees to my sponsorship page, so that I can show off our level of attendance.",4.539787187241018e-05,security
255,"As a Staff member, I want to Send a Formal Response to Applicant, so that I can satisfy communication and records responsibilities.",4.539787187241018e-05,security
256,"As an NSF employee, I want to have a final workshop to identify key lessons and features for the content management system decision.",4.539787187241018e-05,security
257,"As a Cornell faculty member, I want to upload data and provide a cut and paste formatted citation for people who use it, so that I receive proper attribution for my work.",4.539787187241018e-05,security
258,"As a user, I want to get info about perceptually similar video items and segments.",4.539787187241018e-05,security
259,"As an archivist, I want to automatically assign unique identifiers to material I scan, so that I avoid potential errors.",4.539787187241018e-05,security
260,"As an NSF employee, I want to know how brand guidelines are developed and maintained, so that I can incorporate them throughout the project.",4.539787187241018e-05,security
261,"As a VisualDesigner, I want to demonstrate the value of visual design to the NSF project team, so that visual design is an integral part of a redesign.",4.539787187241018e-05,security
262,"As a site visitor, I want to view a course I can click on the trainer's name and be taken to the trainer's profile, so that I can read more about a trainer before registering for a course.",4.539787187241018e-05,security
263,"As a researcher, I want to have a timeline display of multiple data files and their associated images, so that I can compare the data taken from experiments on particular dates.",9.497999417362735e-05,security
264,"As a recyclingfacility, I want to be able to communicate directly with the site admin and convey any issues or concerns I have, so that they fix them.",4.539787187241018e-05,security
265,"As an Applicant, I want to Submit Supporting Documentation, so that I can satisfy documentation requirements for my application.",0.00010121338709723204,security
266,"As a DAMS manager, I want to know the outcome of the event, e.g., object NN was deleted. ",4.539787187241018e-05,security
267,"As a camp administrator, I want to be able to set a reminders related to specific tasks that has to be done.",4.539787187241018e-05,security
268,"As a user, I want to contact the administrators, so that I can give feedback or ask for help.",0.0001896535832202062,security
269,"As a site administrator, I want to create an Other Course or Event that is not charged a listing fee, so that the Scrum Alliance doesn't charge itself for Scrum Gatherings that it puts on.",4.539787187241018e-05,security
270,"As a team member, I want to have a prioritized list of features and elements of a future social element page, so that I can work with the engineers to determine feasibility.",4.539787187241018e-05,security
271,"As a user researcher, I want to conduct a user definition workshop with NSF, so that I can better prepare them and the team for future research work.",4.539787187241018e-05,security
272,"As an OlderPerson, I want to have some games that show me how good my memory and physical health is. ",4.539787187241018e-05,security
273,"As a user, I want to take a picture or upload an image, so that I am recommended with videos related to that picture or image.",4.539787187241018e-05,security
274,"As an archivist, I want to apply automatic contrast and level operations to a scanned file, so that I can eliminate unnecessary work.",4.539787187241018e-05,security
275,"As a anonymoususer, I want to learn about sponsorship levels, so that I can determine the right level of sponsorship for my organization.",4.539787187241018e-05,security
276,"As an OlderPerson, I want to have ALFRED ask spontaneous questions but it would be better to programme it during certain times of the day. ",4.539787187241018e-05,security
277,"As a camp administrator, I want to be quickly log attendance everyday, so that I can track which kids are coming in.",4.539787187241018e-05,security
278,"As a Consumer, I want to download a Data package at a particular version, so that that I know it is compatible with my scripts and system.",4.539787187241018e-05,security
279,"As a site editor, I want to update any course or event, so that I can fix things the original author hasn't.",4.539787187241018e-05,security
280,"As a Basic Data Entry user , I want to create and update basic archival description information.",4.539787187241018e-05,security
281,"As a hydrator user, I want to create a pipeline that reads or writes a new dataset instance and I want to create that dataset instance as part of pipeline creation.",4.539787187241018e-05,security
282,"As a team member, I want to have a prototype strategy, so that I understand how we will gain understandings from tests that will drive recommendations.",4.539787187241018e-05,security
283,"As an archivist, I want to find files that cannot be made publicly available, so that I can easily access everything that's been digitized.",4.539787187241018e-05,security
284,"As a site member, I want to describe myself on my own page in a semi-structured way, so that others can learn about me.",4.539787187241018e-05,security
285,"As a hydrator user, I want to specify an explicit version of the dataset types of the dataset instances created by my pipeline and I expect pipeline creation to fail if that results in incompatible upgrade of an existing dataset instance that is shared with other apps or pipelines.",4.539787187241018e-05,security
286,"As a user, I want to scope by searches by name to a specific role such as illustrator, photographer, etc.",0.00026834107120521367,security
287,"As a Zooniverse admin, I want to know when I should interrupt a volunteer.",4.539787187241018e-05,security
288,"As a User, I want to be able to set my own username, So that my data is more easily discoverable.",4.539787187241018e-05,security
289,"As a camp administrator, I want to be able to add campers, so that I can keep track of each individual camper.",4.539787187241018e-05,security
290,"As a camp administrator, I want to be able to notify parents all at once, so that they can be notified of any upcoming events.",4.539787187241018e-05,security
291,"As an archivist, I want to automatically generate technical metadata, so that I know the file size.",4.539787187241018e-05,security
292,"As an archivist, I want to see what a particular user has downloaded, so that I can track use of assets.",4.539787187241018e-05,security
293,"As a user, I want to make uploaded data files to be non-modifiable.",4.539787187241018e-05,security
294,"As a Developer , I want to determine how agencies will generate and validate D Files from FABS and FPDS data.",4.539787187241018e-05,security
295,"As a user, I want to search and discover music by exploiting enriched metadata and image tags, so that I find related artists, new genre, or other relevant listening path.",4.539787187241018e-05,security
296,"As a SocialCaregiver, I want to have ALFRED to be able to recognize pain and or stress by using skin conduction sensors. ",4.539787187241018e-05,security
297,"As a camp administrator, I want to be able to add parents, so that they can enroll their kids at camp.",4.539787187241018e-05,security
298,"As an Agency user, I want all historical Financial Assistance data loaded for FABS go-live.",4.539787187241018e-05,security
299,"As an archivemanager, I want to reuse the information regarding file format, so that I can apply automated checks for the file validation.",4.539787187241018e-05,security
300,"As a parent, I want to be able to see and edit my enrolled children to the camp year, so that I can know who I already enrolled to camp, who is still pending admission etc.",4.539787187241018e-05,security
301,"As a data manager, I want to know what the content of the data is, so that I can decide to which collection or repository the data fits.",4.539787187241018e-05,security
302,"As a user researcher, I want to make sure the correct NSF people are invited to user interviews, so that they can observe the interviews and make recommendations accordingly.",4.539787187241018e-05,security
303,"As a administrator, I want to create and maintain venues, so that I can provide location details to help users find what they're looking for.",0.0001441648491891101,security
304,"As an archivist, I want to view physical locations for non-archival material, so that I can provide research services to donors.",0.00013203681737650186,security
305,"As a user researcher, I want to know when outreach to lists is successful, so that I can plan on a new release to the next listserv on the priority list.",5.7768484111875296e-05,security
306,"As a repository manager, I want to indicate subjects related to the collection.  ",4.539787187241018e-05,security
307,"As a Cornell faculty member, I want to create a collection for my documents, or my organization's documents, and apply some distinctive branding to that collection, so that I can promote my work, or that of my organization.",4.539787187241018e-05,security
308,"As a developer, I want to be notified as soon as possible when the state of any of my Apps changes. ",4.539787187241018e-05,security
309,"As an Owner, I want to design a schedule from the UI SME, so that I know the potential timeline of the UI improvements wanted.",4.539787187241018e-05,security
310,"As a trainer, I want to create an Other Course or Event I am charged a listing fee for that activity, so that I don't list events I don't really intend to hold.",4.539787187241018e-05,security
311,"As a anonymoususer, I want to learn about posting jobs as a sponsor and contact the sponsorship person, so that I have the opportunty to post my job listing on the BADCamp site.",4.539787187241018e-05,security
312,"As a supervisor, I want to create feedback forms within Neurohub, that my students can fill in and submit, in order to provide me with feedback about the course that they attended.",4.539787187241018e-05,security
313,"As a Publisher, I want to be able to overwrite the previously tagged datapackage, so that that I can fix it if I mess up.",8.646401693113148e-05,security
314,"As a camp administrator, I want to be able to assign different positions to the staff members, so that it is possible to organize activities in terms of responsibilities.",0.0001261597208213061,security
315,"As a faculty member, I want to maintain versioning of Extension brochures, FAQs, etc., so that only the most current are used/adapted by other CCE Educators in their work.",4.539787187241018e-05,security
316,"As a trainingcoordinator, I want to have an admin view where all trainee information is shown and can be filtered to show a single training session, so that I can see WTF is happening.",4.539787187241018e-05,security
317,"As an API User, I want to be able to dynamically request polygons based on the query made, So that I can provide maps that match the query.",4.539787187241018e-05,security
318,"As a data depositor, I'd like to use the Simple Ingest Format to add items to an existing collection.",0.00010354914411436766,security
319,"As a user (University Archivist or Secretary Office Staff member), I want to be able to add a date delimiter to a search string so that I can limit a search to return only results from before, after, or between a given date or dates.",4.539787187241018e-05,security
320,"As a ResearcherGovernment Publisher, I want to add reference data on inflation to my spending dataset, so that the spending lines in my dataset is more understandable. ",4.539787187241018e-05,security
321,"As a Staff member, I want to Schedule a Meeting, so that I can bring the required parties together at a specific date/time to address an issue.",6.222091178642586e-05,security
322,"As a user, I want to find out what properties of a dataset can be updated.",6.646277324762195e-05,security
323,"As a Cornell faculty member, I want to easily find all the items in the repository that I have authored, by searching on my name (author name authority and/or identification issue), because I keeps my publications in the repository up-to-date and points people tithe repository.",4.539787187241018e-05,security
324,"As an OlderPerson, I want to use ALFRED for navigation. ",4.539787187241018e-05,security
325,"As a Research Information manager, I want to have datasets linked to metadata about projects, so that I can report on projects depositing datasets in relation to funder requirements.",4.539787187241018e-05,security
326,"As an app developer, I want to tolerate existing datasets if their properties are different but compatible when creating a dataset as part of app deployment. ",4.539787187241018e-05,security
327,"As a camp worker, I'm able to report necessary repairs to the manager that the camp is needed of.",4.539787187241018e-05,security
328,"As a Research Information manager, I want to segment the view and download statistics by country and sector so that impact of datasets outside academia can be demonstrated.",4.539787187241018e-05,security
329,"As a repository manager, I want to know all the content files in the DAMS for my repository's objects. ",4.539787187241018e-05,security
330,"As an Archivist, I want to create and edit Agent records.",6.718994700349867e-05,security
331,"As a researcher, I want to know about costs, so that I can plan my research.",0.000504586729221046,security
332,"As a site admin, I want to stop publishing jobs on the site 30 days after being posted, so that jobs that may have been filled aren't still listed when the hiring party forgets to come back and delete the ad.",4.539787187241018e-05,security
333,"As a Zooniverse admin, I want to perform prefiltering of the images to remove artefacts such as bright stars and camera read errors.",4.539787187241018e-05,security
334,"As a plugin developer, I want to include the code for a dataset type in the plugin artifact, so that when a pipeline using this plugin is created a dataset instance of that type is created and it is explorable and available to apps.",4.539787187241018e-05,security
335,"As an archivist, I want to know if a photo has already been scanned, so that I can license it to a researcher.",4.539787187241018e-05,security
336,"As an OlderPerson, I want to use ALFRED to contact help in case of an emergency. ",4.539787187241018e-05,security
337,"As a patron, I want to know previous name(s) and publication date range (first version-last version) of reports/datasets, so that I can know what historical versions are available and how current more recent version is.",4.539787187241018e-05,security
338,"As a corporatesponsor, I want to make my logo randomly appear on the home page, so that others see the company's support of Scrum.",4.539787187241018e-05,security
339,"As a anonymoususer, I want to see a list of all the summits that include when they are, so that I can determine which summit I want to attend.",4.539787187241018e-05,security
340,"As a user, I want to update a single property of a dataset instance without knowing all other properties. ",4.539787187241018e-05,security
341,"As a researcher, I want to understand the copyright status of the image, so that I know if I can use it.",0.00012360549590084702,security
342,"As a Publisher, I want to publish a data package in the UI, so that that it is available and published.",4.539787187241018e-05,security
343,"As a ReadOnly user , I want to view archival descriptions in my repository.",9.3273920356296e-05,security
344,"As a moderator, I want to view a transcript of a game, so that I can see the stories and estimates.",4.539787187241018e-05,security
345,"As a Data Consuming User, I want to be able to search any dataset published and publicly accessible by their title and metadata, So that I can find the datasets I'm interested in.",4.539787187241018e-05,security
346,"As a data librarian, I want to import administrative information regarding a project into DMP, so that I can prepopulate the DMP.",4.539787187241018e-05,security
347,"As an archivist, I want to ensure that emails sent about specific objects contain accurate citation information, so that I can confirm which object is being referred to.",4.539787187241018e-05,security
348,"As a Publisher, I want to validate the data I am about to publish to the registry, so that that I publish good data and know that I am doing.",4.636443918570876e-05,security
349,"As a user, I want to know what repository an object belongs to. ",4.539787187241018e-05,security
350,"As a Bath Data Archive administrator, I want to encourage and promote the use of open standards for deposit, so that data is as reusable as possible.",0.00011323621583869681,security
351,"As a site admin, I want to approve each help wanted ad before it gets to the site, so that we're sure of the quality of jobs being listed.",4.539787187241018e-05,security
352,"As a team member, I want to have recruiting-email templates ready to go, so that I can start recruiting interviewees ASAP!.",4.539787187241018e-05,security
353,"As an OlderPerson, I want to use ALFRED to send messages. ",4.539787187241018e-05,security
354,"As a Publisher, I want to undelete the deleted data packages, so that that the deleted data packages is now visible again.",4.539787187241018e-05,security
355,"As an Archivist, I want to specify the Source for a Name Form of an Agent and add new Sources and edit existing Sources.",4.539787187241018e-05,security
356,"As a team member, I want to have a schedule of more coworking slots, so that I can work in tandem with the rest of the team on a more regular basis.",4.539787187241018e-05,security
357,"As an OlderPerson, I want to have the ALFRED shirt to look good. ",4.539787187241018e-05,security
358,"As Metadata Architect, I want metadata export to contain both item- and component-level metadata.",4.539787187241018e-05,security
359,"As an employee from the HR department, I want to have access to the full information of all employees working for this business.",4.539787187241018e-05,security
360,"As a Consumer, I want to be notified of changes to a package I care about, so that that I can check out what has changed and take action.",4.539787187241018e-05,security
361,"As an archivist, I want to have electronic versions of the collection files available for staff use, so that I increase accessibility and I do not lose the original files.",4.539787187241018e-05,security
362,"As a dataset developer, I want to have a way to reject an upgrade of a dataset instance to a newer version of it type if the upgrade is not compatible.",4.539787187241018e-05,security
363,"As a user, I want to limit my search to a particular set of log books.",4.539787187241018e-05,security
364,"As a researcher, I want to ask a question about a specific file, so that I can find out more information.",4.539787187241018e-05,security
365,"As a repository support team member, I want to export a set of records and associated files, manipulate this data set, and reload into the system, because I am aware of a uniform error in a collection.",4.539787187241018e-05,security
366,"As a user, I want to specify the schema of a dataset in a uniform way across all dataset types.",4.539787187241018e-05,security
367,"As a DAMS manager, I want to know when the application of a statute to an object or object component has been modified, either manually or automatically. ",4.539787187241018e-05,security
368,"As a Consumer, I want to get a sense of the age of the datapackage that I have downloaded before, so that that I can decide if I should update or not.",4.539787187241018e-05,security
369,"As a researcher, I want to receive an alert of any unattached files that are in my workspace.",4.539787187241018e-05,security
370,"As an NSF employee, I want to join Github, so that I can participate in the issues as assigned.",4.539787187241018e-05,security
371,"As an archivist, I want to upload a single file.",4.539787187241018e-05,security
372,"As a site visitor, I want to subscribe to an RSS feed of articles, so that I can read them without visiting the site.",4.539787187241018e-05,security
373,"As a moderator, I want to invite estimators by giving them a URL where they can access the game, so that we can start the game.",4.539787187241018e-05,security
374,"As an Inspection Staff Supervisor, I want to Assign Inspections, so that I can make sure the appropriate Inspector receives the work.",4.619875471689738e-05,security
375,"As a Publisher, I want to import my data package into the registry, so that my data has a permanent online home to access. ",7.243509026011452e-05,security
376,"As a DB/IR administrator, I want to manage subject classifications for ease of patron browsing and searching.",0.00017353703151457012,security
377,"As a user, I want to assign bespoke information to a file dependent on its type.",8.907081792131066e-05,security
378,"As a Staff member, I want to Manage Approved Proffers, so that I can ensure compliance with and satisfaction of the proffer in the future.",4.539787187241018e-05,security
379,"As a Consumer, I want to see a publisher's profile, so that that I can discover their packages and get a sense of how active and good they are.",4.539787187241018e-05,security
380,"As a site admin, I want to delete any course or event, so that I can remove things that will no longer occur.",4.539787187241018e-05,security
381,"As a Publisher, I want to know how many users have previewed a dataset, so that I know how interest in a dataset relates to its actual download numbers. ",4.539787187241018e-05,security
382,"As a library staff member, I want to be able to assign an item to more than one collection.",4.539787187241018e-05,security
383,"As a repository manager, I want to indicate any subject that is pertinent to the component. ",4.539787187241018e-05,security
384,"As an System Administrator, I want to declare that a user is has the Repository Manager role for a given Repository.",5.705016155843623e-05,security
385,"As a site visitor, I want to see a list of all upcoming Events, so that I can decide if I want to attend any.",4.539787187241018e-05,security
386,"As a potential research participant, I want to learn about the research and leave my contact information.",4.539787187241018e-05,security
387,"As a user, I want to choose a flexible pick up time, so that I can more conveniently use the website.",4.539787187241018e-05,security
388,"As a user, I want to have the system to also forward important news items to an external mailing list.",4.539787187241018e-05,security
389,"As a site editor, I want to assign priority numbers to news items, so that I can indicate which articles I want featured most prominently on the site.",4.539787187241018e-05,security
390,"As a Zooniverse admin, I want to perform automatic image series detection for the case of timestamping malfunction in Snapshot Serengeti images.",4.539787187241018e-05,security
391,"As a metadata batch editor, I'd like to be able to mark any search results as an export set for metadata remediation.",4.539787187241018e-05,security
392,"As a user, I want to be able to view the safe disposal events currently being organised around my area.",4.539787187241018e-05,security
393,"As a anonymoususer, I want to see a list of all the summits, so that I can determine which summit I might be interested and able to attend.",4.539787187241018e-05,security
394,"As a administrator, I want to mark a session as accepted, so that I can populate the schedule .",4.539787187241018e-05,security
395,"As a Consumer, I want to see how active the site is, so that I can decide if I should get involved.",0.00010017523163696751,security
396,"As a Zooniverse admin, I want to identify the number of whales heard in a single audio file.",4.539787187241018e-05,security
397,"As a repository manager, I want to list all the components, in their appropriate order, for an object ",0.00017433658649679273,security
398,"As a hydrator user, I want to ensure that all dataset instances created by apps are available as sinks and sources for pipelines.",4.539787187241018e-05,security
399,"As a user, I want to identify brands in videos, and receive related information about them.",4.539787187241018e-05,security
400,"As a UI designer, I want to move on to round 2 of DABS or FABS landing page edits, so that I can get approvals from leadership.",4.539787187241018e-05,security
401,"As a Consumer, I want to view a Datapackage at a particular version online, so that that I can present/discuss the particular data timeslice of interest with other people.",4.539787187241018e-05,security
402,"As a Research Information manager, I want to include records for externally held data complete, so that the university's record of data holdings is complete.",4.539787187241018e-05,security
403,"As an archivist, I want to search images by photographer.",0.0001915059838211164,security
404,"As a site visitor, I want to see a trainer's rating, so that I choose a course from an appropriate trainer.",4.539787187241018e-05,security
405,"As a crossdeptprojteammember, I want to have a better place to collect and share project materials, with a range of organization/tagging and access options, including private (internal group use only), University and public.",4.539787187241018e-05,security
406,"As the Digital Records Archivist, I want to be able to edit the length of embargoes.",0.0002317144681001082,security
407,"As an OlderPerson, I want to have ALFRED to help to motivate me during the week to do exercise that should change daily, as the constant change motivates me. ",5.216976933297701e-05,security
408,"As a researcher, I want to access digitized archival materials without mediation, so that I can decide what, I want to look at.",4.539787187241018e-05,security
409,"As a user, I want to see all the component parts of an object. ",4.539787187241018e-05,security
410,"As a Staff member, I want to Capture a Hearing Decision, so that I can enforce the system.",4.539787187241018e-05,security
411,"As an archivist, I want to apply a license or rights statement, so that I know what I can do with a file.",4.539787187241018e-05,security
412,"As a DAMS manager, I want to know if application of a library policy to an object or object component has been modified, either manually or automatically.  ",4.539787187241018e-05,security
413,"As a Zooniverse admin, I want to group subjects by similarity.",4.539787187241018e-05,security
414,"As a user researcher, I want to have the finalized OLPA task script, so that I can begin testing with internal users.",4.539787187241018e-05,security
415,"As a user researcher, I want to set up a website recruitment test, so that I can see if we can recruit users in real time from the website.",4.539787187241018e-05,security
416,"As a Bath Data Archive administrator, I want to approve scheduled disposal of data, so that data which is still required is not destroyed.",4.539787187241018e-05,security
417,"As a researcher, I want to extract the description of the data collected, so that I can reuse it for the writing of a data paper.",4.539787187241018e-05,security
418,"As a company accountant, I want to view all available activity fees online, so that I can easily create a bill statement.",4.539787187241018e-05,security
419,"As a Consumer, I want to see how much the data has been downloaded, so that that I can choose most popular in the case when there are several alternatives for my use case.",4.539787187241018e-05,security
420,"As a Broker user, I want to have updated error codes that accurately reflect the logic and provide enough information, so that I can fix my submission.",4.539787187241018e-05,security
421,"As a user, I want to scope my searches for collections, objects, or object components to a specific language. ",0.000109753520519007,security
422,"As a MedicalCaregiver, I want to give corrective feedback if exercises are performed wrong, too much or in any other way harmful to the user. ",4.539787187241018e-05,security
423,"As a user, I want to be able to select different types of recyclable waste, so I have and get a list of facilities that accept each type and their opening hours, so that I can find an optimal route and schedule.",4.539787187241018e-05,security
424,"As a site editor, I want to post information in a trainers-only section, so that only trainers see it.",4.539787187241018e-05,security
425,"As a Staff member, I want to Process the Appeals, so that I can track the outcome and record the impact on the relevant records.",0.00011522186832735315,security
426,"As a dataset developer, I want to have an archetype that helps me package my dataset type properly.",4.539787187241018e-05,security
427,"As a user, I want to download files directly from the search results page.",0.0003525743668433279,security
428,"As a site visitor, I want to access old news that is no longer on the home page, so that I can access things I remember from the past or that others mention to me.",4.539787187241018e-05,security
429,"As a site visitor, I want to see a list of all upcoming Certification Courses and can page through them if there are a lot, so that I can choose the best course for me.",4.539787187241018e-05,security
430,"As an API User, I want to be able to normalise measures by GINI and related socioeconomic indexes, So that I work with datasets in reference to their contextual constraints.",4.539787187241018e-05,security
431,"As a Zooniverse admin, I want to assess the probability/weight of a volunteer's classification based on their experience.",4.539787187241018e-05,security
432,"As a lab administrator, I want to create page templates with bespoke metadata fields.",4.539787187241018e-05,security
433,"As a fundingbody, I want to harvest metadata on outputs from research I fund, so that I can analyse effectiveness of funding strategy and I can encourage cross fertilisation of research outputs.",4.539787187241018e-05,security
434,"As an OlderPerson, I want to use ALFRED to organize a meeting with a group of friends at a certain place. ",4.539787187241018e-05,security
435,"As a Publisher, I want to publish a dataset, so that I can share the dataset publicly with everyone.",4.539787187241018e-05,security
436,"As a participant, I want to scroll back through the stories and estimates from prior rounds, so that I can use this information when I estimate the item of the current round.",4.539787187241018e-05,security
437,"As a FABS user, I want additional helpful info in the submission dashboard, so that I can better manage submissions and IG requests.",4.539787187241018e-05,security
438,"As an archivemanager, I want to know in advance the conservation period of data, so that I can better organize the service by adapting the preservation actions.",4.539787187241018e-05,security
439,"As a user, I want to search by for collections and objects by name (person, family, or corporate body).  ",4.539787187241018e-05,security
440,"As an admin, I want to add recycling center information, so that I can keep the database up-to-date over time.",4.539787187241018e-05,security
441,"As a anonymoususer, I want to view a list of user profiles, so that I know who is attending the conference.",4.539787187241018e-05,security
442,"As a funder, I want to know how secure data is, so that I can ensure legal compliance.",0.0002335890894755721,security
443,"As an Archivist, I want to assign Location information to a Container.",4.539787187241018e-05,security
444,"As a FABS user, I want to submit a citywide as a PPoPZIP and pass validations.",9.783530549611896e-05,security
445,"As a moderator, I want to start a round by entering an item in a single multi-line text field, so that we can estimate it.",4.539787187241018e-05,security
446,"As an NSF employee, I want to know how visual design directions were developed, so that I can make better design decisions in the future.",4.539787187241018e-05,security
447,"As a camp administrator, I want to be able to keep track of which camper submitted which forms, so that legal issues are avoided.",4.539787187241018e-05,security
448,"As a faculty member, I want to access a collection within the repository, so that I can obtain research materials.",4.539787187241018e-05,security
449,"As a Publisher, I want to unpublish a data package, so that it is no longer visible to anyone.",4.539787187241018e-05,security
450,"As a developer, I want to have an easy way to manage the pricing modality of my Apps. ",4.539787187241018e-05,security
451,"As a Cornell faculty member, I want to easily assign a CC license to the files I are depositing, so that users know how the materials can be used.",4.539787187241018e-05,security
452,"As a Zooniverse admin, I want to detect important features such as areas of flooding, damage, temporary shelters, blocked roads etc in the satellite images.",4.539787187241018e-05,security
453,"As a faculty member, I want to recommend a digital collection be built in the repository, so that I can assist in my research.",0.00013265240704640746,security
454,"As a DAMS manager, I want to know the agent(s) responsible for carrying out an event.  ",4.539787187241018e-05,security
455,"As a camp worker, I would be able to submit a completion report for the tasks which was assigned to me.",4.539787187241018e-05,security
456,"As an API User, I want to be able to persistently store visualisation state in the database, So that such can be shared more easily and contribute to a visualisation gallery.",4.539787187241018e-05,security
457,"As a user, I want to search and discover music based on my profile.",4.539787187241018e-05,security
458,"As a RepositoryManagerResearcher, I want an app that acts as a match-making service for packaging data, so that owners are paired with data packagers. ",4.539787187241018e-05,security
459,"As a Consumer, I want to view a data package online, so that I can get a sense of whether this is the dataset I want.",4.539787187241018e-05,security
460,"As the DAMS manager, I want to be able to list for browsing all formal collections represented in the DAMS and I want to list them with the appropriate relationships ",0.00019142728706356138,security
461,"As a camp administrator, I want to be able to schedule activities for campers, so that camp workers can easily keep track of who is where at all times.",4.539787187241018e-05,security
462,"As a user, I want to know what collection(s) an object belongs to. ",4.539787187241018e-05,security
463,"As a trainee, I want to add to ""my schedule"" if there is a schedule feature on the site, so that they can schedule their event experience.",4.539787187241018e-05,security
464,"As a MedicalCaregiver, I want to have ALFRED to be able to determine the user's body temperature. ",8.912417251849547e-05,security
465,"As repository manager, I want to know all the files belonging to an object ",0.0005727878306061029,security
466,"As an OlderPerson, I want to have clear instructions and service after sales that guide me if I have trouble in using ALFRED.",4.539787187241018e-05,security
467,"As a repository manager, I want to indicate any other rights pertinent to an object. ",4.539787187241018e-05,security
468,"As a student, I want to upload to the repository the data that is associated with my embargoed dissertation to meet requirements of a DMP I submitted with my NSF DDIG.",4.539787187241018e-05,security
469,"As an asset manager, I want to have mechanism to pass ownership/management of the assets to a successor.",0.00015967286890372634,security
470,"As a faculty data steward, I want to see the sections on costing, so that I can ensure sufficient expertise on data management to support the project.",4.539787187241018e-05,security
471,"As a student, I want to learn who at Cornell has or is engaged in research related to a particular topic, so that I can find an appropriate advisor, choose which courses to enroll in, and identify work/internship opportunities.",4.539787187241018e-05,security
472,"As a site editor, I want to have some flexibility as to where things appear, so that I can accommodate different types of content.",4.539787187241018e-05,security
473,"As a Consumer, I want to browse and find publishers, so that that I can find interesting publishers and their packages.",4.539787187241018e-05,security
474,"As a patron, I want to know which reports/datasets are coming out when, so that I can access latest report/dataset.",4.539787187241018e-05,security
475,"As a repository manager, I want to know any changes occurring to titles for repository's collections, objects, and object components. ",5.7756038586376235e-05,security
476,"As a anonymoususer, I want to have a training landing page with an intro section and a list of all training offerings and promote call for trainings, so that I can shop for training all with one page and we can have a call for trainings for selection.",4.539787187241018e-05,security
477,"As an OlderPerson, I want to use ALFRED to control the heating. ",4.539787187241018e-05,security
478,"As a site visitor, I want to post comments about articles, so that others can read them.",4.539787187241018e-05,security
479,"As a researcher, I want to share reports I've written, so that it is available to staff and researchers.",0.00011837434431072325,security
480,"As an asset manager, I want to have a mechanism to obtain a listing or understanding of all the assets that have been deposited, and their current status.",4.539787187241018e-05,security
481,"As a researcher, I want to search by keyword, so that I can learn what already exists digitally and avoid placing additional duplication requests.",4.539787187241018e-05,security
482,"As a camp counselor, I want to be able to take attendance of my assigned kids, so that I can make ensure everybody is accounted for.",4.539787187241018e-05,security
483,"As an OlderPerson, I want to use ALFRED to contact people from my own circle. ",4.539787187241018e-05,security
484,"As a collection curator, I want to be able to move items from one collection to another.",4.539787187241018e-05,security
485,"As an Archivist, I want to create and edit Rights Management statements.",4.539787187241018e-05,security
486,"As a Website user, I want to access published FABS files, so that I can see the new files as they come in.",4.539787187241018e-05,security
487,"As a site visitor, I want to do a full-text search of the FAQs, so that I can find an answer quickly.",4.539787187241018e-05,security
488,"As an archivist, I want to manage loan documentation, including preservation photos, forms and correspondence, so that I can find it easily later.",0.0001286967599298805,security
489,"As a data manager, I want to have references to documentation of the data and its creation process, so that the data can be re-used and managed.",4.539787187241018e-05,security
490,"As a Cornell faculty member, I want to have some control over how items within my collection sort in collection contents lists, so that I can control how my work is presented.",4.539787187241018e-05,security
491,"As a potential depositor, I want to see what kinds of things the repository accepts and what formats are accepted and recommended.",4.539787187241018e-05,security
492,"As a Consumer, I want to view a publisher's profile, so that that I can see who is behind a particular package or to see what other packages they produce. ",4.539787187241018e-05,security
493,"As an Applicant, I want to Satisfy Hearing Requirements, so that I can ensure all pre-hearing requirements are satisfied in time for the hearing.",4.539787187241018e-05,security
494,"As a moderator, I want to have the ""estimate"" field filled in automatically if all estimators show the same card, so that I can accept it more quickly.",4.539787187241018e-05,security
495,"As an OlderPerson, I want to have ALFRED to enable me to have face to face contacts as well, so that I do not just have virtual contacts over ALFRED. ",4.539787187241018e-05,security
496,"As a researcher, I want to stay up to date on research related to a given topic at Cornell, including those in other departments/schools, so that my own research remains relevant and innovative.",4.539787187241018e-05,security
497,"As a researcher, I want to collect data as a library of data, which can then be used by one or multiple experiments that are defined at a later stage.",9.752039477461949e-05,security
498,"As a repository manager, I want to say one collection is related to another collection. (TBD) ",4.539787187241018e-05,security
499,"As an admin, I want to prefilter the content using search on high-level asset information such as metadata and tags either recognized by the system of provided by the user.",4.539787187241018e-05,security
500,"As a library staff member, I want to create custom metadata fields for certain collections, and allow searching of those fields, so that I can best reflect and deliver diverse content.",4.539787187241018e-05,security
501,"As a content designer, I want to develop a better understanding of NSF's content types and editorial plan, so that I can make more informed recommendations going forward.",4.539787187241018e-05,security
502,"As a Zooniverse admin, I want to automatically detect Snapshot Serengeti images with no classifiable animals in them.",4.539787187241018e-05,security
503,"As a camp administrator, I want to be able to warn a camp worker who I think did his/her job inappropriate.",4.539787187241018e-05,security
504,"As a user, I want to walk around, access content using a geographical map and be informed if there are videos covering the area, monuments or any other relevant point of interest.",4.539787187241018e-05,security
505,"As a user, I want to be able to give my email ID, so that I can receive notifications for new events as they are posted.",0.00010476072930032387,security
506,"As a l Staff member, I want to search for Property information, so that I can obtain all associated current and historic owners, permits, and applications.",4.539787187241018e-05,security
507,"As a site visitor, I want to read current news on the home page, so that I stay current on agile news.",4.539787187241018e-05,security
508,"As a site member, I want to have full access to all articles, so that there is a benefit to being a member.",4.539787187241018e-05,security
509,"As a Staff member, I want to Manage Ordinances, so that I can maintain accurate ordinance information in the System.",0.00010742195445345715,security
510,"As a researcher, I want to have information that will help me identify other faculty I might partner/collaborate with.",4.539787187241018e-05,security
511,"As a ResearcherGovernment Publisher, I want to add general country names to my dataset that only contains country codes, so that my dataset is more readable. ",4.539787187241018e-05,security
512,"As an owner, I want to invite someone using their email to sign up and become a member of my Publisher, so that that they are authorized to publish data packages under my Publisher.",4.539787187241018e-05,security
513,"As a researcher, I want to know when only part of a folder has been digitized, so that I know if I am seeing everything or only a portion.",4.539787187241018e-05,security
514,"As a user, I want to have access to the content files for an object. ",4.539787187241018e-05,security
515,"As a Data Analyst, I want to compare different versions of some datapackage locally, so that that I can see schema changes clearly and adjust my analytics code to the desired schema version.",4.539787187241018e-05,security
516,"As a trainer, I want to read information of relevance only to trainers, so that the Scrum Alliance can share information with me easily.",4.539787187241018e-05,security
517,"As a user researcher, I want to have a list of priority workflow candidates that we might test, so that I can make sure we're capturing the priority areas.",4.539787187241018e-05,security
518,"As a site visitor, I want to click the link from the article teaser to take me directly to the body of the article. not to another teaser setup, so that I can easily finish the article.",4.539787187241018e-05,security
519,"As a Bath Data Archive administrator, I want to import Bath data from an external data centre wholesale, so that Bath data holdings in external archives are not lost if they close down.",4.539787187241018e-05,security
520,"As a Researcher, I want a tool that can generate basic statistics about a dataset, so that I can get a quick preview of the data. ",4.539787187241018e-05,security
521,"As a researcher, I want to know how long it will take to archive, so that I can plan further steps.",4.539787187241018e-05,security
522,"As an Archivist, I want to associate a Subject record with a Resource description.",4.539787187241018e-05,security
