,eval,epoch
0,"{'performance': {'tp': 0.0, 'fp': 1e-08, 'fn': 6.00000001, 'tn': 163.0, 'tot': 6.00000001, 'eval': {'textcat_p': 0.0, 'textcat_r': 0.0, 'textcat_f': 0}}, 'compatibility': {'tp': 0.0, 'fp': 1e-08, 'fn': 29.00000001, 'tn': 140.0, 'tot': 29.00000001, 'eval': {'textcat_p': 0.0, 'textcat_r': 0.0, 'textcat_f': 0}}, 'usability': {'tp': 0.0, 'fp': 1e-08, 'fn': 11.00000001, 'tn': 158.0, 'tot': 11.00000001, 'eval': {'textcat_p': 0.0, 'textcat_r': 0.0, 'textcat_f': 0}}, 'reliability': {'tp': 0.0, 'fp': 1e-08, 'fn': 7.00000001, 'tn': 162.0, 'tot': 7.00000001, 'eval': {'textcat_p': 0.0, 'textcat_r': 0.0, 'textcat_f': 0}}, 'security': {'tp': 0.0, 'fp': 1e-08, 'fn': 19.00000001, 'tn': 150.0, 'tot': 19.00000001, 'eval': {'textcat_p': 0.0, 'textcat_r': 0.0, 'textcat_f': 0}}, 'maintainability': {'tp': 0.0, 'fp': 1e-08, 'fn': 15.00000001, 'tn': 154.0, 'tot': 15.00000001, 'eval': {'textcat_p': 0.0, 'textcat_r': 0.0, 'textcat_f': 0}}, 'portability': {'tp': 0.0, 'fp': 1e-08, 'fn': 12.00000001, 'tn': 157.0, 'tot': 12.00000001, 'eval': {'textcat_p': 0.0, 'textcat_r': 0.0, 'textcat_f': 0}}}",0
1,"{'performance': {'tp': 0.0, 'fp': 1e-08, 'fn': 6.00000001, 'tn': 163.0, 'tot': 6.00000001, 'eval': {'textcat_p': 0.0, 'textcat_r': 0.0, 'textcat_f': 0}}, 'compatibility': {'tp': 0.0, 'fp': 1e-08, 'fn': 29.00000001, 'tn': 140.0, 'tot': 29.00000001, 'eval': {'textcat_p': 0.0, 'textcat_r': 0.0, 'textcat_f': 0}}, 'usability': {'tp': 0.0, 'fp': 1e-08, 'fn': 11.00000001, 'tn': 158.0, 'tot': 11.00000001, 'eval': {'textcat_p': 0.0, 'textcat_r': 0.0, 'textcat_f': 0}}, 'reliability': {'tp': 0.0, 'fp': 1e-08, 'fn': 7.00000001, 'tn': 162.0, 'tot': 7.00000001, 'eval': {'textcat_p': 0.0, 'textcat_r': 0.0, 'textcat_f': 0}}, 'security': {'tp': 0.0, 'fp': 1e-08, 'fn': 19.00000001, 'tn': 150.0, 'tot': 19.00000001, 'eval': {'textcat_p': 0.0, 'textcat_r': 0.0, 'textcat_f': 0}}, 'maintainability': {'tp': 0.0, 'fp': 1e-08, 'fn': 15.00000001, 'tn': 154.0, 'tot': 15.00000001, 'eval': {'textcat_p': 0.0, 'textcat_r': 0.0, 'textcat_f': 0}}, 'portability': {'tp': 0.0, 'fp': 1e-08, 'fn': 12.00000001, 'tn': 157.0, 'tot': 12.00000001, 'eval': {'textcat_p': 0.0, 'textcat_r': 0.0, 'textcat_f': 0}}}",1
2,"{'performance': {'tp': 0.0, 'fp': 1e-08, 'fn': 6.00000001, 'tn': 163.0, 'tot': 6.00000001, 'eval': {'textcat_p': 0.0, 'textcat_r': 0.0, 'textcat_f': 0}}, 'compatibility': {'tp': 1.0, 'fp': 1e-08, 'fn': 28.00000001, 'tn': 140.0, 'tot': 29.00000001, 'eval': {'textcat_p': 0.9999999900000002, 'textcat_r': 0.03448275860879905, 'textcat_f': 0.0666666666222222}}, 'usability': {'tp': 0.0, 'fp': 1e-08, 'fn': 11.00000001, 'tn': 158.0, 'tot': 11.00000001, 'eval': {'textcat_p': 0.0, 'textcat_r': 0.0, 'textcat_f': 0}}, 'reliability': {'tp': 0.0, 'fp': 1e-08, 'fn': 7.00000001, 'tn': 162.0, 'tot': 7.00000001, 'eval': {'textcat_p': 0.0, 'textcat_r': 0.0, 'textcat_f': 0}}, 'security': {'tp': 0.0, 'fp': 1e-08, 'fn': 19.00000001, 'tn': 150.0, 'tot': 19.00000001, 'eval': {'textcat_p': 0.0, 'textcat_r': 0.0, 'textcat_f': 0}}, 'maintainability': {'tp': 0.0, 'fp': 1e-08, 'fn': 15.00000001, 'tn': 154.0, 'tot': 15.00000001, 'eval': {'textcat_p': 0.0, 'textcat_r': 0.0, 'textcat_f': 0}}, 'portability': {'tp': 0.0, 'fp': 1e-08, 'fn': 12.00000001, 'tn': 157.0, 'tot': 12.00000001, 'eval': {'textcat_p': 0.0, 'textcat_r': 0.0, 'textcat_f': 0}}}",2
3,"{'performance': {'tp': 0.0, 'fp': 1e-08, 'fn': 6.00000001, 'tn': 163.0, 'tot': 6.00000001, 'eval': {'textcat_p': 0.0, 'textcat_r': 0.0, 'textcat_f': 0}}, 'compatibility': {'tp': 5.0, 'fp': 1.00000001, 'fn': 24.00000001, 'tn': 139.0, 'tot': 29.00000001, 'eval': {'textcat_p': 0.8333333319444445, 'textcat_r': 0.17241379304399523, 'textcat_f': 0.28571428555102035}}, 'usability': {'tp': 0.0, 'fp': 1e-08, 'fn': 11.00000001, 'tn': 158.0, 'tot': 11.00000001, 'eval': {'textcat_p': 0.0, 'textcat_r': 0.0, 'textcat_f': 0}}, 'reliability': {'tp': 0.0, 'fp': 1e-08, 'fn': 7.00000001, 'tn': 162.0, 'tot': 7.00000001, 'eval': {'textcat_p': 0.0, 'textcat_r': 0.0, 'textcat_f': 0}}, 'security': {'tp': 0.0, 'fp': 1e-08, 'fn': 19.00000001, 'tn': 150.0, 'tot': 19.00000001, 'eval': {'textcat_p': 0.0, 'textcat_r': 0.0, 'textcat_f': 0}}, 'maintainability': {'tp': 0.0, 'fp': 1e-08, 'fn': 15.00000001, 'tn': 154.0, 'tot': 15.00000001, 'eval': {'textcat_p': 0.0, 'textcat_r': 0.0, 'textcat_f': 0}}, 'portability': {'tp': 0.0, 'fp': 1e-08, 'fn': 12.00000001, 'tn': 157.0, 'tot': 12.00000001, 'eval': {'textcat_p': 0.0, 'textcat_r': 0.0, 'textcat_f': 0}}}",3
4,"{'performance': {'tp': 1.0, 'fp': 1e-08, 'fn': 5.00000001, 'tn': 163.0, 'tot': 6.00000001, 'eval': {'textcat_p': 0.9999999900000002, 'textcat_r': 0.16666666638888888, 'textcat_f': 0.2857142848979592}}, 'compatibility': {'tp': 5.0, 'fp': 3.00000001, 'fn': 24.00000001, 'tn': 137.0, 'tot': 29.00000001, 'eval': {'textcat_p': 0.6249999992187499, 'textcat_r': 0.17241379304399523, 'textcat_f': 0.27027027012417826}}, 'usability': {'tp': 0.0, 'fp': 1e-08, 'fn': 11.00000001, 'tn': 158.0, 'tot': 11.00000001, 'eval': {'textcat_p': 0.0, 'textcat_r': 0.0, 'textcat_f': 0}}, 'reliability': {'tp': 0.0, 'fp': 1e-08, 'fn': 7.00000001, 'tn': 162.0, 'tot': 7.00000001, 'eval': {'textcat_p': 0.0, 'textcat_r': 0.0, 'textcat_f': 0}}, 'security': {'tp': 0.0, 'fp': 1e-08, 'fn': 19.00000001, 'tn': 150.0, 'tot': 19.00000001, 'eval': {'textcat_p': 0.0, 'textcat_r': 0.0, 'textcat_f': 0}}, 'maintainability': {'tp': 1.0, 'fp': 1e-08, 'fn': 14.00000001, 'tn': 154.0, 'tot': 15.00000001, 'eval': {'textcat_p': 0.9999999900000002, 'textcat_r': 0.06666666662222222, 'textcat_f': 0.12499999984374999}}, 'portability': {'tp': 0.0, 'fp': 1e-08, 'fn': 12.00000001, 'tn': 157.0, 'tot': 12.00000001, 'eval': {'textcat_p': 0.0, 'textcat_r': 0.0, 'textcat_f': 0}}}",4
5,"{'performance': {'tp': 1.0, 'fp': 1e-08, 'fn': 5.00000001, 'tn': 163.0, 'tot': 6.00000001, 'eval': {'textcat_p': 0.9999999900000002, 'textcat_r': 0.16666666638888888, 'textcat_f': 0.2857142848979592}}, 'compatibility': {'tp': 5.0, 'fp': 3.00000001, 'fn': 24.00000001, 'tn': 137.0, 'tot': 29.00000001, 'eval': {'textcat_p': 0.6249999992187499, 'textcat_r': 0.17241379304399523, 'textcat_f': 0.27027027012417826}}, 'usability': {'tp': 0.0, 'fp': 1e-08, 'fn': 11.00000001, 'tn': 158.0, 'tot': 11.00000001, 'eval': {'textcat_p': 0.0, 'textcat_r': 0.0, 'textcat_f': 0}}, 'reliability': {'tp': 0.0, 'fp': 1e-08, 'fn': 7.00000001, 'tn': 162.0, 'tot': 7.00000001, 'eval': {'textcat_p': 0.0, 'textcat_r': 0.0, 'textcat_f': 0}}, 'security': {'tp': 1.0, 'fp': 1e-08, 'fn': 18.00000001, 'tn': 150.0, 'tot': 19.00000001, 'eval': {'textcat_p': 0.9999999900000002, 'textcat_r': 0.05263157891966759, 'textcat_f': 0.0999999999}}, 'maintainability': {'tp': 2.0, 'fp': 1e-08, 'fn': 13.00000001, 'tn': 154.0, 'tot': 15.00000001, 'eval': {'textcat_p': 0.999999995, 'textcat_r': 0.13333333324444444, 'textcat_f': 0.2352941173702422}}, 'portability': {'tp': 1.0, 'fp': 1e-08, 'fn': 11.00000001, 'tn': 157.0, 'tot': 12.00000001, 'eval': {'textcat_p': 0.9999999900000002, 'textcat_r': 0.08333333326388888, 'textcat_f': 0.15384615360946743}}}",5
6,"{'performance': {'tp': 1.0, 'fp': 1e-08, 'fn': 5.00000001, 'tn': 163.0, 'tot': 6.00000001, 'eval': {'textcat_p': 0.9999999900000002, 'textcat_r': 0.16666666638888888, 'textcat_f': 0.2857142848979592}}, 'compatibility': {'tp': 8.0, 'fp': 4.00000001, 'fn': 21.00000001, 'tn': 136.0, 'tot': 29.00000001, 'eval': {'textcat_p': 0.666666666111111, 'textcat_r': 0.2758620688703924, 'textcat_f': 0.39024390224866146}}, 'usability': {'tp': 0.0, 'fp': 1e-08, 'fn': 11.00000001, 'tn': 158.0, 'tot': 11.00000001, 'eval': {'textcat_p': 0.0, 'textcat_r': 0.0, 'textcat_f': 0}}, 'reliability': {'tp': 0.0, 'fp': 1e-08, 'fn': 7.00000001, 'tn': 162.0, 'tot': 7.00000001, 'eval': {'textcat_p': 0.0, 'textcat_r': 0.0, 'textcat_f': 0}}, 'security': {'tp': 1.0, 'fp': 1e-08, 'fn': 18.00000001, 'tn': 150.0, 'tot': 19.00000001, 'eval': {'textcat_p': 0.9999999900000002, 'textcat_r': 0.05263157891966759, 'textcat_f': 0.0999999999}}, 'maintainability': {'tp': 2.0, 'fp': 1e-08, 'fn': 13.00000001, 'tn': 154.0, 'tot': 15.00000001, 'eval': {'textcat_p': 0.999999995, 'textcat_r': 0.13333333324444444, 'textcat_f': 0.2352941173702422}}, 'portability': {'tp': 1.0, 'fp': 1e-08, 'fn': 11.00000001, 'tn': 157.0, 'tot': 12.00000001, 'eval': {'textcat_p': 0.9999999900000002, 'textcat_r': 0.08333333326388888, 'textcat_f': 0.15384615360946743}}}",6
7,"{'performance': {'tp': 1.0, 'fp': 1e-08, 'fn': 5.00000001, 'tn': 163.0, 'tot': 6.00000001, 'eval': {'textcat_p': 0.9999999900000002, 'textcat_r': 0.16666666638888888, 'textcat_f': 0.2857142848979592}}, 'compatibility': {'tp': 10.0, 'fp': 4.00000001, 'fn': 19.00000001, 'tn': 136.0, 'tot': 29.00000001, 'eval': {'textcat_p': 0.7142857137755102, 'textcat_r': 0.34482758608799047, 'textcat_f': 0.46511627885343426}}, 'usability': {'tp': 0.0, 'fp': 1e-08, 'fn': 11.00000001, 'tn': 158.0, 'tot': 11.00000001, 'eval': {'textcat_p': 0.0, 'textcat_r': 0.0, 'textcat_f': 0}}, 'reliability': {'tp': 0.0, 'fp': 1e-08, 'fn': 7.00000001, 'tn': 162.0, 'tot': 7.00000001, 'eval': {'textcat_p': 0.0, 'textcat_r': 0.0, 'textcat_f': 0}}, 'security': {'tp': 1.0, 'fp': 1e-08, 'fn': 18.00000001, 'tn': 150.0, 'tot': 19.00000001, 'eval': {'textcat_p': 0.9999999900000002, 'textcat_r': 0.05263157891966759, 'textcat_f': 0.0999999999}}, 'maintainability': {'tp': 2.0, 'fp': 1e-08, 'fn': 13.00000001, 'tn': 154.0, 'tot': 15.00000001, 'eval': {'textcat_p': 0.999999995, 'textcat_r': 0.13333333324444444, 'textcat_f': 0.2352941173702422}}, 'portability': {'tp': 1.0, 'fp': 1e-08, 'fn': 11.00000001, 'tn': 157.0, 'tot': 12.00000001, 'eval': {'textcat_p': 0.9999999900000002, 'textcat_r': 0.08333333326388888, 'textcat_f': 0.15384615360946743}}}",7
8,"{'performance': {'tp': 1.0, 'fp': 1e-08, 'fn': 5.00000001, 'tn': 163.0, 'tot': 6.00000001, 'eval': {'textcat_p': 0.9999999900000002, 'textcat_r': 0.16666666638888888, 'textcat_f': 0.2857142848979592}}, 'compatibility': {'tp': 11.0, 'fp': 4.00000001, 'fn': 18.00000001, 'tn': 136.0, 'tot': 29.00000001, 'eval': {'textcat_p': 0.7333333328444444, 'textcat_r': 0.37931034469678954, 'textcat_f': 0.49999999977272724}}, 'usability': {'tp': 0.0, 'fp': 1e-08, 'fn': 11.00000001, 'tn': 158.0, 'tot': 11.00000001, 'eval': {'textcat_p': 0.0, 'textcat_r': 0.0, 'textcat_f': 0}}, 'reliability': {'tp': 0.0, 'fp': 1e-08, 'fn': 7.00000001, 'tn': 162.0, 'tot': 7.00000001, 'eval': {'textcat_p': 0.0, 'textcat_r': 0.0, 'textcat_f': 0}}, 'security': {'tp': 4.0, 'fp': 1e-08, 'fn': 15.00000001, 'tn': 150.0, 'tot': 19.00000001, 'eval': {'textcat_p': 0.9999999975, 'textcat_r': 0.21052631567867036, 'textcat_f': 0.3478260866540643}}, 'maintainability': {'tp': 2.0, 'fp': 1e-08, 'fn': 13.00000001, 'tn': 154.0, 'tot': 15.00000001, 'eval': {'textcat_p': 0.999999995, 'textcat_r': 0.13333333324444444, 'textcat_f': 0.2352941173702422}}, 'portability': {'tp': 1.0, 'fp': 1e-08, 'fn': 11.00000001, 'tn': 157.0, 'tot': 12.00000001, 'eval': {'textcat_p': 0.9999999900000002, 'textcat_r': 0.08333333326388888, 'textcat_f': 0.15384615360946743}}}",8
9,"{'performance': {'tp': 1.0, 'fp': 1e-08, 'fn': 5.00000001, 'tn': 163.0, 'tot': 6.00000001, 'eval': {'textcat_p': 0.9999999900000002, 'textcat_r': 0.16666666638888888, 'textcat_f': 0.2857142848979592}}, 'compatibility': {'tp': 12.0, 'fp': 4.00000001, 'fn': 17.00000001, 'tn': 136.0, 'tot': 29.00000001, 'eval': {'textcat_p': 0.74999999953125, 'textcat_r': 0.41379310330558855, 'textcat_f': 0.5333333330962963}}, 'usability': {'tp': 0.0, 'fp': 1e-08, 'fn': 11.00000001, 'tn': 158.0, 'tot': 11.00000001, 'eval': {'textcat_p': 0.0, 'textcat_r': 0.0, 'textcat_f': 0}}, 'reliability': {'tp': 0.0, 'fp': 1e-08, 'fn': 7.00000001, 'tn': 162.0, 'tot': 7.00000001, 'eval': {'textcat_p': 0.0, 'textcat_r': 0.0, 'textcat_f': 0}}, 'security': {'tp': 8.0, 'fp': 1.00000001, 'fn': 11.00000001, 'tn': 149.0, 'tot': 19.00000001, 'eval': {'textcat_p': 0.8888888879012344, 'textcat_r': 0.4210526313573407, 'textcat_f': 0.5714285710204082}}, 'maintainability': {'tp': 3.0, 'fp': 1e-08, 'fn': 12.00000001, 'tn': 154.0, 'tot': 15.00000001, 'eval': {'textcat_p': 0.9999999966666667, 'textcat_r': 0.19999999986666667, 'textcat_f': 0.3333333329629629}}, 'portability': {'tp': 1.0, 'fp': 1e-08, 'fn': 11.00000001, 'tn': 157.0, 'tot': 12.00000001, 'eval': {'textcat_p': 0.9999999900000002, 'textcat_r': 0.08333333326388888, 'textcat_f': 0.15384615360946743}}}",9
10,"{'performance': {'tp': 1.0, 'fp': 1e-08, 'fn': 5.00000001, 'tn': 163.0, 'tot': 6.00000001, 'eval': {'textcat_p': 0.9999999900000002, 'textcat_r': 0.16666666638888888, 'textcat_f': 0.2857142848979592}}, 'compatibility': {'tp': 9.0, 'fp': 4.00000001, 'fn': 20.00000001, 'tn': 136.0, 'tot': 29.00000001, 'eval': {'textcat_p': 0.6923076917751478, 'textcat_r': 0.31034482747919145, 'textcat_f': 0.4285714283673469}}, 'usability': {'tp': 0.0, 'fp': 1e-08, 'fn': 11.00000001, 'tn': 158.0, 'tot': 11.00000001, 'eval': {'textcat_p': 0.0, 'textcat_r': 0.0, 'textcat_f': 0}}, 'reliability': {'tp': 0.0, 'fp': 1e-08, 'fn': 7.00000001, 'tn': 162.0, 'tot': 7.00000001, 'eval': {'textcat_p': 0.0, 'textcat_r': 0.0, 'textcat_f': 0}}, 'security': {'tp': 8.0, 'fp': 1.00000001, 'fn': 11.00000001, 'tn': 149.0, 'tot': 19.00000001, 'eval': {'textcat_p': 0.8888888879012344, 'textcat_r': 0.4210526313573407, 'textcat_f': 0.5714285710204082}}, 'maintainability': {'tp': 3.0, 'fp': 1e-08, 'fn': 12.00000001, 'tn': 154.0, 'tot': 15.00000001, 'eval': {'textcat_p': 0.9999999966666667, 'textcat_r': 0.19999999986666667, 'textcat_f': 0.3333333329629629}}, 'portability': {'tp': 1.0, 'fp': 1.00000001, 'fn': 11.00000001, 'tn': 156.0, 'tot': 12.00000001, 'eval': {'textcat_p': 0.4999999975, 'textcat_r': 0.08333333326388888, 'textcat_f': 0.1428571426530612}}}",10
11,"{'performance': {'tp': 1.0, 'fp': 1e-08, 'fn': 5.00000001, 'tn': 163.0, 'tot': 6.00000001, 'eval': {'textcat_p': 0.9999999900000002, 'textcat_r': 0.16666666638888888, 'textcat_f': 0.2857142848979592}}, 'compatibility': {'tp': 8.0, 'fp': 5.00000001, 'fn': 21.00000001, 'tn': 135.0, 'tot': 29.00000001, 'eval': {'textcat_p': 0.6153846149112425, 'textcat_r': 0.2758620688703924, 'textcat_f': 0.38095238077097504}}, 'usability': {'tp': 0.0, 'fp': 1.00000001, 'fn': 11.00000001, 'tn': 157.0, 'tot': 11.00000001, 'eval': {'textcat_p': 0.0, 'textcat_r': 0.0, 'textcat_f': 0}}, 'reliability': {'tp': 0.0, 'fp': 1e-08, 'fn': 7.00000001, 'tn': 162.0, 'tot': 7.00000001, 'eval': {'textcat_p': 0.0, 'textcat_r': 0.0, 'textcat_f': 0}}, 'security': {'tp': 9.0, 'fp': 3.00000001, 'fn': 10.00000001, 'tn': 147.0, 'tot': 19.00000001, 'eval': {'textcat_p': 0.749999999375, 'textcat_r': 0.4736842102770083, 'textcat_f': 0.5806451609157128}}, 'maintainability': {'tp': 3.0, 'fp': 1e-08, 'fn': 12.00000001, 'tn': 154.0, 'tot': 15.00000001, 'eval': {'textcat_p': 0.9999999966666667, 'textcat_r': 0.19999999986666667, 'textcat_f': 0.3333333329629629}}, 'portability': {'tp': 1.0, 'fp': 1.00000001, 'fn': 11.00000001, 'tn': 156.0, 'tot': 12.00000001, 'eval': {'textcat_p': 0.4999999975, 'textcat_r': 0.08333333326388888, 'textcat_f': 0.1428571426530612}}}",11
12,"{'performance': {'tp': 1.0, 'fp': 1e-08, 'fn': 5.00000001, 'tn': 163.0, 'tot': 6.00000001, 'eval': {'textcat_p': 0.9999999900000002, 'textcat_r': 0.16666666638888888, 'textcat_f': 0.2857142848979592}}, 'compatibility': {'tp': 9.0, 'fp': 5.00000001, 'fn': 20.00000001, 'tn': 135.0, 'tot': 29.00000001, 'eval': {'textcat_p': 0.6428571423979591, 'textcat_r': 0.31034482747919145, 'textcat_f': 0.41860465096809085}}, 'usability': {'tp': 0.0, 'fp': 2.00000001, 'fn': 11.00000001, 'tn': 156.0, 'tot': 11.00000001, 'eval': {'textcat_p': 0.0, 'textcat_r': 0.0, 'textcat_f': 0}}, 'reliability': {'tp': 0.0, 'fp': 1e-08, 'fn': 7.00000001, 'tn': 162.0, 'tot': 7.00000001, 'eval': {'textcat_p': 0.0, 'textcat_r': 0.0, 'textcat_f': 0}}, 'security': {'tp': 9.0, 'fp': 4.00000001, 'fn': 10.00000001, 'tn': 146.0, 'tot': 19.00000001, 'eval': {'textcat_p': 0.6923076917751478, 'textcat_r': 0.4736842102770083, 'textcat_f': 0.5624999996484376}}, 'maintainability': {'tp': 4.0, 'fp': 1e-08, 'fn': 11.00000001, 'tn': 154.0, 'tot': 15.00000001, 'eval': {'textcat_p': 0.9999999975, 'textcat_r': 0.26666666648888887, 'textcat_f': 0.42105263113573405}}, 'portability': {'tp': 1.0, 'fp': 1.00000001, 'fn': 11.00000001, 'tn': 156.0, 'tot': 12.00000001, 'eval': {'textcat_p': 0.4999999975, 'textcat_r': 0.08333333326388888, 'textcat_f': 0.1428571426530612}}}",12
13,"{'performance': {'tp': 1.0, 'fp': 1e-08, 'fn': 5.00000001, 'tn': 163.0, 'tot': 6.00000001, 'eval': {'textcat_p': 0.9999999900000002, 'textcat_r': 0.16666666638888888, 'textcat_f': 0.2857142848979592}}, 'compatibility': {'tp': 9.0, 'fp': 5.00000001, 'fn': 20.00000001, 'tn': 135.0, 'tot': 29.00000001, 'eval': {'textcat_p': 0.6428571423979591, 'textcat_r': 0.31034482747919145, 'textcat_f': 0.41860465096809085}}, 'usability': {'tp': 0.0, 'fp': 1.00000001, 'fn': 11.00000001, 'tn': 157.0, 'tot': 11.00000001, 'eval': {'textcat_p': 0.0, 'textcat_r': 0.0, 'textcat_f': 0}}, 'reliability': {'tp': 0.0, 'fp': 1e-08, 'fn': 7.00000001, 'tn': 162.0, 'tot': 7.00000001, 'eval': {'textcat_p': 0.0, 'textcat_r': 0.0, 'textcat_f': 0}}, 'security': {'tp': 8.0, 'fp': 3.00000001, 'fn': 11.00000001, 'tn': 147.0, 'tot': 19.00000001, 'eval': {'textcat_p': 0.7272727266115702, 'textcat_r': 0.4210526313573407, 'textcat_f': 0.5333333329777779}}, 'maintainability': {'tp': 4.0, 'fp': 1e-08, 'fn': 11.00000001, 'tn': 154.0, 'tot': 15.00000001, 'eval': {'textcat_p': 0.9999999975, 'textcat_r': 0.26666666648888887, 'textcat_f': 0.42105263113573405}}, 'portability': {'tp': 1.0, 'fp': 1.00000001, 'fn': 11.00000001, 'tn': 156.0, 'tot': 12.00000001, 'eval': {'textcat_p': 0.4999999975, 'textcat_r': 0.08333333326388888, 'textcat_f': 0.1428571426530612}}}",13
14,"{'performance': {'tp': 1.0, 'fp': 1e-08, 'fn': 5.00000001, 'tn': 163.0, 'tot': 6.00000001, 'eval': {'textcat_p': 0.9999999900000002, 'textcat_r': 0.16666666638888888, 'textcat_f': 0.2857142848979592}}, 'compatibility': {'tp': 9.0, 'fp': 6.00000001, 'fn': 20.00000001, 'tn': 134.0, 'tot': 29.00000001, 'eval': {'textcat_p': 0.5999999996, 'textcat_r': 0.31034482747919145, 'textcat_f': 0.4090909089049587}}, 'usability': {'tp': 0.0, 'fp': 1.00000001, 'fn': 11.00000001, 'tn': 157.0, 'tot': 11.00000001, 'eval': {'textcat_p': 0.0, 'textcat_r': 0.0, 'textcat_f': 0}}, 'reliability': {'tp': 0.0, 'fp': 1e-08, 'fn': 7.00000001, 'tn': 162.0, 'tot': 7.00000001, 'eval': {'textcat_p': 0.0, 'textcat_r': 0.0, 'textcat_f': 0}}, 'security': {'tp': 8.0, 'fp': 4.00000001, 'fn': 11.00000001, 'tn': 146.0, 'tot': 19.00000001, 'eval': {'textcat_p': 0.666666666111111, 'textcat_r': 0.4210526313573407, 'textcat_f': 0.516129031925078}}, 'maintainability': {'tp': 4.0, 'fp': 1.00000001, 'fn': 11.00000001, 'tn': 153.0, 'tot': 15.00000001, 'eval': {'textcat_p': 0.7999999984, 'textcat_r': 0.26666666648888887, 'textcat_f': 0.3999999996}}, 'portability': {'tp': 1.0, 'fp': 1.00000001, 'fn': 11.00000001, 'tn': 156.0, 'tot': 12.00000001, 'eval': {'textcat_p': 0.4999999975, 'textcat_r': 0.08333333326388888, 'textcat_f': 0.1428571426530612}}}",14
15,"{'performance': {'tp': 1.0, 'fp': 1e-08, 'fn': 5.00000001, 'tn': 163.0, 'tot': 6.00000001, 'eval': {'textcat_p': 0.9999999900000002, 'textcat_r': 0.16666666638888888, 'textcat_f': 0.2857142848979592}}, 'compatibility': {'tp': 9.0, 'fp': 5.00000001, 'fn': 20.00000001, 'tn': 135.0, 'tot': 29.00000001, 'eval': {'textcat_p': 0.6428571423979591, 'textcat_r': 0.31034482747919145, 'textcat_f': 0.41860465096809085}}, 'usability': {'tp': 0.0, 'fp': 1.00000001, 'fn': 11.00000001, 'tn': 157.0, 'tot': 11.00000001, 'eval': {'textcat_p': 0.0, 'textcat_r': 0.0, 'textcat_f': 0}}, 'reliability': {'tp': 0.0, 'fp': 1e-08, 'fn': 7.00000001, 'tn': 162.0, 'tot': 7.00000001, 'eval': {'textcat_p': 0.0, 'textcat_r': 0.0, 'textcat_f': 0}}, 'security': {'tp': 7.0, 'fp': 4.00000001, 'fn': 12.00000001, 'tn': 146.0, 'tot': 19.00000001, 'eval': {'textcat_p': 0.6363636357851239, 'textcat_r': 0.3684210524376731, 'textcat_f': 0.4666666663555556}}, 'maintainability': {'tp': 4.0, 'fp': 1.00000001, 'fn': 11.00000001, 'tn': 153.0, 'tot': 15.00000001, 'eval': {'textcat_p': 0.7999999984, 'textcat_r': 0.26666666648888887, 'textcat_f': 0.3999999996}}, 'portability': {'tp': 1.0, 'fp': 1.00000001, 'fn': 11.00000001, 'tn': 156.0, 'tot': 12.00000001, 'eval': {'textcat_p': 0.4999999975, 'textcat_r': 0.08333333326388888, 'textcat_f': 0.1428571426530612}}}",15
16,"{'performance': {'tp': 1.0, 'fp': 1e-08, 'fn': 5.00000001, 'tn': 163.0, 'tot': 6.00000001, 'eval': {'textcat_p': 0.9999999900000002, 'textcat_r': 0.16666666638888888, 'textcat_f': 0.2857142848979592}}, 'compatibility': {'tp': 9.0, 'fp': 4.00000001, 'fn': 20.00000001, 'tn': 136.0, 'tot': 29.00000001, 'eval': {'textcat_p': 0.6923076917751478, 'textcat_r': 0.31034482747919145, 'textcat_f': 0.4285714283673469}}, 'usability': {'tp': 0.0, 'fp': 2.00000001, 'fn': 11.00000001, 'tn': 156.0, 'tot': 11.00000001, 'eval': {'textcat_p': 0.0, 'textcat_r': 0.0, 'textcat_f': 0}}, 'reliability': {'tp': 0.0, 'fp': 1e-08, 'fn': 7.00000001, 'tn': 162.0, 'tot': 7.00000001, 'eval': {'textcat_p': 0.0, 'textcat_r': 0.0, 'textcat_f': 0}}, 'security': {'tp': 8.0, 'fp': 5.00000001, 'fn': 11.00000001, 'tn': 145.0, 'tot': 19.00000001, 'eval': {'textcat_p': 0.6153846149112425, 'textcat_r': 0.4210526313573407, 'textcat_f': 0.49999999968750003}}, 'maintainability': {'tp': 4.0, 'fp': 1.00000001, 'fn': 11.00000001, 'tn': 153.0, 'tot': 15.00000001, 'eval': {'textcat_p': 0.7999999984, 'textcat_r': 0.26666666648888887, 'textcat_f': 0.3999999996}}, 'portability': {'tp': 1.0, 'fp': 1.00000001, 'fn': 11.00000001, 'tn': 156.0, 'tot': 12.00000001, 'eval': {'textcat_p': 0.4999999975, 'textcat_r': 0.08333333326388888, 'textcat_f': 0.1428571426530612}}}",16
17,"{'performance': {'tp': 1.0, 'fp': 1e-08, 'fn': 5.00000001, 'tn': 163.0, 'tot': 6.00000001, 'eval': {'textcat_p': 0.9999999900000002, 'textcat_r': 0.16666666638888888, 'textcat_f': 0.2857142848979592}}, 'compatibility': {'tp': 9.0, 'fp': 4.00000001, 'fn': 20.00000001, 'tn': 136.0, 'tot': 29.00000001, 'eval': {'textcat_p': 0.6923076917751478, 'textcat_r': 0.31034482747919145, 'textcat_f': 0.4285714283673469}}, 'usability': {'tp': 0.0, 'fp': 2.00000001, 'fn': 11.00000001, 'tn': 156.0, 'tot': 11.00000001, 'eval': {'textcat_p': 0.0, 'textcat_r': 0.0, 'textcat_f': 0}}, 'reliability': {'tp': 0.0, 'fp': 1e-08, 'fn': 7.00000001, 'tn': 162.0, 'tot': 7.00000001, 'eval': {'textcat_p': 0.0, 'textcat_r': 0.0, 'textcat_f': 0}}, 'security': {'tp': 8.0, 'fp': 5.00000001, 'fn': 11.00000001, 'tn': 145.0, 'tot': 19.00000001, 'eval': {'textcat_p': 0.6153846149112425, 'textcat_r': 0.4210526313573407, 'textcat_f': 0.49999999968750003}}, 'maintainability': {'tp': 4.0, 'fp': 1.00000001, 'fn': 11.00000001, 'tn': 153.0, 'tot': 15.00000001, 'eval': {'textcat_p': 0.7999999984, 'textcat_r': 0.26666666648888887, 'textcat_f': 0.3999999996}}, 'portability': {'tp': 1.0, 'fp': 1.00000001, 'fn': 11.00000001, 'tn': 156.0, 'tot': 12.00000001, 'eval': {'textcat_p': 0.4999999975, 'textcat_r': 0.08333333326388888, 'textcat_f': 0.1428571426530612}}}",17
18,"{'performance': {'tp': 1.0, 'fp': 1e-08, 'fn': 5.00000001, 'tn': 163.0, 'tot': 6.00000001, 'eval': {'textcat_p': 0.9999999900000002, 'textcat_r': 0.16666666638888888, 'textcat_f': 0.2857142848979592}}, 'compatibility': {'tp': 9.0, 'fp': 4.00000001, 'fn': 20.00000001, 'tn': 136.0, 'tot': 29.00000001, 'eval': {'textcat_p': 0.6923076917751478, 'textcat_r': 0.31034482747919145, 'textcat_f': 0.4285714283673469}}, 'usability': {'tp': 0.0, 'fp': 2.00000001, 'fn': 11.00000001, 'tn': 156.0, 'tot': 11.00000001, 'eval': {'textcat_p': 0.0, 'textcat_r': 0.0, 'textcat_f': 0}}, 'reliability': {'tp': 0.0, 'fp': 1e-08, 'fn': 7.00000001, 'tn': 162.0, 'tot': 7.00000001, 'eval': {'textcat_p': 0.0, 'textcat_r': 0.0, 'textcat_f': 0}}, 'security': {'tp': 8.0, 'fp': 4.00000001, 'fn': 11.00000001, 'tn': 146.0, 'tot': 19.00000001, 'eval': {'textcat_p': 0.666666666111111, 'textcat_r': 0.4210526313573407, 'textcat_f': 0.516129031925078}}, 'maintainability': {'tp': 4.0, 'fp': 1.00000001, 'fn': 11.00000001, 'tn': 153.0, 'tot': 15.00000001, 'eval': {'textcat_p': 0.7999999984, 'textcat_r': 0.26666666648888887, 'textcat_f': 0.3999999996}}, 'portability': {'tp': 1.0, 'fp': 1.00000001, 'fn': 11.00000001, 'tn': 156.0, 'tot': 12.00000001, 'eval': {'textcat_p': 0.4999999975, 'textcat_r': 0.08333333326388888, 'textcat_f': 0.1428571426530612}}}",18
19,"{'performance': {'tp': 1.0, 'fp': 1e-08, 'fn': 5.00000001, 'tn': 163.0, 'tot': 6.00000001, 'eval': {'textcat_p': 0.9999999900000002, 'textcat_r': 0.16666666638888888, 'textcat_f': 0.2857142848979592}}, 'compatibility': {'tp': 10.0, 'fp': 4.00000001, 'fn': 19.00000001, 'tn': 136.0, 'tot': 29.00000001, 'eval': {'textcat_p': 0.7142857137755102, 'textcat_r': 0.34482758608799047, 'textcat_f': 0.46511627885343426}}, 'usability': {'tp': 0.0, 'fp': 2.00000001, 'fn': 11.00000001, 'tn': 156.0, 'tot': 11.00000001, 'eval': {'textcat_p': 0.0, 'textcat_r': 0.0, 'textcat_f': 0}}, 'reliability': {'tp': 0.0, 'fp': 1e-08, 'fn': 7.00000001, 'tn': 162.0, 'tot': 7.00000001, 'eval': {'textcat_p': 0.0, 'textcat_r': 0.0, 'textcat_f': 0}}, 'security': {'tp': 7.0, 'fp': 5.00000001, 'fn': 12.00000001, 'tn': 145.0, 'tot': 19.00000001, 'eval': {'textcat_p': 0.5833333328472222, 'textcat_r': 0.3684210524376731, 'textcat_f': 0.4516129029344433}}, 'maintainability': {'tp': 4.0, 'fp': 1e-08, 'fn': 11.00000001, 'tn': 154.0, 'tot': 15.00000001, 'eval': {'textcat_p': 0.9999999975, 'textcat_r': 0.26666666648888887, 'textcat_f': 0.42105263113573405}}, 'portability': {'tp': 1.0, 'fp': 1.00000001, 'fn': 11.00000001, 'tn': 156.0, 'tot': 12.00000001, 'eval': {'textcat_p': 0.4999999975, 'textcat_r': 0.08333333326388888, 'textcat_f': 0.1428571426530612}}}",19
20,"{'performance': {'tp': 1.0, 'fp': 1e-08, 'fn': 5.00000001, 'tn': 163.0, 'tot': 6.00000001, 'eval': {'textcat_p': 0.9999999900000002, 'textcat_r': 0.16666666638888888, 'textcat_f': 0.2857142848979592}}, 'compatibility': {'tp': 10.0, 'fp': 4.00000001, 'fn': 19.00000001, 'tn': 136.0, 'tot': 29.00000001, 'eval': {'textcat_p': 0.7142857137755102, 'textcat_r': 0.34482758608799047, 'textcat_f': 0.46511627885343426}}, 'usability': {'tp': 0.0, 'fp': 2.00000001, 'fn': 11.00000001, 'tn': 156.0, 'tot': 11.00000001, 'eval': {'textcat_p': 0.0, 'textcat_r': 0.0, 'textcat_f': 0}}, 'reliability': {'tp': 0.0, 'fp': 1e-08, 'fn': 7.00000001, 'tn': 162.0, 'tot': 7.00000001, 'eval': {'textcat_p': 0.0, 'textcat_r': 0.0, 'textcat_f': 0}}, 'security': {'tp': 7.0, 'fp': 4.00000001, 'fn': 12.00000001, 'tn': 146.0, 'tot': 19.00000001, 'eval': {'textcat_p': 0.6363636357851239, 'textcat_r': 0.3684210524376731, 'textcat_f': 0.4666666663555556}}, 'maintainability': {'tp': 4.0, 'fp': 1e-08, 'fn': 11.00000001, 'tn': 154.0, 'tot': 15.00000001, 'eval': {'textcat_p': 0.9999999975, 'textcat_r': 0.26666666648888887, 'textcat_f': 0.42105263113573405}}, 'portability': {'tp': 1.0, 'fp': 1.00000001, 'fn': 11.00000001, 'tn': 156.0, 'tot': 12.00000001, 'eval': {'textcat_p': 0.4999999975, 'textcat_r': 0.08333333326388888, 'textcat_f': 0.1428571426530612}}}",20
21,"{'performance': {'tp': 1.0, 'fp': 1e-08, 'fn': 5.00000001, 'tn': 163.0, 'tot': 6.00000001, 'eval': {'textcat_p': 0.9999999900000002, 'textcat_r': 0.16666666638888888, 'textcat_f': 0.2857142848979592}}, 'compatibility': {'tp': 11.0, 'fp': 4.00000001, 'fn': 18.00000001, 'tn': 136.0, 'tot': 29.00000001, 'eval': {'textcat_p': 0.7333333328444444, 'textcat_r': 0.37931034469678954, 'textcat_f': 0.49999999977272724}}, 'usability': {'tp': 0.0, 'fp': 1.00000001, 'fn': 11.00000001, 'tn': 157.0, 'tot': 11.00000001, 'eval': {'textcat_p': 0.0, 'textcat_r': 0.0, 'textcat_f': 0}}, 'reliability': {'tp': 0.0, 'fp': 1e-08, 'fn': 7.00000001, 'tn': 162.0, 'tot': 7.00000001, 'eval': {'textcat_p': 0.0, 'textcat_r': 0.0, 'textcat_f': 0}}, 'security': {'tp': 6.0, 'fp': 4.00000001, 'fn': 13.00000001, 'tn': 146.0, 'tot': 19.00000001, 'eval': {'textcat_p': 0.5999999993999999, 'textcat_r': 0.3157894735180055, 'textcat_f': 0.4137931031629013}}, 'maintainability': {'tp': 4.0, 'fp': 1e-08, 'fn': 11.00000001, 'tn': 154.0, 'tot': 15.00000001, 'eval': {'textcat_p': 0.9999999975, 'textcat_r': 0.26666666648888887, 'textcat_f': 0.42105263113573405}}, 'portability': {'tp': 1.0, 'fp': 1.00000001, 'fn': 11.00000001, 'tn': 156.0, 'tot': 12.00000001, 'eval': {'textcat_p': 0.4999999975, 'textcat_r': 0.08333333326388888, 'textcat_f': 0.1428571426530612}}}",21
22,"{'performance': {'tp': 1.0, 'fp': 1e-08, 'fn': 5.00000001, 'tn': 163.0, 'tot': 6.00000001, 'eval': {'textcat_p': 0.9999999900000002, 'textcat_r': 0.16666666638888888, 'textcat_f': 0.2857142848979592}}, 'compatibility': {'tp': 11.0, 'fp': 4.00000001, 'fn': 18.00000001, 'tn': 136.0, 'tot': 29.00000001, 'eval': {'textcat_p': 0.7333333328444444, 'textcat_r': 0.37931034469678954, 'textcat_f': 0.49999999977272724}}, 'usability': {'tp': 0.0, 'fp': 1.00000001, 'fn': 11.00000001, 'tn': 157.0, 'tot': 11.00000001, 'eval': {'textcat_p': 0.0, 'textcat_r': 0.0, 'textcat_f': 0}}, 'reliability': {'tp': 0.0, 'fp': 1e-08, 'fn': 7.00000001, 'tn': 162.0, 'tot': 7.00000001, 'eval': {'textcat_p': 0.0, 'textcat_r': 0.0, 'textcat_f': 0}}, 'security': {'tp': 6.0, 'fp': 4.00000001, 'fn': 13.00000001, 'tn': 146.0, 'tot': 19.00000001, 'eval': {'textcat_p': 0.5999999993999999, 'textcat_r': 0.3157894735180055, 'textcat_f': 0.4137931031629013}}, 'maintainability': {'tp': 4.0, 'fp': 1e-08, 'fn': 11.00000001, 'tn': 154.0, 'tot': 15.00000001, 'eval': {'textcat_p': 0.9999999975, 'textcat_r': 0.26666666648888887, 'textcat_f': 0.42105263113573405}}, 'portability': {'tp': 1.0, 'fp': 1.00000001, 'fn': 11.00000001, 'tn': 156.0, 'tot': 12.00000001, 'eval': {'textcat_p': 0.4999999975, 'textcat_r': 0.08333333326388888, 'textcat_f': 0.1428571426530612}}}",22
23,"{'performance': {'tp': 1.0, 'fp': 1e-08, 'fn': 5.00000001, 'tn': 163.0, 'tot': 6.00000001, 'eval': {'textcat_p': 0.9999999900000002, 'textcat_r': 0.16666666638888888, 'textcat_f': 0.2857142848979592}}, 'compatibility': {'tp': 12.0, 'fp': 4.00000001, 'fn': 17.00000001, 'tn': 136.0, 'tot': 29.00000001, 'eval': {'textcat_p': 0.74999999953125, 'textcat_r': 0.41379310330558855, 'textcat_f': 0.5333333330962963}}, 'usability': {'tp': 0.0, 'fp': 2.00000001, 'fn': 11.00000001, 'tn': 156.0, 'tot': 11.00000001, 'eval': {'textcat_p': 0.0, 'textcat_r': 0.0, 'textcat_f': 0}}, 'reliability': {'tp': 0.0, 'fp': 1e-08, 'fn': 7.00000001, 'tn': 162.0, 'tot': 7.00000001, 'eval': {'textcat_p': 0.0, 'textcat_r': 0.0, 'textcat_f': 0}}, 'security': {'tp': 6.0, 'fp': 4.00000001, 'fn': 13.00000001, 'tn': 146.0, 'tot': 19.00000001, 'eval': {'textcat_p': 0.5999999993999999, 'textcat_r': 0.3157894735180055, 'textcat_f': 0.4137931031629013}}, 'maintainability': {'tp': 4.0, 'fp': 1e-08, 'fn': 11.00000001, 'tn': 154.0, 'tot': 15.00000001, 'eval': {'textcat_p': 0.9999999975, 'textcat_r': 0.26666666648888887, 'textcat_f': 0.42105263113573405}}, 'portability': {'tp': 1.0, 'fp': 1.00000001, 'fn': 11.00000001, 'tn': 156.0, 'tot': 12.00000001, 'eval': {'textcat_p': 0.4999999975, 'textcat_r': 0.08333333326388888, 'textcat_f': 0.1428571426530612}}}",23
24,"{'performance': {'tp': 1.0, 'fp': 1e-08, 'fn': 5.00000001, 'tn': 163.0, 'tot': 6.00000001, 'eval': {'textcat_p': 0.9999999900000002, 'textcat_r': 0.16666666638888888, 'textcat_f': 0.2857142848979592}}, 'compatibility': {'tp': 11.0, 'fp': 4.00000001, 'fn': 18.00000001, 'tn': 136.0, 'tot': 29.00000001, 'eval': {'textcat_p': 0.7333333328444444, 'textcat_r': 0.37931034469678954, 'textcat_f': 0.49999999977272724}}, 'usability': {'tp': 0.0, 'fp': 2.00000001, 'fn': 11.00000001, 'tn': 156.0, 'tot': 11.00000001, 'eval': {'textcat_p': 0.0, 'textcat_r': 0.0, 'textcat_f': 0}}, 'reliability': {'tp': 0.0, 'fp': 1e-08, 'fn': 7.00000001, 'tn': 162.0, 'tot': 7.00000001, 'eval': {'textcat_p': 0.0, 'textcat_r': 0.0, 'textcat_f': 0}}, 'security': {'tp': 6.0, 'fp': 4.00000001, 'fn': 13.00000001, 'tn': 146.0, 'tot': 19.00000001, 'eval': {'textcat_p': 0.5999999993999999, 'textcat_r': 0.3157894735180055, 'textcat_f': 0.4137931031629013}}, 'maintainability': {'tp': 4.0, 'fp': 1e-08, 'fn': 11.00000001, 'tn': 154.0, 'tot': 15.00000001, 'eval': {'textcat_p': 0.9999999975, 'textcat_r': 0.26666666648888887, 'textcat_f': 0.42105263113573405}}, 'portability': {'tp': 1.0, 'fp': 1.00000001, 'fn': 11.00000001, 'tn': 156.0, 'tot': 12.00000001, 'eval': {'textcat_p': 0.4999999975, 'textcat_r': 0.08333333326388888, 'textcat_f': 0.1428571426530612}}}",24
25,"{'performance': {'tp': 1.0, 'fp': 1e-08, 'fn': 5.00000001, 'tn': 163.0, 'tot': 6.00000001, 'eval': {'textcat_p': 0.9999999900000002, 'textcat_r': 0.16666666638888888, 'textcat_f': 0.2857142848979592}}, 'compatibility': {'tp': 11.0, 'fp': 4.00000001, 'fn': 18.00000001, 'tn': 136.0, 'tot': 29.00000001, 'eval': {'textcat_p': 0.7333333328444444, 'textcat_r': 0.37931034469678954, 'textcat_f': 0.49999999977272724}}, 'usability': {'tp': 0.0, 'fp': 2.00000001, 'fn': 11.00000001, 'tn': 156.0, 'tot': 11.00000001, 'eval': {'textcat_p': 0.0, 'textcat_r': 0.0, 'textcat_f': 0}}, 'reliability': {'tp': 0.0, 'fp': 1e-08, 'fn': 7.00000001, 'tn': 162.0, 'tot': 7.00000001, 'eval': {'textcat_p': 0.0, 'textcat_r': 0.0, 'textcat_f': 0}}, 'security': {'tp': 7.0, 'fp': 4.00000001, 'fn': 12.00000001, 'tn': 146.0, 'tot': 19.00000001, 'eval': {'textcat_p': 0.6363636357851239, 'textcat_r': 0.3684210524376731, 'textcat_f': 0.4666666663555556}}, 'maintainability': {'tp': 4.0, 'fp': 1e-08, 'fn': 11.00000001, 'tn': 154.0, 'tot': 15.00000001, 'eval': {'textcat_p': 0.9999999975, 'textcat_r': 0.26666666648888887, 'textcat_f': 0.42105263113573405}}, 'portability': {'tp': 1.0, 'fp': 1.00000001, 'fn': 11.00000001, 'tn': 156.0, 'tot': 12.00000001, 'eval': {'textcat_p': 0.4999999975, 'textcat_r': 0.08333333326388888, 'textcat_f': 0.1428571426530612}}}",25
26,"{'performance': {'tp': 1.0, 'fp': 1e-08, 'fn': 5.00000001, 'tn': 163.0, 'tot': 6.00000001, 'eval': {'textcat_p': 0.9999999900000002, 'textcat_r': 0.16666666638888888, 'textcat_f': 0.2857142848979592}}, 'compatibility': {'tp': 12.0, 'fp': 4.00000001, 'fn': 17.00000001, 'tn': 136.0, 'tot': 29.00000001, 'eval': {'textcat_p': 0.74999999953125, 'textcat_r': 0.41379310330558855, 'textcat_f': 0.5333333330962963}}, 'usability': {'tp': 0.0, 'fp': 2.00000001, 'fn': 11.00000001, 'tn': 156.0, 'tot': 11.00000001, 'eval': {'textcat_p': 0.0, 'textcat_r': 0.0, 'textcat_f': 0}}, 'reliability': {'tp': 0.0, 'fp': 1e-08, 'fn': 7.00000001, 'tn': 162.0, 'tot': 7.00000001, 'eval': {'textcat_p': 0.0, 'textcat_r': 0.0, 'textcat_f': 0}}, 'security': {'tp': 6.0, 'fp': 3.00000001, 'fn': 13.00000001, 'tn': 147.0, 'tot': 19.00000001, 'eval': {'textcat_p': 0.6666666659259258, 'textcat_r': 0.3157894735180055, 'textcat_f': 0.4285714282653061}}, 'maintainability': {'tp': 4.0, 'fp': 1e-08, 'fn': 11.00000001, 'tn': 154.0, 'tot': 15.00000001, 'eval': {'textcat_p': 0.9999999975, 'textcat_r': 0.26666666648888887, 'textcat_f': 0.42105263113573405}}, 'portability': {'tp': 1.0, 'fp': 1.00000001, 'fn': 11.00000001, 'tn': 156.0, 'tot': 12.00000001, 'eval': {'textcat_p': 0.4999999975, 'textcat_r': 0.08333333326388888, 'textcat_f': 0.1428571426530612}}}",26
27,"{'performance': {'tp': 1.0, 'fp': 1e-08, 'fn': 5.00000001, 'tn': 163.0, 'tot': 6.00000001, 'eval': {'textcat_p': 0.9999999900000002, 'textcat_r': 0.16666666638888888, 'textcat_f': 0.2857142848979592}}, 'compatibility': {'tp': 12.0, 'fp': 4.00000001, 'fn': 17.00000001, 'tn': 136.0, 'tot': 29.00000001, 'eval': {'textcat_p': 0.74999999953125, 'textcat_r': 0.41379310330558855, 'textcat_f': 0.5333333330962963}}, 'usability': {'tp': 0.0, 'fp': 1.00000001, 'fn': 11.00000001, 'tn': 157.0, 'tot': 11.00000001, 'eval': {'textcat_p': 0.0, 'textcat_r': 0.0, 'textcat_f': 0}}, 'reliability': {'tp': 0.0, 'fp': 1e-08, 'fn': 7.00000001, 'tn': 162.0, 'tot': 7.00000001, 'eval': {'textcat_p': 0.0, 'textcat_r': 0.0, 'textcat_f': 0}}, 'security': {'tp': 6.0, 'fp': 3.00000001, 'fn': 13.00000001, 'tn': 147.0, 'tot': 19.00000001, 'eval': {'textcat_p': 0.6666666659259258, 'textcat_r': 0.3157894735180055, 'textcat_f': 0.4285714282653061}}, 'maintainability': {'tp': 4.0, 'fp': 1e-08, 'fn': 11.00000001, 'tn': 154.0, 'tot': 15.00000001, 'eval': {'textcat_p': 0.9999999975, 'textcat_r': 0.26666666648888887, 'textcat_f': 0.42105263113573405}}, 'portability': {'tp': 1.0, 'fp': 1.00000001, 'fn': 11.00000001, 'tn': 156.0, 'tot': 12.00000001, 'eval': {'textcat_p': 0.4999999975, 'textcat_r': 0.08333333326388888, 'textcat_f': 0.1428571426530612}}}",27
28,"{'performance': {'tp': 1.0, 'fp': 1e-08, 'fn': 5.00000001, 'tn': 163.0, 'tot': 6.00000001, 'eval': {'textcat_p': 0.9999999900000002, 'textcat_r': 0.16666666638888888, 'textcat_f': 0.2857142848979592}}, 'compatibility': {'tp': 12.0, 'fp': 4.00000001, 'fn': 17.00000001, 'tn': 136.0, 'tot': 29.00000001, 'eval': {'textcat_p': 0.74999999953125, 'textcat_r': 0.41379310330558855, 'textcat_f': 0.5333333330962963}}, 'usability': {'tp': 0.0, 'fp': 1.00000001, 'fn': 11.00000001, 'tn': 157.0, 'tot': 11.00000001, 'eval': {'textcat_p': 0.0, 'textcat_r': 0.0, 'textcat_f': 0}}, 'reliability': {'tp': 0.0, 'fp': 1e-08, 'fn': 7.00000001, 'tn': 162.0, 'tot': 7.00000001, 'eval': {'textcat_p': 0.0, 'textcat_r': 0.0, 'textcat_f': 0}}, 'security': {'tp': 6.0, 'fp': 2.00000001, 'fn': 13.00000001, 'tn': 148.0, 'tot': 19.00000001, 'eval': {'textcat_p': 0.7499999990624999, 'textcat_r': 0.3157894735180055, 'textcat_f': 0.44444444411522627}}, 'maintainability': {'tp': 4.0, 'fp': 1e-08, 'fn': 11.00000001, 'tn': 154.0, 'tot': 15.00000001, 'eval': {'textcat_p': 0.9999999975, 'textcat_r': 0.26666666648888887, 'textcat_f': 0.42105263113573405}}, 'portability': {'tp': 1.0, 'fp': 1.00000001, 'fn': 11.00000001, 'tn': 156.0, 'tot': 12.00000001, 'eval': {'textcat_p': 0.4999999975, 'textcat_r': 0.08333333326388888, 'textcat_f': 0.1428571426530612}}}",28
29,"{'performance': {'tp': 1.0, 'fp': 1e-08, 'fn': 5.00000001, 'tn': 163.0, 'tot': 6.00000001, 'eval': {'textcat_p': 0.9999999900000002, 'textcat_r': 0.16666666638888888, 'textcat_f': 0.2857142848979592}}, 'compatibility': {'tp': 13.0, 'fp': 4.00000001, 'fn': 16.00000001, 'tn': 136.0, 'tot': 29.00000001, 'eval': {'textcat_p': 0.7647058819031142, 'textcat_r': 0.4482758619143876, 'textcat_f': 0.5652173910586011}}, 'usability': {'tp': 0.0, 'fp': 1.00000001, 'fn': 11.00000001, 'tn': 157.0, 'tot': 11.00000001, 'eval': {'textcat_p': 0.0, 'textcat_r': 0.0, 'textcat_f': 0}}, 'reliability': {'tp': 0.0, 'fp': 1e-08, 'fn': 7.00000001, 'tn': 162.0, 'tot': 7.00000001, 'eval': {'textcat_p': 0.0, 'textcat_r': 0.0, 'textcat_f': 0}}, 'security': {'tp': 6.0, 'fp': 2.00000001, 'fn': 13.00000001, 'tn': 148.0, 'tot': 19.00000001, 'eval': {'textcat_p': 0.7499999990624999, 'textcat_r': 0.3157894735180055, 'textcat_f': 0.44444444411522627}}, 'maintainability': {'tp': 4.0, 'fp': 1e-08, 'fn': 11.00000001, 'tn': 154.0, 'tot': 15.00000001, 'eval': {'textcat_p': 0.9999999975, 'textcat_r': 0.26666666648888887, 'textcat_f': 0.42105263113573405}}, 'portability': {'tp': 1.0, 'fp': 1.00000001, 'fn': 11.00000001, 'tn': 156.0, 'tot': 12.00000001, 'eval': {'textcat_p': 0.4999999975, 'textcat_r': 0.08333333326388888, 'textcat_f': 0.1428571426530612}}}",29
30,"{'performance': {'tp': 1.0, 'fp': 1e-08, 'fn': 5.00000001, 'tn': 163.0, 'tot': 6.00000001, 'eval': {'textcat_p': 0.9999999900000002, 'textcat_r': 0.16666666638888888, 'textcat_f': 0.2857142848979592}}, 'compatibility': {'tp': 13.0, 'fp': 4.00000001, 'fn': 16.00000001, 'tn': 136.0, 'tot': 29.00000001, 'eval': {'textcat_p': 0.7647058819031142, 'textcat_r': 0.4482758619143876, 'textcat_f': 0.5652173910586011}}, 'usability': {'tp': 0.0, 'fp': 1.00000001, 'fn': 11.00000001, 'tn': 157.0, 'tot': 11.00000001, 'eval': {'textcat_p': 0.0, 'textcat_r': 0.0, 'textcat_f': 0}}, 'reliability': {'tp': 0.0, 'fp': 1e-08, 'fn': 7.00000001, 'tn': 162.0, 'tot': 7.00000001, 'eval': {'textcat_p': 0.0, 'textcat_r': 0.0, 'textcat_f': 0}}, 'security': {'tp': 6.0, 'fp': 2.00000001, 'fn': 13.00000001, 'tn': 148.0, 'tot': 19.00000001, 'eval': {'textcat_p': 0.7499999990624999, 'textcat_r': 0.3157894735180055, 'textcat_f': 0.44444444411522627}}, 'maintainability': {'tp': 4.0, 'fp': 1e-08, 'fn': 11.00000001, 'tn': 154.0, 'tot': 15.00000001, 'eval': {'textcat_p': 0.9999999975, 'textcat_r': 0.26666666648888887, 'textcat_f': 0.42105263113573405}}, 'portability': {'tp': 1.0, 'fp': 1.00000001, 'fn': 11.00000001, 'tn': 156.0, 'tot': 12.00000001, 'eval': {'textcat_p': 0.4999999975, 'textcat_r': 0.08333333326388888, 'textcat_f': 0.1428571426530612}}}",30
31,"{'performance': {'tp': 1.0, 'fp': 1e-08, 'fn': 5.00000001, 'tn': 163.0, 'tot': 6.00000001, 'eval': {'textcat_p': 0.9999999900000002, 'textcat_r': 0.16666666638888888, 'textcat_f': 0.2857142848979592}}, 'compatibility': {'tp': 13.0, 'fp': 4.00000001, 'fn': 16.00000001, 'tn': 136.0, 'tot': 29.00000001, 'eval': {'textcat_p': 0.7647058819031142, 'textcat_r': 0.4482758619143876, 'textcat_f': 0.5652173910586011}}, 'usability': {'tp': 0.0, 'fp': 1.00000001, 'fn': 11.00000001, 'tn': 157.0, 'tot': 11.00000001, 'eval': {'textcat_p': 0.0, 'textcat_r': 0.0, 'textcat_f': 0}}, 'reliability': {'tp': 0.0, 'fp': 1e-08, 'fn': 7.00000001, 'tn': 162.0, 'tot': 7.00000001, 'eval': {'textcat_p': 0.0, 'textcat_r': 0.0, 'textcat_f': 0}}, 'security': {'tp': 7.0, 'fp': 2.00000001, 'fn': 12.00000001, 'tn': 148.0, 'tot': 19.00000001, 'eval': {'textcat_p': 0.7777777769135802, 'textcat_r': 0.3684210524376731, 'textcat_f': 0.49999999964285713}}, 'maintainability': {'tp': 4.0, 'fp': 1e-08, 'fn': 11.00000001, 'tn': 154.0, 'tot': 15.00000001, 'eval': {'textcat_p': 0.9999999975, 'textcat_r': 0.26666666648888887, 'textcat_f': 0.42105263113573405}}, 'portability': {'tp': 1.0, 'fp': 1.00000001, 'fn': 11.00000001, 'tn': 156.0, 'tot': 12.00000001, 'eval': {'textcat_p': 0.4999999975, 'textcat_r': 0.08333333326388888, 'textcat_f': 0.1428571426530612}}}",31
32,"{'performance': {'tp': 1.0, 'fp': 1e-08, 'fn': 5.00000001, 'tn': 163.0, 'tot': 6.00000001, 'eval': {'textcat_p': 0.9999999900000002, 'textcat_r': 0.16666666638888888, 'textcat_f': 0.2857142848979592}}, 'compatibility': {'tp': 13.0, 'fp': 4.00000001, 'fn': 16.00000001, 'tn': 136.0, 'tot': 29.00000001, 'eval': {'textcat_p': 0.7647058819031142, 'textcat_r': 0.4482758619143876, 'textcat_f': 0.5652173910586011}}, 'usability': {'tp': 0.0, 'fp': 1.00000001, 'fn': 11.00000001, 'tn': 157.0, 'tot': 11.00000001, 'eval': {'textcat_p': 0.0, 'textcat_r': 0.0, 'textcat_f': 0}}, 'reliability': {'tp': 0.0, 'fp': 1e-08, 'fn': 7.00000001, 'tn': 162.0, 'tot': 7.00000001, 'eval': {'textcat_p': 0.0, 'textcat_r': 0.0, 'textcat_f': 0}}, 'security': {'tp': 7.0, 'fp': 2.00000001, 'fn': 12.00000001, 'tn': 148.0, 'tot': 19.00000001, 'eval': {'textcat_p': 0.7777777769135802, 'textcat_r': 0.3684210524376731, 'textcat_f': 0.49999999964285713}}, 'maintainability': {'tp': 4.0, 'fp': 1e-08, 'fn': 11.00000001, 'tn': 154.0, 'tot': 15.00000001, 'eval': {'textcat_p': 0.9999999975, 'textcat_r': 0.26666666648888887, 'textcat_f': 0.42105263113573405}}, 'portability': {'tp': 1.0, 'fp': 1.00000001, 'fn': 11.00000001, 'tn': 156.0, 'tot': 12.00000001, 'eval': {'textcat_p': 0.4999999975, 'textcat_r': 0.08333333326388888, 'textcat_f': 0.1428571426530612}}}",32
33,"{'performance': {'tp': 1.0, 'fp': 1.00000001, 'fn': 5.00000001, 'tn': 162.0, 'tot': 6.00000001, 'eval': {'textcat_p': 0.4999999975, 'textcat_r': 0.16666666638888888, 'textcat_f': 0.24999999937499998}}, 'compatibility': {'tp': 13.0, 'fp': 4.00000001, 'fn': 16.00000001, 'tn': 136.0, 'tot': 29.00000001, 'eval': {'textcat_p': 0.7647058819031142, 'textcat_r': 0.4482758619143876, 'textcat_f': 0.5652173910586011}}, 'usability': {'tp': 0.0, 'fp': 1.00000001, 'fn': 11.00000001, 'tn': 157.0, 'tot': 11.00000001, 'eval': {'textcat_p': 0.0, 'textcat_r': 0.0, 'textcat_f': 0}}, 'reliability': {'tp': 0.0, 'fp': 1e-08, 'fn': 7.00000001, 'tn': 162.0, 'tot': 7.00000001, 'eval': {'textcat_p': 0.0, 'textcat_r': 0.0, 'textcat_f': 0}}, 'security': {'tp': 7.0, 'fp': 2.00000001, 'fn': 12.00000001, 'tn': 148.0, 'tot': 19.00000001, 'eval': {'textcat_p': 0.7777777769135802, 'textcat_r': 0.3684210524376731, 'textcat_f': 0.49999999964285713}}, 'maintainability': {'tp': 4.0, 'fp': 1e-08, 'fn': 11.00000001, 'tn': 154.0, 'tot': 15.00000001, 'eval': {'textcat_p': 0.9999999975, 'textcat_r': 0.26666666648888887, 'textcat_f': 0.42105263113573405}}, 'portability': {'tp': 1.0, 'fp': 1.00000001, 'fn': 11.00000001, 'tn': 156.0, 'tot': 12.00000001, 'eval': {'textcat_p': 0.4999999975, 'textcat_r': 0.08333333326388888, 'textcat_f': 0.1428571426530612}}}",33
34,"{'performance': {'tp': 1.0, 'fp': 1.00000001, 'fn': 5.00000001, 'tn': 162.0, 'tot': 6.00000001, 'eval': {'textcat_p': 0.4999999975, 'textcat_r': 0.16666666638888888, 'textcat_f': 0.24999999937499998}}, 'compatibility': {'tp': 13.0, 'fp': 5.00000001, 'fn': 16.00000001, 'tn': 135.0, 'tot': 29.00000001, 'eval': {'textcat_p': 0.7222222218209876, 'textcat_r': 0.4482758619143876, 'textcat_f': 0.5531914891263014}}, 'usability': {'tp': 0.0, 'fp': 1.00000001, 'fn': 11.00000001, 'tn': 157.0, 'tot': 11.00000001, 'eval': {'textcat_p': 0.0, 'textcat_r': 0.0, 'textcat_f': 0}}, 'reliability': {'tp': 0.0, 'fp': 1e-08, 'fn': 7.00000001, 'tn': 162.0, 'tot': 7.00000001, 'eval': {'textcat_p': 0.0, 'textcat_r': 0.0, 'textcat_f': 0}}, 'security': {'tp': 7.0, 'fp': 2.00000001, 'fn': 12.00000001, 'tn': 148.0, 'tot': 19.00000001, 'eval': {'textcat_p': 0.7777777769135802, 'textcat_r': 0.3684210524376731, 'textcat_f': 0.49999999964285713}}, 'maintainability': {'tp': 4.0, 'fp': 1e-08, 'fn': 11.00000001, 'tn': 154.0, 'tot': 15.00000001, 'eval': {'textcat_p': 0.9999999975, 'textcat_r': 0.26666666648888887, 'textcat_f': 0.42105263113573405}}, 'portability': {'tp': 1.0, 'fp': 1.00000001, 'fn': 11.00000001, 'tn': 156.0, 'tot': 12.00000001, 'eval': {'textcat_p': 0.4999999975, 'textcat_r': 0.08333333326388888, 'textcat_f': 0.1428571426530612}}}",34
35,"{'performance': {'tp': 1.0, 'fp': 1.00000001, 'fn': 5.00000001, 'tn': 162.0, 'tot': 6.00000001, 'eval': {'textcat_p': 0.4999999975, 'textcat_r': 0.16666666638888888, 'textcat_f': 0.24999999937499998}}, 'compatibility': {'tp': 13.0, 'fp': 5.00000001, 'fn': 16.00000001, 'tn': 135.0, 'tot': 29.00000001, 'eval': {'textcat_p': 0.7222222218209876, 'textcat_r': 0.4482758619143876, 'textcat_f': 0.5531914891263014}}, 'usability': {'tp': 0.0, 'fp': 1.00000001, 'fn': 11.00000001, 'tn': 157.0, 'tot': 11.00000001, 'eval': {'textcat_p': 0.0, 'textcat_r': 0.0, 'textcat_f': 0}}, 'reliability': {'tp': 0.0, 'fp': 1e-08, 'fn': 7.00000001, 'tn': 162.0, 'tot': 7.00000001, 'eval': {'textcat_p': 0.0, 'textcat_r': 0.0, 'textcat_f': 0}}, 'security': {'tp': 7.0, 'fp': 3.00000001, 'fn': 12.00000001, 'tn': 147.0, 'tot': 19.00000001, 'eval': {'textcat_p': 0.6999999992999999, 'textcat_r': 0.3684210524376731, 'textcat_f': 0.48275862035671807}}, 'maintainability': {'tp': 3.0, 'fp': 1e-08, 'fn': 12.00000001, 'tn': 154.0, 'tot': 15.00000001, 'eval': {'textcat_p': 0.9999999966666667, 'textcat_r': 0.19999999986666667, 'textcat_f': 0.3333333329629629}}, 'portability': {'tp': 1.0, 'fp': 1.00000001, 'fn': 11.00000001, 'tn': 156.0, 'tot': 12.00000001, 'eval': {'textcat_p': 0.4999999975, 'textcat_r': 0.08333333326388888, 'textcat_f': 0.1428571426530612}}}",35
36,"{'performance': {'tp': 1.0, 'fp': 1.00000001, 'fn': 5.00000001, 'tn': 162.0, 'tot': 6.00000001, 'eval': {'textcat_p': 0.4999999975, 'textcat_r': 0.16666666638888888, 'textcat_f': 0.24999999937499998}}, 'compatibility': {'tp': 14.0, 'fp': 7.00000001, 'fn': 15.00000001, 'tn': 133.0, 'tot': 29.00000001, 'eval': {'textcat_p': 0.6666666663492063, 'textcat_r': 0.4827586205231867, 'textcat_f': 0.559999999776}}, 'usability': {'tp': 0.0, 'fp': 1.00000001, 'fn': 11.00000001, 'tn': 157.0, 'tot': 11.00000001, 'eval': {'textcat_p': 0.0, 'textcat_r': 0.0, 'textcat_f': 0}}, 'reliability': {'tp': 0.0, 'fp': 1e-08, 'fn': 7.00000001, 'tn': 162.0, 'tot': 7.00000001, 'eval': {'textcat_p': 0.0, 'textcat_r': 0.0, 'textcat_f': 0}}, 'security': {'tp': 7.0, 'fp': 3.00000001, 'fn': 12.00000001, 'tn': 147.0, 'tot': 19.00000001, 'eval': {'textcat_p': 0.6999999992999999, 'textcat_r': 0.3684210524376731, 'textcat_f': 0.48275862035671807}}, 'maintainability': {'tp': 3.0, 'fp': 1e-08, 'fn': 12.00000001, 'tn': 154.0, 'tot': 15.00000001, 'eval': {'textcat_p': 0.9999999966666667, 'textcat_r': 0.19999999986666667, 'textcat_f': 0.3333333329629629}}, 'portability': {'tp': 1.0, 'fp': 1.00000001, 'fn': 11.00000001, 'tn': 156.0, 'tot': 12.00000001, 'eval': {'textcat_p': 0.4999999975, 'textcat_r': 0.08333333326388888, 'textcat_f': 0.1428571426530612}}}",36
37,"{'performance': {'tp': 1.0, 'fp': 1.00000001, 'fn': 5.00000001, 'tn': 162.0, 'tot': 6.00000001, 'eval': {'textcat_p': 0.4999999975, 'textcat_r': 0.16666666638888888, 'textcat_f': 0.24999999937499998}}, 'compatibility': {'tp': 13.0, 'fp': 5.00000001, 'fn': 16.00000001, 'tn': 135.0, 'tot': 29.00000001, 'eval': {'textcat_p': 0.7222222218209876, 'textcat_r': 0.4482758619143876, 'textcat_f': 0.5531914891263014}}, 'usability': {'tp': 0.0, 'fp': 1.00000001, 'fn': 11.00000001, 'tn': 157.0, 'tot': 11.00000001, 'eval': {'textcat_p': 0.0, 'textcat_r': 0.0, 'textcat_f': 0}}, 'reliability': {'tp': 0.0, 'fp': 1e-08, 'fn': 7.00000001, 'tn': 162.0, 'tot': 7.00000001, 'eval': {'textcat_p': 0.0, 'textcat_r': 0.0, 'textcat_f': 0}}, 'security': {'tp': 7.0, 'fp': 4.00000001, 'fn': 12.00000001, 'tn': 146.0, 'tot': 19.00000001, 'eval': {'textcat_p': 0.6363636357851239, 'textcat_r': 0.3684210524376731, 'textcat_f': 0.4666666663555556}}, 'maintainability': {'tp': 3.0, 'fp': 1e-08, 'fn': 12.00000001, 'tn': 154.0, 'tot': 15.00000001, 'eval': {'textcat_p': 0.9999999966666667, 'textcat_r': 0.19999999986666667, 'textcat_f': 0.3333333329629629}}, 'portability': {'tp': 1.0, 'fp': 1.00000001, 'fn': 11.00000001, 'tn': 156.0, 'tot': 12.00000001, 'eval': {'textcat_p': 0.4999999975, 'textcat_r': 0.08333333326388888, 'textcat_f': 0.1428571426530612}}}",37
38,"{'performance': {'tp': 1.0, 'fp': 1.00000001, 'fn': 5.00000001, 'tn': 162.0, 'tot': 6.00000001, 'eval': {'textcat_p': 0.4999999975, 'textcat_r': 0.16666666638888888, 'textcat_f': 0.24999999937499998}}, 'compatibility': {'tp': 13.0, 'fp': 5.00000001, 'fn': 16.00000001, 'tn': 135.0, 'tot': 29.00000001, 'eval': {'textcat_p': 0.7222222218209876, 'textcat_r': 0.4482758619143876, 'textcat_f': 0.5531914891263014}}, 'usability': {'tp': 0.0, 'fp': 1.00000001, 'fn': 11.00000001, 'tn': 157.0, 'tot': 11.00000001, 'eval': {'textcat_p': 0.0, 'textcat_r': 0.0, 'textcat_f': 0}}, 'reliability': {'tp': 0.0, 'fp': 1e-08, 'fn': 7.00000001, 'tn': 162.0, 'tot': 7.00000001, 'eval': {'textcat_p': 0.0, 'textcat_r': 0.0, 'textcat_f': 0}}, 'security': {'tp': 7.0, 'fp': 4.00000001, 'fn': 12.00000001, 'tn': 146.0, 'tot': 19.00000001, 'eval': {'textcat_p': 0.6363636357851239, 'textcat_r': 0.3684210524376731, 'textcat_f': 0.4666666663555556}}, 'maintainability': {'tp': 3.0, 'fp': 1e-08, 'fn': 12.00000001, 'tn': 154.0, 'tot': 15.00000001, 'eval': {'textcat_p': 0.9999999966666667, 'textcat_r': 0.19999999986666667, 'textcat_f': 0.3333333329629629}}, 'portability': {'tp': 1.0, 'fp': 1.00000001, 'fn': 11.00000001, 'tn': 156.0, 'tot': 12.00000001, 'eval': {'textcat_p': 0.4999999975, 'textcat_r': 0.08333333326388888, 'textcat_f': 0.1428571426530612}}}",38
39,"{'performance': {'tp': 1.0, 'fp': 1.00000001, 'fn': 5.00000001, 'tn': 162.0, 'tot': 6.00000001, 'eval': {'textcat_p': 0.4999999975, 'textcat_r': 0.16666666638888888, 'textcat_f': 0.24999999937499998}}, 'compatibility': {'tp': 13.0, 'fp': 5.00000001, 'fn': 16.00000001, 'tn': 135.0, 'tot': 29.00000001, 'eval': {'textcat_p': 0.7222222218209876, 'textcat_r': 0.4482758619143876, 'textcat_f': 0.5531914891263014}}, 'usability': {'tp': 0.0, 'fp': 1.00000001, 'fn': 11.00000001, 'tn': 157.0, 'tot': 11.00000001, 'eval': {'textcat_p': 0.0, 'textcat_r': 0.0, 'textcat_f': 0}}, 'reliability': {'tp': 0.0, 'fp': 1e-08, 'fn': 7.00000001, 'tn': 162.0, 'tot': 7.00000001, 'eval': {'textcat_p': 0.0, 'textcat_r': 0.0, 'textcat_f': 0}}, 'security': {'tp': 7.0, 'fp': 4.00000001, 'fn': 12.00000001, 'tn': 146.0, 'tot': 19.00000001, 'eval': {'textcat_p': 0.6363636357851239, 'textcat_r': 0.3684210524376731, 'textcat_f': 0.4666666663555556}}, 'maintainability': {'tp': 3.0, 'fp': 1e-08, 'fn': 12.00000001, 'tn': 154.0, 'tot': 15.00000001, 'eval': {'textcat_p': 0.9999999966666667, 'textcat_r': 0.19999999986666667, 'textcat_f': 0.3333333329629629}}, 'portability': {'tp': 1.0, 'fp': 1.00000001, 'fn': 11.00000001, 'tn': 156.0, 'tot': 12.00000001, 'eval': {'textcat_p': 0.4999999975, 'textcat_r': 0.08333333326388888, 'textcat_f': 0.1428571426530612}}}",39
40,"{'performance': {'tp': 1.0, 'fp': 1.00000001, 'fn': 5.00000001, 'tn': 162.0, 'tot': 6.00000001, 'eval': {'textcat_p': 0.4999999975, 'textcat_r': 0.16666666638888888, 'textcat_f': 0.24999999937499998}}, 'compatibility': {'tp': 13.0, 'fp': 5.00000001, 'fn': 16.00000001, 'tn': 135.0, 'tot': 29.00000001, 'eval': {'textcat_p': 0.7222222218209876, 'textcat_r': 0.4482758619143876, 'textcat_f': 0.5531914891263014}}, 'usability': {'tp': 0.0, 'fp': 1.00000001, 'fn': 11.00000001, 'tn': 157.0, 'tot': 11.00000001, 'eval': {'textcat_p': 0.0, 'textcat_r': 0.0, 'textcat_f': 0}}, 'reliability': {'tp': 0.0, 'fp': 1e-08, 'fn': 7.00000001, 'tn': 162.0, 'tot': 7.00000001, 'eval': {'textcat_p': 0.0, 'textcat_r': 0.0, 'textcat_f': 0}}, 'security': {'tp': 7.0, 'fp': 4.00000001, 'fn': 12.00000001, 'tn': 146.0, 'tot': 19.00000001, 'eval': {'textcat_p': 0.6363636357851239, 'textcat_r': 0.3684210524376731, 'textcat_f': 0.4666666663555556}}, 'maintainability': {'tp': 3.0, 'fp': 1e-08, 'fn': 12.00000001, 'tn': 154.0, 'tot': 15.00000001, 'eval': {'textcat_p': 0.9999999966666667, 'textcat_r': 0.19999999986666667, 'textcat_f': 0.3333333329629629}}, 'portability': {'tp': 1.0, 'fp': 1.00000001, 'fn': 11.00000001, 'tn': 156.0, 'tot': 12.00000001, 'eval': {'textcat_p': 0.4999999975, 'textcat_r': 0.08333333326388888, 'textcat_f': 0.1428571426530612}}}",40
41,"{'performance': {'tp': 1.0, 'fp': 1.00000001, 'fn': 5.00000001, 'tn': 162.0, 'tot': 6.00000001, 'eval': {'textcat_p': 0.4999999975, 'textcat_r': 0.16666666638888888, 'textcat_f': 0.24999999937499998}}, 'compatibility': {'tp': 13.0, 'fp': 5.00000001, 'fn': 16.00000001, 'tn': 135.0, 'tot': 29.00000001, 'eval': {'textcat_p': 0.7222222218209876, 'textcat_r': 0.4482758619143876, 'textcat_f': 0.5531914891263014}}, 'usability': {'tp': 0.0, 'fp': 1.00000001, 'fn': 11.00000001, 'tn': 157.0, 'tot': 11.00000001, 'eval': {'textcat_p': 0.0, 'textcat_r': 0.0, 'textcat_f': 0}}, 'reliability': {'tp': 0.0, 'fp': 1e-08, 'fn': 7.00000001, 'tn': 162.0, 'tot': 7.00000001, 'eval': {'textcat_p': 0.0, 'textcat_r': 0.0, 'textcat_f': 0}}, 'security': {'tp': 7.0, 'fp': 4.00000001, 'fn': 12.00000001, 'tn': 146.0, 'tot': 19.00000001, 'eval': {'textcat_p': 0.6363636357851239, 'textcat_r': 0.3684210524376731, 'textcat_f': 0.4666666663555556}}, 'maintainability': {'tp': 3.0, 'fp': 1e-08, 'fn': 12.00000001, 'tn': 154.0, 'tot': 15.00000001, 'eval': {'textcat_p': 0.9999999966666667, 'textcat_r': 0.19999999986666667, 'textcat_f': 0.3333333329629629}}, 'portability': {'tp': 1.0, 'fp': 1.00000001, 'fn': 11.00000001, 'tn': 156.0, 'tot': 12.00000001, 'eval': {'textcat_p': 0.4999999975, 'textcat_r': 0.08333333326388888, 'textcat_f': 0.1428571426530612}}}",41
42,"{'performance': {'tp': 1.0, 'fp': 1.00000001, 'fn': 5.00000001, 'tn': 162.0, 'tot': 6.00000001, 'eval': {'textcat_p': 0.4999999975, 'textcat_r': 0.16666666638888888, 'textcat_f': 0.24999999937499998}}, 'compatibility': {'tp': 11.0, 'fp': 5.00000001, 'fn': 18.00000001, 'tn': 135.0, 'tot': 29.00000001, 'eval': {'textcat_p': 0.6874999995703125, 'textcat_r': 0.37931034469678954, 'textcat_f': 0.48888888867160496}}, 'usability': {'tp': 0.0, 'fp': 1.00000001, 'fn': 11.00000001, 'tn': 157.0, 'tot': 11.00000001, 'eval': {'textcat_p': 0.0, 'textcat_r': 0.0, 'textcat_f': 0}}, 'reliability': {'tp': 0.0, 'fp': 1e-08, 'fn': 7.00000001, 'tn': 162.0, 'tot': 7.00000001, 'eval': {'textcat_p': 0.0, 'textcat_r': 0.0, 'textcat_f': 0}}, 'security': {'tp': 7.0, 'fp': 4.00000001, 'fn': 12.00000001, 'tn': 146.0, 'tot': 19.00000001, 'eval': {'textcat_p': 0.6363636357851239, 'textcat_r': 0.3684210524376731, 'textcat_f': 0.4666666663555556}}, 'maintainability': {'tp': 3.0, 'fp': 1e-08, 'fn': 12.00000001, 'tn': 154.0, 'tot': 15.00000001, 'eval': {'textcat_p': 0.9999999966666667, 'textcat_r': 0.19999999986666667, 'textcat_f': 0.3333333329629629}}, 'portability': {'tp': 1.0, 'fp': 1.00000001, 'fn': 11.00000001, 'tn': 156.0, 'tot': 12.00000001, 'eval': {'textcat_p': 0.4999999975, 'textcat_r': 0.08333333326388888, 'textcat_f': 0.1428571426530612}}}",42
43,"{'performance': {'tp': 1.0, 'fp': 1.00000001, 'fn': 5.00000001, 'tn': 162.0, 'tot': 6.00000001, 'eval': {'textcat_p': 0.4999999975, 'textcat_r': 0.16666666638888888, 'textcat_f': 0.24999999937499998}}, 'compatibility': {'tp': 12.0, 'fp': 5.00000001, 'fn': 17.00000001, 'tn': 135.0, 'tot': 29.00000001, 'eval': {'textcat_p': 0.7058823525259516, 'textcat_r': 0.41379310330558855, 'textcat_f': 0.5217391302079395}}, 'usability': {'tp': 0.0, 'fp': 1.00000001, 'fn': 11.00000001, 'tn': 157.0, 'tot': 11.00000001, 'eval': {'textcat_p': 0.0, 'textcat_r': 0.0, 'textcat_f': 0}}, 'reliability': {'tp': 0.0, 'fp': 1e-08, 'fn': 7.00000001, 'tn': 162.0, 'tot': 7.00000001, 'eval': {'textcat_p': 0.0, 'textcat_r': 0.0, 'textcat_f': 0}}, 'security': {'tp': 7.0, 'fp': 4.00000001, 'fn': 12.00000001, 'tn': 146.0, 'tot': 19.00000001, 'eval': {'textcat_p': 0.6363636357851239, 'textcat_r': 0.3684210524376731, 'textcat_f': 0.4666666663555556}}, 'maintainability': {'tp': 3.0, 'fp': 1e-08, 'fn': 12.00000001, 'tn': 154.0, 'tot': 15.00000001, 'eval': {'textcat_p': 0.9999999966666667, 'textcat_r': 0.19999999986666667, 'textcat_f': 0.3333333329629629}}, 'portability': {'tp': 1.0, 'fp': 1.00000001, 'fn': 11.00000001, 'tn': 156.0, 'tot': 12.00000001, 'eval': {'textcat_p': 0.4999999975, 'textcat_r': 0.08333333326388888, 'textcat_f': 0.1428571426530612}}}",43
44,"{'performance': {'tp': 1.0, 'fp': 1.00000001, 'fn': 5.00000001, 'tn': 162.0, 'tot': 6.00000001, 'eval': {'textcat_p': 0.4999999975, 'textcat_r': 0.16666666638888888, 'textcat_f': 0.24999999937499998}}, 'compatibility': {'tp': 12.0, 'fp': 5.00000001, 'fn': 17.00000001, 'tn': 135.0, 'tot': 29.00000001, 'eval': {'textcat_p': 0.7058823525259516, 'textcat_r': 0.41379310330558855, 'textcat_f': 0.5217391302079395}}, 'usability': {'tp': 0.0, 'fp': 1.00000001, 'fn': 11.00000001, 'tn': 157.0, 'tot': 11.00000001, 'eval': {'textcat_p': 0.0, 'textcat_r': 0.0, 'textcat_f': 0}}, 'reliability': {'tp': 0.0, 'fp': 1e-08, 'fn': 7.00000001, 'tn': 162.0, 'tot': 7.00000001, 'eval': {'textcat_p': 0.0, 'textcat_r': 0.0, 'textcat_f': 0}}, 'security': {'tp': 7.0, 'fp': 4.00000001, 'fn': 12.00000001, 'tn': 146.0, 'tot': 19.00000001, 'eval': {'textcat_p': 0.6363636357851239, 'textcat_r': 0.3684210524376731, 'textcat_f': 0.4666666663555556}}, 'maintainability': {'tp': 3.0, 'fp': 1e-08, 'fn': 12.00000001, 'tn': 154.0, 'tot': 15.00000001, 'eval': {'textcat_p': 0.9999999966666667, 'textcat_r': 0.19999999986666667, 'textcat_f': 0.3333333329629629}}, 'portability': {'tp': 1.0, 'fp': 1.00000001, 'fn': 11.00000001, 'tn': 156.0, 'tot': 12.00000001, 'eval': {'textcat_p': 0.4999999975, 'textcat_r': 0.08333333326388888, 'textcat_f': 0.1428571426530612}}}",44
45,"{'performance': {'tp': 1.0, 'fp': 1e-08, 'fn': 5.00000001, 'tn': 163.0, 'tot': 6.00000001, 'eval': {'textcat_p': 0.9999999900000002, 'textcat_r': 0.16666666638888888, 'textcat_f': 0.2857142848979592}}, 'compatibility': {'tp': 12.0, 'fp': 6.00000001, 'fn': 17.00000001, 'tn': 134.0, 'tot': 29.00000001, 'eval': {'textcat_p': 0.6666666662962962, 'textcat_r': 0.41379310330558855, 'textcat_f': 0.5106382976550475}}, 'usability': {'tp': 0.0, 'fp': 1.00000001, 'fn': 11.00000001, 'tn': 157.0, 'tot': 11.00000001, 'eval': {'textcat_p': 0.0, 'textcat_r': 0.0, 'textcat_f': 0}}, 'reliability': {'tp': 0.0, 'fp': 1e-08, 'fn': 7.00000001, 'tn': 162.0, 'tot': 7.00000001, 'eval': {'textcat_p': 0.0, 'textcat_r': 0.0, 'textcat_f': 0}}, 'security': {'tp': 7.0, 'fp': 4.00000001, 'fn': 12.00000001, 'tn': 146.0, 'tot': 19.00000001, 'eval': {'textcat_p': 0.6363636357851239, 'textcat_r': 0.3684210524376731, 'textcat_f': 0.4666666663555556}}, 'maintainability': {'tp': 3.0, 'fp': 1e-08, 'fn': 12.00000001, 'tn': 154.0, 'tot': 15.00000001, 'eval': {'textcat_p': 0.9999999966666667, 'textcat_r': 0.19999999986666667, 'textcat_f': 0.3333333329629629}}, 'portability': {'tp': 1.0, 'fp': 1.00000001, 'fn': 11.00000001, 'tn': 156.0, 'tot': 12.00000001, 'eval': {'textcat_p': 0.4999999975, 'textcat_r': 0.08333333326388888, 'textcat_f': 0.1428571426530612}}}",45
46,"{'performance': {'tp': 1.0, 'fp': 1e-08, 'fn': 5.00000001, 'tn': 163.0, 'tot': 6.00000001, 'eval': {'textcat_p': 0.9999999900000002, 'textcat_r': 0.16666666638888888, 'textcat_f': 0.2857142848979592}}, 'compatibility': {'tp': 12.0, 'fp': 6.00000001, 'fn': 17.00000001, 'tn': 134.0, 'tot': 29.00000001, 'eval': {'textcat_p': 0.6666666662962962, 'textcat_r': 0.41379310330558855, 'textcat_f': 0.5106382976550475}}, 'usability': {'tp': 0.0, 'fp': 1.00000001, 'fn': 11.00000001, 'tn': 157.0, 'tot': 11.00000001, 'eval': {'textcat_p': 0.0, 'textcat_r': 0.0, 'textcat_f': 0}}, 'reliability': {'tp': 0.0, 'fp': 1e-08, 'fn': 7.00000001, 'tn': 162.0, 'tot': 7.00000001, 'eval': {'textcat_p': 0.0, 'textcat_r': 0.0, 'textcat_f': 0}}, 'security': {'tp': 7.0, 'fp': 4.00000001, 'fn': 12.00000001, 'tn': 146.0, 'tot': 19.00000001, 'eval': {'textcat_p': 0.6363636357851239, 'textcat_r': 0.3684210524376731, 'textcat_f': 0.4666666663555556}}, 'maintainability': {'tp': 3.0, 'fp': 1e-08, 'fn': 12.00000001, 'tn': 154.0, 'tot': 15.00000001, 'eval': {'textcat_p': 0.9999999966666667, 'textcat_r': 0.19999999986666667, 'textcat_f': 0.3333333329629629}}, 'portability': {'tp': 1.0, 'fp': 1.00000001, 'fn': 11.00000001, 'tn': 156.0, 'tot': 12.00000001, 'eval': {'textcat_p': 0.4999999975, 'textcat_r': 0.08333333326388888, 'textcat_f': 0.1428571426530612}}}",46
47,"{'performance': {'tp': 1.0, 'fp': 1e-08, 'fn': 5.00000001, 'tn': 163.0, 'tot': 6.00000001, 'eval': {'textcat_p': 0.9999999900000002, 'textcat_r': 0.16666666638888888, 'textcat_f': 0.2857142848979592}}, 'compatibility': {'tp': 12.0, 'fp': 6.00000001, 'fn': 17.00000001, 'tn': 134.0, 'tot': 29.00000001, 'eval': {'textcat_p': 0.6666666662962962, 'textcat_r': 0.41379310330558855, 'textcat_f': 0.5106382976550475}}, 'usability': {'tp': 0.0, 'fp': 1.00000001, 'fn': 11.00000001, 'tn': 157.0, 'tot': 11.00000001, 'eval': {'textcat_p': 0.0, 'textcat_r': 0.0, 'textcat_f': 0}}, 'reliability': {'tp': 0.0, 'fp': 1e-08, 'fn': 7.00000001, 'tn': 162.0, 'tot': 7.00000001, 'eval': {'textcat_p': 0.0, 'textcat_r': 0.0, 'textcat_f': 0}}, 'security': {'tp': 7.0, 'fp': 3.00000001, 'fn': 12.00000001, 'tn': 147.0, 'tot': 19.00000001, 'eval': {'textcat_p': 0.6999999992999999, 'textcat_r': 0.3684210524376731, 'textcat_f': 0.48275862035671807}}, 'maintainability': {'tp': 4.0, 'fp': 1e-08, 'fn': 11.00000001, 'tn': 154.0, 'tot': 15.00000001, 'eval': {'textcat_p': 0.9999999975, 'textcat_r': 0.26666666648888887, 'textcat_f': 0.42105263113573405}}, 'portability': {'tp': 1.0, 'fp': 1.00000001, 'fn': 11.00000001, 'tn': 156.0, 'tot': 12.00000001, 'eval': {'textcat_p': 0.4999999975, 'textcat_r': 0.08333333326388888, 'textcat_f': 0.1428571426530612}}}",47
48,"{'performance': {'tp': 1.0, 'fp': 1e-08, 'fn': 5.00000001, 'tn': 163.0, 'tot': 6.00000001, 'eval': {'textcat_p': 0.9999999900000002, 'textcat_r': 0.16666666638888888, 'textcat_f': 0.2857142848979592}}, 'compatibility': {'tp': 12.0, 'fp': 6.00000001, 'fn': 17.00000001, 'tn': 134.0, 'tot': 29.00000001, 'eval': {'textcat_p': 0.6666666662962962, 'textcat_r': 0.41379310330558855, 'textcat_f': 0.5106382976550475}}, 'usability': {'tp': 0.0, 'fp': 1.00000001, 'fn': 11.00000001, 'tn': 157.0, 'tot': 11.00000001, 'eval': {'textcat_p': 0.0, 'textcat_r': 0.0, 'textcat_f': 0}}, 'reliability': {'tp': 0.0, 'fp': 1e-08, 'fn': 7.00000001, 'tn': 162.0, 'tot': 7.00000001, 'eval': {'textcat_p': 0.0, 'textcat_r': 0.0, 'textcat_f': 0}}, 'security': {'tp': 7.0, 'fp': 5.00000001, 'fn': 12.00000001, 'tn': 145.0, 'tot': 19.00000001, 'eval': {'textcat_p': 0.5833333328472222, 'textcat_r': 0.3684210524376731, 'textcat_f': 0.4516129029344433}}, 'maintainability': {'tp': 4.0, 'fp': 1e-08, 'fn': 11.00000001, 'tn': 154.0, 'tot': 15.00000001, 'eval': {'textcat_p': 0.9999999975, 'textcat_r': 0.26666666648888887, 'textcat_f': 0.42105263113573405}}, 'portability': {'tp': 1.0, 'fp': 1.00000001, 'fn': 11.00000001, 'tn': 156.0, 'tot': 12.00000001, 'eval': {'textcat_p': 0.4999999975, 'textcat_r': 0.08333333326388888, 'textcat_f': 0.1428571426530612}}}",48
49,"{'performance': {'tp': 1.0, 'fp': 1e-08, 'fn': 5.00000001, 'tn': 163.0, 'tot': 6.00000001, 'eval': {'textcat_p': 0.9999999900000002, 'textcat_r': 0.16666666638888888, 'textcat_f': 0.2857142848979592}}, 'compatibility': {'tp': 12.0, 'fp': 6.00000001, 'fn': 17.00000001, 'tn': 134.0, 'tot': 29.00000001, 'eval': {'textcat_p': 0.6666666662962962, 'textcat_r': 0.41379310330558855, 'textcat_f': 0.5106382976550475}}, 'usability': {'tp': 0.0, 'fp': 1.00000001, 'fn': 11.00000001, 'tn': 157.0, 'tot': 11.00000001, 'eval': {'textcat_p': 0.0, 'textcat_r': 0.0, 'textcat_f': 0}}, 'reliability': {'tp': 0.0, 'fp': 1e-08, 'fn': 7.00000001, 'tn': 162.0, 'tot': 7.00000001, 'eval': {'textcat_p': 0.0, 'textcat_r': 0.0, 'textcat_f': 0}}, 'security': {'tp': 7.0, 'fp': 4.00000001, 'fn': 12.00000001, 'tn': 146.0, 'tot': 19.00000001, 'eval': {'textcat_p': 0.6363636357851239, 'textcat_r': 0.3684210524376731, 'textcat_f': 0.4666666663555556}}, 'maintainability': {'tp': 4.0, 'fp': 1e-08, 'fn': 11.00000001, 'tn': 154.0, 'tot': 15.00000001, 'eval': {'textcat_p': 0.9999999975, 'textcat_r': 0.26666666648888887, 'textcat_f': 0.42105263113573405}}, 'portability': {'tp': 1.0, 'fp': 1.00000001, 'fn': 11.00000001, 'tn': 156.0, 'tot': 12.00000001, 'eval': {'textcat_p': 0.4999999975, 'textcat_r': 0.08333333326388888, 'textcat_f': 0.1428571426530612}}}",49
