,US,pred,label
0,"As a Developer, I want to get a Data Package into Clojure in seconds, so that I can start using the data in doing analysis and visualizations. ",0.9999545812606812,performance
1,"As a FABS user, I want to have my validations run in a reasonable amount of time.",0.9999545812606812,performance
2,"As a Researcher, I want to get a Data Package into SPSS in seconds, so that I can start using the data for doing analysis and visualizations. ",0.9999545812606812,performance
3,"As a Developer, I want to get a Data Package into C++ in seconds, so that I can start using the data in doing analysis and visualizations. ",0.9999545812606812,performance
4,"As a Developer, I want to prevent duplicate transactions from being published and deal with the time gap between validation and the publishing decision.",0.999947190284729,performance
5,"As a developer, I want to have created database indexes, so that the queries run as fast as possible.",0.9999545812606812,performance
6,"As a Developer , I want my domain models to be indexed properly, so that I can get validation results back in a reasonable amount of time.",0.9999545812606812,performance
7,"As a Researcher, I want to get a Data Package into STATA in seconds, so that I can start using the data for doing analysis and visualizations. ",0.9999545812606812,performance
8,"As a Developer, I want to get a Data Package into Julia in seconds, so that I can start using the data in doing analysis and visualizations. ",0.9999545812606812,performance
9,"As a participant, I want to immediately see that an estimate has been given by a specific estimator, so that I know who has already given an estimate and who we're still waiting for.",0.9999545812606812,performance
10,"As a user, I want to upload large files of over 1GB in size.",0.9999545812606812,performance
11,"As an archive, I want to get information about the volume of data to preserve at an early stage, so that I can provide the adequate storage infrastructure.",0.9998152852058411,performance
12,"As a Researcher, I want to get a Data Package into Julia in seconds, so that I can start using the data for doing analysis and visualizations. ",0.9999545812606812,performance
13,"As an OlderPerson, I want to have a very good battery for ALFRED so I can keep him on the whole day.",0.9996519088745117,performance
14,"As a participant, I want to be shown all estimates at the same time after all estimators have given their estimate, so that I can be sure estimates are independent and not influenced by other estimates given in the same draw.",0.9999545812606812,performance
15,"As a Cornell faculty member, I want to share on the repository files that are larger than 1GB in a way that still allows users to download them if I want to use them, so that I can meet funder requirements.",0.9998534917831421,performance
16,"As an IT staff member, I want to have an estimate of the produced data volume, so that I can plan the overall storage consumption.",0.9999440908432007,performance
17,"As a Developer, I want to get a Data Package into Python in seconds, so that I can start using the data for doing analysis and visualizations. ",0.9999545812606812,performance
18,"As an IT manager, I want to know about IT resource requirements early in the project lifecycle, so that I can enable resource acquisition planning.",0.9999545812606812,performance
19,"As a Researcher, I want to get a Data Package into LibreOffice/OpenOffice in seconds, so that I can start using the data for doing analysis and visualizations. ",0.9999545812606812,performance
20,"As a Researcher, I want an app that create proxy Data Packages for well know and reliable data, sources, so that I can load high quality data using Data Package tooling. ",0.9992247819900513,performance
21,"As an institutional data manager, I want to know about the privacy and security requirements of the data, so that I can plan the right storage system and sharing permissions.",0.9997745156288147,performance
22,"As a user, I want to have the application respond quickly to my actions, so that I don't get bored.",0.9998782873153687,performance
23,"As a Researcher, I want to get a Data Package into R in seconds, so that I can start using the data for doing analysis and visualizations. ",0.9999500513076782,performance
24,"As a rector, I want to know how many data will be stored, so that I can plan long term resources.",0.9999490976333618,performance
25,"As a Researcher, I want to get a Data Package into Excel in seconds, so that I can start using the data for doing analysis and visualizations. ",0.999882698059082,performance
26,"As a Developer, I want D Files generation requests to be managed and cached, so that duplicate requests do not cause performance issues.",0.9999545812606812,performance
27,"As an Agency user, I want to be able to include a large number of flexfields without performance impact.",0.9999545812606812,performance
0,"As a Developer, I want to get a Data Package into Clojure in seconds, so that I can start using the data in doing analysis and visualizations. ",0.9999545812606812,compatibility
1,"As a Researcher, I want to be able to translate my EML dataset to a Data Package, so that I can benefit from the wide array of tools available for Data Packages. ",0.9999464750289917,compatibility
2,"As a user, I want to view the group's shared calendars via the Neurohub Nodes' Web page as well as on my mobile device.",0.999527096748352,compatibility
3,"As an OlderPerson, I want to have my data stored directly on the phone.",0.9999545812606812,compatibility
4,"As a user, I want to have the option to tell Neurohub to push posted content to my Twitter feed at the same time.",0.9998676776885986,compatibility
5,"As a researcher, I want to discover items in the repository through the library's discovery system and Google, so that I can facilitate my easy use of the content.",0.9999545812606812,compatibility
6,"As a Researcher, I want to get a Data Package into SPSS in seconds, so that I can start using the data for doing analysis and visualizations. ",0.9999048709869385,compatibility
7,"As a Developer, I want to get a Data Package into C++ in seconds, so that I can start using the data in doing analysis and visualizations. ",0.9999545812606812,compatibility
8,"As an OlderPerson, I want to do guided exercises with ALFRED and ALFRED should also use sensors to capture health data while I am doing exercises. ",0.9999545812606812,compatibility
9,"As a Developer, I want a Mongo integration, so that I can integrate data-packaged data with pipelines that use Mongo. ",0.9999545812606812,compatibility
10,"As a trainer, I want to load an Excel file into the site, so that the course participants are added to the Scrum Alliance records.",0.9999545812606812,compatibility
11,"As a Zooniverse admin, I want to perform automatic animal attribute preclassification in Snapshot Serengeti.",0.9999545812606812,compatibility
12,"As an Archivist, I want to import EAD data.",0.9999545812606812,compatibility
13,"As a researcher, I want to point my Mendeley client at a group-wide shared repository of research papers and get notifications via Mendeley when new content is added.",0.9997671246528625,compatibility
14,"As an agency user, I want the maximum length allowed for LegalEntityAddressLine3 to match Schema v1.1.",0.9999545812606812,compatibility
15,"As a Data Publishing User, I want to be able to edit the model of data I have already imported, So that I can fix bugs or make enhancements in the API built for my data.",0.9975661039352417,compatibility
16,"As an agency user, I want to be confident that the data coming from SAM is complete.",0.9999545812606812,compatibility
17,"As an IT staff member, I want to know which formats are used, so that I can determine what kind of technical services and functionalities are required.",0.9998983144760132,compatibility
18,"As an UnivITservice, I want to integrate the archive with existing university systems such as LDAP, so that the cost of administering the system can be kept low.",0.9999533891677856,compatibility
19,"As a developer, I want an online service that is connected to my data repository that validates data on update, so that I can delegate data validation to a third party. ",0.9993993043899536,compatibility
20,"As a Researcher, I want to get a Data Package into STATA in seconds, so that I can start using the data for doing analysis and visualizations. ",0.9999371767044067,compatibility
21,"As a Researcher, I want an app that generates an OpenRefine reconciliation API endpoint from a Tabular Data Package, so that I can use it to clean messy data. ",0.9999545812606812,compatibility
22,"As a Technical Staff member, I want to update the GIS Property Management, so that I can successfully update the transactional Parcel Pin to reference the GIS layer where the Split or Merged Parcel Pin exists.",0.9999446868896484,compatibility
23,"As a moderator, I want to copy/paste stories from a spreadsheet, so that I can get started more quickly.",0.9999545812606812,compatibility
24,"As a Researcher, working with data, I want an Microsoft Power BI integration, so that I can import datasets without downloading them locally. ",0.9999545812606812,compatibility
25,"As a Developer, I want to get a Data Package into Julia in seconds, so that I can start using the data in doing analysis and visualizations. ",0.9999545812606812,compatibility
26,"As a Developer, I want HDF5 integration, so that I can integrate data-packaged data with pipelines that use HDF5.",0.9999545812606812,compatibility
27,"As an Archivist, I want to export agent records as EAC-CPF.",0.9999545812606812,compatibility
28,"As an Archivist, I want to import Agent information from EAC-CPF records.",0.9999545812606812,compatibility
29,"As a Planning Staff member, I want to Generate Planning-related Reports, so that I can access, analyze and/or export the needed information in the format I requested.",0.9999545812606812,compatibility
30,"As a team member, I want to have a platform that allows me to rapidly prototype HTML ideas.",0.9944063425064087,compatibility
31,"As a user, I want to click on the address, so that it takes me to a new tab with Google Maps.",0.9999545812606812,compatibility
32,"As a Zooniverse admin, I want to perform automatic preclassification of plankton species in Plankton Portal images.",0.9999545812606812,compatibility
33,"As a Data Publishing User, I want to have the Packager support Constants, So that I can model dimensions that may not exist in the source file.",0.9990954399108887,compatibility
34,"As a user, I want to have that my Twitter Tweets to appear in Neurohub, so that other researchers in the centre can see what I am up to.",0.9998806715011597,compatibility
35,"As a Consumer, I want to load a Data Package from R, so that that I can immediately start playing with it.",0.9997972846031189,compatibility
36,"As a developer, determine if we can use the in-built Fedora 4 event audit services.",0.9999545812606812,compatibility
37,"As a ResearcherPublisher, I want an integration with Zenodo, so that when I store my dataset in GitHub, I don't have to retype descriptive information about my dataset. ",0.9999545812606812,compatibility
38,"As a ResearcherPublisher, I want to publish Data Packages to CKAN, so that my data is findable, and I can have a data API. ",0.9999475479125977,compatibility
39,"As a institutional data steward, I want to be able to extract the data sets that are submitted to external repositories, so that I can add them to an institutional data catalogue.",0.9998584985733032,compatibility
40,"As a Data Publishing User, I want to be able to import data in Excel, So that I do not have to convert data formats in order to use the data packager.",0.9999545812606812,compatibility
41,"As a Researcher, I want to get my Excel spreadsheet into a Data Package, so that I can benefit from better tooling and standardization. ",0.9998531341552734,compatibility
42,"As a depositor, I want to have metadata automatically filled from other University systems and remembered from previous deposits, so that I don't have to waste time reentering the same information.",0.9999545812606812,compatibility
43,"As an UnivITservice, I want to store archived data on existing storage systems, so that university data storage is consistent and maintainable and future availability of data can be guaranteed.",0.9998413324356079,compatibility
44,"As a Data Publishing User, I want to be able to import data from Fiscal Data Package descriptor file, So that I do not have to convert data formats in order to use the data packager.",0.9999545812606812,compatibility
45,"As a Researcher, I want to get a Data Package into Julia in seconds, so that I can start using the data for doing analysis and visualizations. ",0.9999384880065918,compatibility
46,"As a Developer , I want to develop a custom importer.",0.9999545812606812,compatibility
47,"As an Archivist, I want to import only Agent and Subject information from MARCXML records.",0.9998804330825806,compatibility
48,"As a Machine Learning expert, I would like to package ML datasets as data packages, so that I can easily import them into my ML platform, so that I can start using the data in doing analysis. ",0.9999545812606812,compatibility
49,"As a user, I want to upload my week's schedule, so that I can get recommendations for recycling centers that best fit my availability.",0.9998944997787476,compatibility
50,"As a developer, I want to have the application function correctly in Internet Explorer 6 and 7, Firefox 1.5 and 2, and Safari 2, so that as many people as possible can fully use the application.",0.9999545812606812,compatibility
51,"As a Developer, I want the data loaded from historical FABS to include the FREC derivations, so that I can have consistent FREC data for USASpending.gov.",0.9999545812606812,compatibility
52,"As a library staff member, I want to use content and metadata from the repository in other systems and/or web pages easily, so that I can deliver such content in the manner best fit to the audience or occasion.",0.9999244213104248,compatibility
53,"As a Data Publishing User, I want to be able to import data in JSON, So that I do not have to convert data formats in order to use the data packager.",0.9999545812606812,compatibility
54,"As a collection curator, when I update the metadata for an object, that change should be propagated to the DOI system if the repository has assigned a DOI to that object.",0.9999160766601562,compatibility
55,"As a User , I want to authenticate using LDAP.",0.9995158910751343,compatibility
56,"As a Developer, I want an SPSS integration, so that I can integrate data-packaged data with pipelines that use SPSS. ",0.9999545812606812,compatibility
57,"As an archivist, I want to access the digital files on the X-drive, so that I can use them.",0.9999122619628906,compatibility
58,"As an Archivist, I want to import Resources from MARCXML records.",0.9999545812606812,compatibility
59,"As a Researcher, working with data in NetCDF, I want NetCDF integration, so that I can store my data in plaintext while still retaining its metadata. ",0.9999545812606812,compatibility
60,"As a patron, I want to view/upload content in multiple formats, including old formats such as Lotus Works.",0.9999545812606812,compatibility
61,"As a Zooniverse admin, I want to perform automatic animal number detection in Snapshot Serengeti.",0.9999545812606812,compatibility
62,"As a moderator, I want to import stories from a spreadsheet, so that I don't have to copy and paste each individual story.",0.9997393488883972,compatibility
63,"As a Developer, I want to get a Data Package into Python in seconds, so that I can start using the data for doing analysis and visualizations. ",0.999947190284729,compatibility
64,"As a developer, I want to have written a site which is compliant with XHTML and CSS standards, so that as many people as possible can access the site and view it as intended.",0.9999545812606812,compatibility
65,"As a Developer, I want a jQuery plugin for Core Data Packages, so that I can use it to apply to form control that uses a core dataset for autocompletion. ",0.999785840511322,compatibility
66,"As a Data Publishing User, I want to be able to edit the data source of data I have already imported, So that I can fix bugs or make enhancements in the API built for my data.",0.997897744178772,compatibility
67,"As a Researcher, I want to get a Data Package into LibreOffice/OpenOffice in seconds, so that I can start using the data for doing analysis and visualizations. ",0.9997534155845642,compatibility
68,"As a metadata batch editor, I'd like to be able to export and import descriptive and administrative metadata for multiple collections together.",0.999834418296814,compatibility
69,"As a Zooniverse admin, I want to assess how interesting or appealing or complex a picture is based on automated analysis, citizen annotations, and comments on Talk.",0.9999545812606812,compatibility
70,"As a Data Publishing User, I want to have a functioning Python Client, So that I can add data to the datastore in bulk from the command line or my own programs.",0.9999462366104126,compatibility
71,"As an OlderPerson, I want to use ALFRED to pay for small amounts.",0.99973064661026,compatibility
72,"As an Archivist, I want to upload an EAD for import from within the frontend application.",0.9999545812606812,compatibility
73,"As a ResearcherDeveloper, would like the ability import/export from MS-SQL, so that I can use Data Packages in workflows that involve MS-SQL. ",0.9999545812606812,compatibility
74,"As a Zooniverse admin, I want to perform automatic segmentation or localization of plankton in Plankton Portal.",0.9999545812606812,compatibility
75,"As a repository manager, I'd like to be able to export a spreadsheet of technical metadata at the repository, collection, or item level.",0.9998451471328735,compatibility
76,"As a Zooniverse admin, I want to detect when a scientist should be prompted to look at a subject, based on annotations and information from Talk comments.",0.9994714856147766,compatibility
77,"As an agency user, I want to use the schema v1.1 headers in my FABS file.",0.99994957447052,compatibility
78,"As a Zooniverse admin, I want to automatically detect Plankton Portal images with no classifiable plankton in them.",0.9998741149902344,compatibility
79,"As a patron, I want to download report/dataset release calendar to load into own calendar.",0.9997438788414001,compatibility
80,"As an OlderPerson, I want to use ALFRED to maintain my contact list in my phone. ",0.9998487234115601,compatibility
81,"As a content editor, I want to be able to add videos from Brightcove.",0.9998736381530762,compatibility
82,"As a repository administrator, I want to be able to expose repository contents via OAI-PMH.",0.9998973608016968,compatibility
83,"As a Data Consuming User, I want to be able to download a CSV of the data that is used in any visualisation I am viewing, So that I can use the data in other tools.",0.9996445178985596,compatibility
84,"As a Visitor, I want to sign up via github or google, so that that I don't have to enter lots of information and remember my password for yet another website.",0.999923825263977,compatibility
85,"As a developer, I want to have the API components to be on a high level so that I don't have to deal with their details. ",0.9993588328361511,compatibility
86,"As an Archivist, I want to import EAD files that were exported by Archon.",0.9999545812606812,compatibility
87,"As an assistant archivist, I want to easily access interdepartmental forms.",0.9998598098754883,compatibility
88,"As a user, I want to specify schema as a JSON string.",0.9999545812606812,compatibility
89,"As a DeveloperWrangler, I want to use a command line tool that allows me to validate data, so that I can feel trust in the validity and usefulness of the data quickly and in the context of my command line workflow. ",0.9997444748878479,compatibility
90,"As a data reuser, I want to view a DOI for a dataset, so that I can get back to the data in future and I can import the dataset into my referencemanagement software automatically.",0.9999402761459351,compatibility
91,"As a repository administrator, I want to provide a Linked Data interface to the repository.",0.9995220899581909,compatibility
92,"As a Zooniverse admin, I want to perform automatic animal species preclassification in Snapshot Serengeti.",0.9999545812606812,compatibility
93,"As a Researcher, I want to get a Data Package into R in seconds, so that I can start using the data for doing analysis and visualizations. ",0.9999545812606812,compatibility
94,"As a Staff member, I want to Send or Post Citations and Fines, so that I can successfully send the Notice Of Violation document to the property owner and log information about the action.",0.9997434020042419,compatibility
95,"As a developer, I want to have an easy way to read data from health sensors the user is wearing. ",0.9999160766601562,compatibility
96,"As a user, I want to sync events created in NeuroHub with a web-based Calendar such as Google Calendar.",0.9999545812606812,compatibility
97,"As a Publisher, I would like an integration with Excel, so that I can output cleaned Data Packages. ",0.9999545812606812,compatibility
98,"As the Digital Records Archivist, I need a method to batch ingest ETDs we receive from ProQuest. A script might work, but a GUI would be nice.",0.9997590184211731,compatibility
99,"As a Zooniverse admin, I want to perform automatic detection of plankton size or orientation in Plankton Portal images.",0.9999545812606812,compatibility
100,"As a Developer, I want an EPrints integration, so that I can integrate data-packaged data with pipelines that use EPrints. ",0.9999545812606812,compatibility
101,"As Metadata Architect, I want to be able to use batch tools to ingest, update, and export descriptive and administrative metadata in lieu of METS ingest.",0.9997467398643494,compatibility
102,"As a developer, I want to deposit and maintain datasets via an API such as SWORD2, so that my service can interact with the archive. ",0.9998975992202759,compatibility
103,"As a moderator, I want to export a transcript of a game as a CSV file, so that I can further process the stories and estimates.",0.9999114274978638,compatibility
104,"As a repository administrator, I would like Symplectic Elements to be able to communicate bidirectionally with the repository.",0.9999041557312012,compatibility
105,"As a serious games developer, I want to be able to take control over some functions to provide the desired user experience. ",0.9998459815979004,compatibility
106,"As an Archivist, I want to export a description as EAD.",0.9999545812606812,compatibility
107,"As a Developer, I want to use data package as a node lib in my project, so that that I can depend on it using my normal dependency framework.",0.9995635151863098,compatibility
108,"As a Consumer, I want to download a DataPackage's data one coherent SQLite database, so that that I can get it easily in one form.",0.9998481273651123,compatibility
109,"As a developer, I would like to create a web socket protocol for Frictionless data tools, so that I can easily use data packages with additional data analysis tools. ",0.9997004270553589,compatibility
110,"As an API User, I want to be able to get a CSV output of any cube-based query, So that I can use work with tools that read CSV.",0.9998506307601929,compatibility
111,"As a depositor, I want to deposit and maintain datasets through Virtual Research Environments and other workflow tools, so that I can continue to work with tools with which I'm familiar.",0.9997250437736511,compatibility
112,"As a researcher,  I want to have the ability to interact with a revision control system so that I can keep track of changes to files over time.",0.999886155128479,compatibility
113,"As an Archivist, I want to import Accessions data in CSV.",0.9999545812606812,compatibility
114,"As a library staff member, I want to make digital items held in trusted external system searchable within our system, so that I can provide seamless access to disparate collections.",0.9999545812606812,compatibility
115,"As a Researcher, I want to get a Data Package into Excel in seconds, so that I can start using the data for doing analysis and visualizations. ",0.9999545812606812,compatibility
116,"As a Researcher, I want to be able to reference a remote-controlled vocabulary for my dataset, so that I can be sure that column of my dataset are valid against a single shared list of terms. ",0.9993628859519958,compatibility
117,"As a moderator, I want to export a transcript of a game as a HTML file, so that I can save the stories and estimates locally.",0.9990471005439758,compatibility
118,"As a Publisher, I would like an integration with Open Refine, so that I can output cleaned Data Packages. ",0.9999029636383057,compatibility
119,"As a Data Publishing User, I want to be able to provide the Platform Administrator with additional GeoJSON sources, So that I can improve the map-based visualisations of my data.",0.9995075464248657,compatibility
120,"As a Developer, I want a DAT integration, so that I can integrate data-packaged data with pipelines that use DAT. ",0.9999545812606812,compatibility
121,"As a repository administrator, I want Symplectic Elements to integrate with DDR. They provide a Fedora Connector and Emory is using a hidden Fedora instance that Hydra collects objects for. Note that there is bidirectional communication with Elements.",0.9996936321258545,compatibility
122,"As a Data Publishing User, I want to be able to import data from a Google Spreadsheet, So that I do not have to convert data formats in order to use the data packager.",0.9999545812606812,compatibility
123,"As a data reuser, I want to search the archive through Primo , so that I can search books, articles and data all in one place.",0.9998921155929565,compatibility
124,"As a collection curator, I would like metadata changes made to items with repository-assigned DOIs to be propagated to the EZID.",0.9999545812606812,compatibility
125,"As a collection curator, I want to deposit items into the repository from within ArchivesSpace and to view the status of those objects in ArchivesSpace.",0.999396562576294,compatibility
126,"As a developer, I want to access an API from the website, so that I can integrate it and implement certain features in my own iOS application.",0.9999545812606812,compatibility
127,"As an owner, I want to be sure that USAspending only send grant records to my system.",0.9999545812606812,compatibility
128,"As a Developer, I want to do exploratory data analysis in R and operationalize that analysis in Python, so that I can use the best tool for the job.",0.9999545812606812,compatibility
129,"As a Developer, I want an Elasticsearch integration, so that I can integrate data-packaged data with pipelines that use Elasticsearch. ",0.9999545812606812,compatibility
130,"As a researcher, I want to upload files prior to having them attached to a log book page using a mapped network drive.",0.9998983144760132,compatibility
131,"As a DeveloperDataWrangler, I want to store my Data Package in GitHub and have it automatically stored into CKAN, so that I get a data API and my dataset is listed in a relevant catalog. ",0.9996873140335083,compatibility
132,"As an archivist, I want to use archival content on the RAC website, so that I can integrate our collections into our web presence.",0.9998754262924194,compatibility
133,"As an OlderPerson, I want to have an ALFRED device that responds to the changing demand of the users by offering new Apps in the ALFREDO platform.",0.9994142055511475,compatibility
134,"As a metadata batch editor, I want to export the CSV, remove the fields I'm not editing, edit the remaining fields, and upload the remediated file to overwrite values",0.9999545812606812,compatibility
135,"As an UnivITservice, I want to store archived data directly on the HCP object store, so that  features can be made.",0.9999417066574097,compatibility
136,"As a Publisher, I want to be able to preview the views of the current data package using cli prior to publishing, so that that I can refine the json declarations of datapackage view section to achieve a great looking result.",0.9993545413017273,compatibility
137,"As a Research Information manager, I want to integrate the archive with CRIS, so that I can analyse impact of research data publication I can link funding to all of the outputs it produces.",0.9999139308929443,compatibility
138,"As a developer, I want an DSpace integration, so that I can integrate data-packaged data with pipelines that use Dspace. ",0.9999545812606812,compatibility
139,"As a user, I want to specify schema as a SQL schema string.",0.9999545812606812,compatibility
140,"As a developer, I want to use bootstrap in the process of developing, so that I can easily design my website.",0.999881386756897,compatibility
141,"As an agency user, I want to submit my data elements surrounded by quotation marks, so that Excel won't strip off leading and trailing zeroes.",0.9999545812606812,compatibility
142,"As an administrator, I want to allow users to log in using Active Directory credentials, so that I don't have to manage another set of usernames and passwords.",0.9994584918022156,compatibility
143,"As a user, I want to be able to access the site and do all the other stuffs on all of my electronic devices.",0.999592125415802,compatibility
144,"As a Researcher, I want an integration with https://data.mendeley.com/, so that I can validate my data upon ingest to the service.",0.9998892545700073,compatibility
145,"As a depositor, I want to link datasets to publications in Opus, so that both my data and publications are more easily discovered.",0.9998254179954529,compatibility
146,"As a researcher, I want to import metadata that I captured with a metadata tool, so that I do not have to capture it again in a DMP.",0.9996756315231323,compatibility
147,"As a agency user, I want to map the FederalActionObligation properly to the Atom Feed.",0.9998968839645386,compatibility
148,"As a administrator, I want to tag my blog posts for consumption by Drupal Planet, so that they will be listed on the Drupal Planet blog.",0.9999301433563232,compatibility
149,"As an IT staff member, I want to know with which software or technology the data is produced or used, so that I can determine what kind of technical services and functionalities are required.",0.9993801116943359,compatibility
150,"As a researcher, I want to access files stored in my Neurohub workspace, using a network drive attached to my workstation.",0.9999545812606812,compatibility
151,"As a data depositor, I'd like to use the Simple Ingest Format to update existing items and components creating new versions where they already exist and creating new ones where the don't.",0.9993452429771423,compatibility
152,"As a Zooniverse admin, I want to perform automatic worm motion analysis to reduce video duration in Worm Watch Lab.",0.9997705817222595,compatibility
0,"As a developer, I want to have the site comply with the W3C accessibility guidelines where possible, so that people with accessibility issues can use the application.",0.999315619468689,usability
1,"As a Consumer, I want to download the data package in one file, so that that I don't have to download descriptor and each resource by hand.",0.9984531402587891,usability
2,"As a user, I want to navigate forwards and backwards between log books and log book pages without having to use my browser's back button.",0.9986191987991333,usability
3,"As an archivist, I want to search images by uploading an image, so that so I can find images when i don't have any metadata.",0.9997677206993103,usability
4,"As a site editor, I want to have a prominent area on the home page where I can put special announcements not necessarily news or articles, so that I can give them additional exposure.",0.9995032548904419,usability
5,"As a FABS user, I want the frontend URLs to more accurately reflect the page I'm accessing, so that I'm not confused.",0.9999545812606812,usability
6,"As a user, I want to have a great UI and UX from the sites, so that I have a pleasant experience when navigating through them.",0.999671220779419,usability
7,"As an Agency user, I want to better understand my file-level errors.",0.9987592697143555,usability
8,"As a ResearcherPublisher, I want to understand the ways in which my data is invalid, so that I can know how to fix it. ",0.9993909597396851,usability
9,"As a developer, I want to attend some UI/UX lessons, so that I can develop an awesome and beautiful features website.",0.9979898929595947,usability
10,"As a Data Consuming User, I want to see textual descriptions that accompany embedded visualisations, So that I can more easily understand what I am viewing.",0.9997463822364807,usability
11,"As a UI designer, I want to redesign the Resources page, so that it matches the new Broker design styles.",0.9995997548103333,usability
12,"As the site editor, I want to have pretty good control over how the article, so that articles are visually appealing.",0.998698353767395,usability
13,"As a participant, I want to have a small thumbnail photo displayed near where my cards are played, so that the game is more personal because I see who I'm estimating with.",0.9999545812606812,usability
14,"As a ProspectiveApplicant, I want to research requirements and to select a service, so that I can find the relevant service and/or application type to initiate via the online portal.",0.9989483952522278,usability
15,"As a user, I want to view user documentation for the website, so that I know how to use the web app.",0.9863276481628418,usability
16,"As a user, I want to get feedback when I enter an invalid zip code.",0.9990390539169312,usability
17,"As a moderator, I want to see dates and times in my local timezone, so that I don't have to do timezone conversion myself.",0.9997319579124451,usability
18,"As a FABS user, I want the language on FABS pages to be appropriate for me, so that I am not confused.",0.9989463686943054,usability
19,"As an OlderPerson, I want to insert my meetings into ALFRED using speech. ",0.9998119473457336,usability
20,"As a metadata editor, I would like to be able to add and edit metadata without assistance.",0.9948875308036804,usability
21,"As a Data Consuming User, I want to be able to have stepped zoom on map visualisations, So that I can have better control over the navigation experience inside a map view.",0.999602735042572,usability
22,"As a repository manager, I want to have metadata in additional languages, so that I can allow for multilingual data archive.",0.9983604550361633,usability
23,"As an agency user, I want a landing page to navigate to either FABS or DABS pages, so that I can access both sides of the site.",0.9972562193870544,usability
24,"As a Publisher, I want to see real examples of published packages so that I can understand how useful and simple the datapackage format and the registry is.",0.9974961876869202,usability
25,"As an Agency user, I want to receive a more helpful file-level error when I upload a file with the wrong extension.",0.9992971420288086,usability
26,"As a publisher, I want to be able to check that every time I update my data it is still good, so that I can catch errors early and store reliable data. ",0.9996706247329712,usability
27,"As a Publisher, I want to be warned that a tag exists when I try to overwrite it, so that that I don't accidentally overwrite stable tagged data which is relied on by consumers.",0.9991068243980408,usability
28,"As a user, I want to be able to anonymously view public information, so that I know about recycling centers near me before creating an account.",0.9990538954734802,usability
29,"As a user, I want to view thumbnail sequences of video segments.",0.9961975812911987,usability
30,"As a lab administrator, I want to theme the Web interface graphics/colours.",0.9987912774085999,usability
31,"As a user, I want to be able to use Unicode, so that I can use any language I like.",0.998434841632843,usability
32,"As a FABS user, I do not want  DABS banner messages and vice versa, so that I have the appropriate information for my application.",0.9994927644729614,usability
33,"As a Developer I want to quickly access Broker application data, so that I can investigate issues.",0.98459792137146,usability
34,"As a company, I want to have a website that is easy to use, so that I can upload or delete stuff step by step.",0.997800886631012,usability
35,"As a researcher, I want to have the ability to insert Greek symbols into my logbook entries.",0.9998350143432617,usability
36,"As a Broker user, I want  to help create content mockups, so that I can submit my data efficiently.",0.9950363039970398,usability
37,"As a donor representative, I want to see thumbnails of images, so that I can select which one I want.",0.9996570348739624,usability
38,"As a depositor, I want to have a user interface that is familiar to me, so that I feel like all the University systems are joined up.",0.9993113279342651,usability
39,"As an OlderPerson, I want to receive information from ALFRED by speech technology. ",0.998018741607666,usability
40,"As an OlderPerson, I want to use only well-visible buttons.",0.9983522891998291,usability
41,"As a user, I want to see sensible and predictable URLs, so that the application feels logical and transparent.",0.9996974468231201,usability
42,"As an OlderPerson, I want to use ALFRED as much as possible with speech interaction.",0.9996742010116577,usability
43,"As a user, I want to draw tables using HTML tags as part of the content of a log book page.",0.9980839490890503,usability
44,"As a County Staff Member, I want to create a custom query/report outside of the common querying/reporting functionality, so that I can fulfill a request.",0.9996931552886963,usability
45,"As an OlderPerson, I want to have an ALFRED device that can be easily adapted for user that have visual or hearing troubles.",0.9986053109169006,usability
46,"As an OlderPerson, I want to have an ALFRED device that speaks very slowly and clearly.",0.9982172846794128,usability
47,"As a ResearcherPublisher, I want validate my data with a minimum of clicks, so that I can feel trust in the validity and usefulness of the data. ",0.9996774196624756,usability
48,"As an owner, I only want zero-padded fields, so that I can justify padding.",0.9996875524520874,usability
49,"As an Applicant, I want to Check the Status of a transaction, so that I can understand where the provisioning of my service is in the process, such as information related to service levels, fees, plan review, permit, or inspection results.",0.9998425245285034,usability
50,"As a user, I want more information about how many rows will be published prior to deciding whether to publish.",0.9994556307792664,usability
51,"As an Agency user, I want to accurately see who created a submission, so that I'm not confused about who last updated a submission.",0.9978049397468567,usability
52,"As a Publisher, I want to data to be validated when I publish it, so that that I know immediately if I have accidentally broken my data or have bugs and can take action to correct.",0.9996449947357178,usability
53,"As a participant, I want to always have the cards in the same order across multiple draws, so that it's easy to compare estimates.",0.9990185499191284,usability
54,"As a Data Consuming User, I want to be able to filter, sort and aggregate data by multiple dimensions and measures, So that I can get more granular views on the data.",0.9983665347099304,usability
55,"As a user, I want to have nice error pages when something goes wrong, so that I can trust the system and its developers.",0.9993694424629211,usability
56,"As a UI designer, I want to report to the Agencies about user testing, so that they are aware of their contributions to making Broker a better UX.",0.9994425177574158,usability
57,"As a moderator, I want to add an item to the list of items to be estimated, so that so that we can be flexible and accommodate situations where we think of a new story while playing.",0.9934390187263489,usability
58,"As a user, I want to have the ability to move multiple files around and rearrange them using the Neurohub file browser while processing data.",0.9985087513923645,usability
59,"As a researcher, I want to promote/share my work through interactive maps, so that I can display the range and extent of my work graphically.",0.9990469813346863,usability
60,"As an Owner, I want to create a user testing summary from the UI SME, so that I can know what UI improvements we will follow through on.",0.9887990355491638,usability
61,"As a FABS user, I want to submission errors to accurately represent FABS errors, so that I know why my submission didn't work.",0.9998315572738647,usability
62,"As a user, I want the publish button in FABS to deactivate after I click it while the derivations are happening, so that I cannot click it multiple times for the same submission.",0.999824583530426,usability
63,"As a site visitor, I want to be able to get back to the home page quickly and easily, so that I don't get lost navigating.",0.9989557266235352,usability
64,"As a Data Consuming User, I want to have consistent use of colour on map visualisations, So that I can better understand the visual logic of the map view.",0.9998612403869629,usability
65,"As a depositor, I want to deposit and maintain datasets through Pure, so that I have a single onestop shop for managing my research outputs.",0.9988641738891602,usability
0,"As a systems administrator, I want to be able to control the location of the demo database and I want it to be backed up.",0.9997770190238953,reliability
1,"As a repository administrator, I would like to be able to continue to provide access to the repository in the event that the server fails.",0.9996421337127686,reliability
2,"As a collection curator, I want the repository to queue my collection for replication upon ingest to our remote storage site and to display the remote replication status in each item and component page in the staff interface. I would also like to see a summary of this at the collection level on my dashboard.",0.9999481439590454,reliability
3,"As a depositor, I want to have guarantees about data integrity, so that I can use my data in the future and I can fulfil funder requirements for archival.",0.9992644190788269,reliability
4,"As a researcher, I want to indicate where my data will be stored during the project and where after the project, so that it remains accessible during all stages of the data lifecycle.",0.9998776912689209,reliability
5,"As a collection curator housed in the Protected Data Network, I want my collection to be encrypted with a key maintained on that server, a checksum made and stored of the encrypted file, and the encrypted file replicated to our remote storage site.",0.9989907145500183,reliability
6,"As an Archivist, I want to be able to understand that an error occurred during import and why it might have occurred.",0.9987492561340332,reliability
7,"As a data manager, I want to know whether the data can be reproduced efficiently, so that I can determine whether and how the data has to be stored.",0.9984865188598633,reliability
8,"As a researcher, I want to have services to support the long term curation of data, so that I can be sure that data will not get 'lost' with the passage of time.",0.9979221224784851,reliability
9,"As an app developer, I want to ensure that application creation fails if any of its datasets cannot be created.",0.9992069602012634,reliability
10,"As a fundingbody, I want to be reassured that researchers I fund have robust archival plans for their data, so that I can be sure that funding them is a worthwhile investment.",0.9954727292060852,reliability
11,"As an app developer, I want to ensure that application redeployment fails if any of its datasets cannot be reconfigured.",0.9991554021835327,reliability
12,"As a Consumer, I want to be able to get the data for a data package even if the original data has been moved or removed, so that that I can still use is and my app or analysis keeps working.",0.9975995421409607,reliability
13,"As a system administrator, I want to have a managed backup protocol for the system.",0.9998962879180908,reliability
14,"As a Publisher, I want to publish a data package where its resource data is stored on my servers but the registry caches a copy of that data, so that that if my data is lost or gets broken I still have a copy people can use.",0.9991570711135864,reliability
15,"As an asset manager, I want to be assured that the digital copy I deposit is stored redundantly, so that when one copy suffers destruction or unwanted changes, I still have other good copies to restore from.",0.9995170831680298,reliability
16,"As a Researcher, I want an app that create proxy Data Packages for well know and reliable data, sources, so that I can load high quality data using Data Package tooling. ",0.9891662001609802,reliability
17,"As a repository manager, I want to specify the remote replication policy for each collection. I want to be able to elect to either replicate remotely or not and possibly to replicate beyond the primary remote site. E.g., some collections may not leave Duke, some may be replicated to DuraCloud, and some may be replicated to both DuraCloud and Glacier.",0.9996724128723145,reliability
18,"As an asset manager, I want to be assured that threats to copies in one repository are not automatically incurred by the redundant copies.",0.99988853931427,reliability
19,"As a user, I want to ensure that if reconfiguration of a dataset fails then no changes have taken effect, so that all steps required to reconfigure a dataset must be done as a single atomic action.",0.9997298121452332,reliability
20,"As a Publisher, I want to be able to restore the deleted data package via cli, so that that it is back visible and available to view, download.",0.9993429780006409,reliability
21,"As a library staff member, I want to deliver streaming media from within the repository, so that I can deliver such content in the manner expected and ensure continued access to said content.",0.9999545812606812,reliability
22,"As a pipeline designer, I want to get a meaningful error message when pipeline creation fails when I use an existing dataset as a sink or source, so that I know that the schema or any other property of the dataset is incompatible with what the pipeline requires. ",0.9988341927528381,reliability
23,"As an asset manager, I want to be assured that the redundant copies are continuously monitored for unwanted changes, and that if/when changes do occur, there is a mechanism by which I can determine the original object and restore it to all copies.",0.9999114274978638,reliability
24,"As an OlderPerson, I want to have an ALFRED device that informs me about a low battery when leaving the house. ",0.9991926550865173,reliability
25,"As a library staff member, I want to preserve both the content and the metadata within the repository in a robust manner, so that I can provide stable, long-term access to this material.",0.9989451766014099,reliability
0,"As a PI, I want to know who owns the data, so that I know what I am allowed to do with it.",0.999750554561615,security
1,"As a repository manager, I want to constrain curatorial access to my units assets to staff members of my unit and to DAMS managers having universal access.    ",0.9999545812606812,security
2,"As a collection curator, I want users to be able to contact me directly from the repository to request access to restricted objects.",0.9989687204360962,security
3,"As lab administrator, I want to have increased access to the system to support regular users. ",0.9995167255401611,security
4,"As a member, I want to have the system email me a new password or a password reminder since i have short-term memory problems.",0.9992807507514954,security
5,"As a user, I want to search and discover music using content identification or fingerprinting.",0.9993425011634827,security
6,"As a non-Duke researcher, I and my team need to describe our objects in the repository after they've been deposited if we've been assigned permission to edit metadata.",0.9999545812606812,security
7,"As an Application Administrator, I want to be able to reset a User's password for them.",0.9988356232643127,security
8,"As repository manager, I'd like to be able to view authenticated, active users and anonymous users.",0.999798595905304,security
9,"As a user, I want to link my email account to my profile, so that I can get a temporary password in case I forget my own one.",0.9999268054962158,security
10,"As a researcher,  I want to have the ability to restrict the data I share to certain researchers or groups of researchers.",0.9999051094055176,security
11,"As a Director of Research Integrity, I want to access reports containing details of research projects in which data are classified as sensitive or highly sensitive, so that I can confirm security protocols are applied to these data.",0.9999545812606812,security
12,"As an UnivITservice, I want to integrate the archive with existing university systems such as LDAP, so that the cost of administering the system can be kept low.",0.9983373880386353,security
13,"As an administrator, I want to assign RAC staff to different user groups, so that I can control read/write access.",0.9999545812606812,security
14,"As a Consumer, I want to know that the data I am downloading is good and can be relied on, so that that I don't have to check it myself or run into annoying bugs later on.",0.9989149570465088,security
15,"As an archivist, I want to restrict access to certain files by user, so that I can allow donor representatives to see certain files.",0.9998270869255066,security
16,"As an IT officer, I want to know how secure data is, so that I can ensure legal compliance.",0.9996267557144165,security
17,"As a collection curator housed in the Protected Data Network, I want my collection to be encrypted with a key maintained on that server, a checksum made and stored of the encrypted file, and the encrypted file replicated to our remote storage site.",0.998407781124115,security
18,"As a data manager, I want to know the security requirements of the data, so that I can check whether the data can be kept secure.",0.9996438026428223,security
19,"As a collection curator, I would like to be able to view the permission on my objects all together.",0.9994432330131531,security
20,"As a parent, I want to be able to create an account, so that I can sign up my kids for camp online.",0.9994415640830994,security
21,"As a fundingbody, I want to be reassured that researchers I fund have robust archival plans for their data, so that I can be sure that funding them is a worthwhile investment.",0.9973008036613464,security
22,"As an OlderPerson, I want to be able to manage my privacy and data settings. ",0.9993988275527954,security
23,"As an admin, I want to have all data encrypted, so that important information will not be stolen during a server breach or an attack.",0.9977376461029053,security
24,"As a parent, I want to be able to sign and submit consent forms online, so that I don't have to deal with my child losing a consent form.",0.9997231364250183,security
25,"As a MedicalCaregiver, I want to be sure that the user can decide who has access to her data. ",0.9971237778663635,security
26,"As an OlderPerson, I want to decide who has access to my vital data. ",0.9990696310997009,security
27,"As an archivist, I want to mark groups of files as restricted, so that they don't get shared by mistake.",0.9999545812606812,security
28,"As a User , I want to authenticate using LDAP.",0.9975792765617371,security
29,"As an externalcollaborator, I want to gain privileged access to data for projects in which I am involved, so that I can collaborate effectively.",0.9990436434745789,security
30,"As a moderator, I want to log in using my account name and password, so that I can start using the application.",0.9995228052139282,security
31,"As a moderator, I want to get a password reminder by email, so that I can get back to using the application when I've forgotten my password.",0.9968348145484924,security
32,"As the Digital Records Archivist, I need the batch ingest tool to recognize and set embargoes. Permissions for embargoed items should be allow everyone to view metadata and collection curator and repository administrators to be able to download the files.",0.9998338222503662,security
33,"As an administrator, I want to check that all data has the appropriate security level, so that I can demonstrate compliance.",0.9993817806243896,security
34,"As an OlderPerson, I want to know exactly what ALFRED does with my personal data, and share it only on my specific permission. ",0.9996861219406128,security
35,"As a Publisher, I want to have private data packages, so that I can share just with my team.",0.9973829388618469,security
36,"As a Customer, I want to Create a Customer Portal User Account, so that I can log on to the Customer Portal and perform transactions that first require user authentication.",0.9999545812606812,security
37,"As an archivist, I want to mark individual files as restricted, so that they don't get shared by mistake.",0.9998658895492554,security
38,"As an OlderPerson, I want to use ALFRED to pay for small amounts.",0.998060405254364,security
39,"As a CST, I want to pay an annual fee, so that my CST status is active.",0.9997081160545349,security
40,"As a site member, I want to mark my email address as private even if the rest of my profile is not, so that no one can contact me.",0.9984549283981323,security
41,"As an archivist, I want to add restriction end date information to files, so that I can share files when they become open.",0.9997743964195251,security
42,"As a user,  I want to have the ability to keep my data private on the system, and only share data that I deem should be shared.",0.9997031092643738,security
43,"As a User, I want to authenticate locally.",0.9991686344146729,security
44,"As an IT staff member, I want to know the security requirements of the data, so that I know which kind of security measures to apply.",0.9998461008071899,security
45,"As a authenticateduser, I want to Enter payment information and have my card charged for an individual sponsorship, so that I can pay for an individual sponsorship.",0.999514102935791,security
46,"As a collection curator, I want items to be made available under the permissions they were configured once the embargo date has been reached.",0.9998656511306763,security
47,"As a researcher, I want to secure remote access to the Neurohub node when working away from the laboratory",0.9973056316375732,security
48,"As an institutional data manager, I want to know about the privacy and security requirements of the data, so that I can plan the right storage system and sharing permissions.",0.998543381690979,security
49,"As a researcher, I want to have a group-level repository for sharing papers/reviews/comments with other researchers.",0.9991355538368225,security
50,"As an administrator, I want to limit who can see certain metadata fields, so that I can show or hide things from display based on user groups.",0.9997585415840149,security
51,"As a faculty member, I want to go to my repository dashboard to manage members of my classes. I want to be able to grant submit permissions by pasting in a list of NetIDs, see confirmation that DDR recognizes the NetIDs, ability to manually remove permissions, ability to set begin and end dates for a submission window, and a have a status screen to clearly illustrate who has and hasn't submitted.",0.9999545812606812,security
52,"As a DB/IR administrator, I want to have a personal account with the ability to change passwords to make them more secure or to retrieve forgotten ones.",0.9999545812606812,security
53,As a collection curator I want to be able to change permissions on one or more items simultaneously.,0.9993494153022766,security
54,"As an administrator, I want to create user groups, so that I can control user permissions.",0.9999545812606812,security
55,"As a collection curator, I want to be able require authentication to access objects unless the request is coming from a whitelisted IP address, list of addresses (like the Special Collections Reading Room, or range.",0.9991432428359985,security
56,"As a site editor, I want to be able to indicate whether an article is publicly available or for members only, so that visitors are incentivized to become members.",0.9987152814865112,security
57,"As an administrator, I want to create user roles, so that I can group users by role.",0.9995304346084595,security
58,"As a DB/IR administrator, I want to login to personal account with access to authorized functions.",0.9999008178710938,security
59,"As an Application Administrator, I want to assign Users to an Advanced Data Entry and ensure that the appropriate permissions are enforced.",0.9999043941497803,security
60,"As a library staff member, I want to be able to add custom metadata fields for deposits I make on behalf of researchers to allow for better search capabilities.",0.9984089732170105,security
61,"As a superuser, I should be able to enter and exit the superuser scope.",0.9992720484733582,security
62,"As the Digital Records Archivist, I want to be able to grant embargo privileges to other repository administrators.",0.9992270469665527,security
63,"As a depositor, I want to link datasets with the project DMP, so that compliance with DMP can be demonstrated and whole project workflow is linked together.",0.9990000128746033,security
64,"As the Digital Records Archivist, I want a method to add and remove multiple people to deposit groups in specific collections. Ideally, I'd be able to set a date that the deposit window closes. The permissions conferred on these depositors should pick up on the collection's default permission.",0.9999545812606812,security
65,"As a PI, I want to know how secure data is, so that I can ensure legal compliance.",0.9965978264808655,security
66,"As a user, I want to be able to create an account, so that I can create my own profile.",0.9990178346633911,security
67,"As a DB/IR administrator, I want to administrate patron accounts for purpose of closing accounts, viewing subscriptions, changing subscriptions, resetting passwords, changing email address, etc.",0.9999545812606812,security
68,"As a repository manager, I want to know all the collections for which I have curatorial responsibility. ",0.9987608194351196,security
69,"As User, I want to be able to log in.",0.9973673224449158,security
70,"As a DAMS manager, I want know the dates for when a permission or restriction is active.  ",0.999363362789154,security
71,"As the Digital Records Archivist, I want the repository to lift embargoes on the release date and set the access controls to the configuration set on item on that date.",0.999862551689148,security
72,"As an administrator, I want to allow users to log in using Active Directory credentials, so that I don't have to manage another set of usernames and passwords.",0.9995556473731995,security
73,"As a Platform Administrator, I want to be able to Hide any dataset already added as Public, So that I can maintain Public/Hidden status for other users.",0.999136745929718,security
74,"As a depositor, I want to allow others to deposit on my behalf, so that I can delegate research data management tasks appropriately.",0.9985081553459167,security
75,"As a collection curator, I would like an easy way to create groups of users to manage permissions in the repository.",0.9998583793640137,security
76,"As a FABS user, I want to have read-only access to DABS, so that I can view DABS pages without wanting two sets of permissions.",0.9996758699417114,security
77,"As an administrator, I want to have researchers reset their own passwords, so that I don't have to send passwords in cleartext.",0.9996975660324097,security
78,"As a Researcher, I want results to be stored in a non-identifiable way, so that I can study the data to see things like whether estimates converged around the first opinion given by ""estimator A"" for example.",0.9993288516998291,security
79,"As a library staff member, I want to upload material to the repository on the author's behalf, so that I can fulfill a service obligation.",0.9999439716339111,security
0,"As a developer, I want to have detailed information of what happened when my App crashes on the user's device. ",0.9997987151145935,maintainability
1,"As an admin, I want to view user error logs, so that I can fix or review any issues that are being faced by users of the system.",0.9998959302902222,maintainability
2,"As a dataset developer, I want to deploy a new version of a dataset type without affecting the dataset instances of that type.",0.9997647404670715,maintainability
3,"As an app developer, I want to ensure that when I deploy a new version of an app that includes a shared dataset type that all dataset instances created by this app start using the new code but all dataset instances created by other apps remain unchanged.",0.9999545812606812,maintainability
4,"As a Data Publishing User, I want to be able to edit the model of data I have already imported, So that I can fix bugs or make enhancements in the API built for my data.",0.9998268485069275,maintainability
5,"As a Broker user, I want to have PPoPZIP+4 work the same as the Legal Entity ZIP validations.",0.9991462230682373,maintainability
6,"As a dataset developer, I want to have the option of implementing a migration procedure that can be run after an upgrade of a dataset instance to a new version of it type. ",0.9996697902679443,maintainability
7,"As a developer, I want an online service that is connected to my data repository that validates data on update, so that I can delegate data validation to a third party. ",0.9987472295761108,maintainability
8,"As a team member, I want to have a platform that allows me to rapidly prototype HTML ideas.",0.9996205568313599,maintainability
9,"As a Data Publishing User, I want to have the Packager support Constants, So that I can model dimensions that may not exist in the source file.",0.9986639022827148,maintainability
10,"As a Developer, I want to list all DataPackages requirements for my project in the file and pin the exact versions of any DataPackage that my project depends on, so that that the project can be deterministically deployed locally and won't break because of the DataPackage schema changes. ",0.9996352195739746,maintainability
11,"As an UnivITservice, I want to store archived data on existing storage systems, so that university data storage is consistent and maintainable and future availability of data can be guaranteed.",0.996660590171814,maintainability
12,"As an app developer, I want to share a dataset type across multiple applications that include the dataset type's code in their artifacts.",0.9998076558113098,maintainability
13,"As a developer, I want to use a configuration that is not prepackaged within a built version of application.",0.9978697299957275,maintainability
14,"As a plugin developer, I want to use a custom dataset type that was deployed independently or as part of an app inside the plugin. ",0.9999043941497803,maintainability
15,"As a dataset developer, I want to deploy a dataset type independent from any app and allow apps to create and use dataset instances of that type.",0.9994687438011169,maintainability
16,"As a Developer, I want to be able to customise the Brand Name and Icon, and Primary Color of all frontend Javascript apps, So that I can customise the branding for my own needs.",0.9990198612213135,maintainability
17,"As an NSF administrator, I want to shadow the CMS implementation, so that I can learn as the prototype is developed further.",0.9956933856010437,maintainability
18,"As a release engineer, I want to configure nightly builds that automatically perform a Neurohub installation on a virgin operating system, execute tests and report back results, without requiring any manual input/interaction.",0.9993058443069458,maintainability
19,"As an app developer, I want to ensure that when I deploy a new version of an app that includes an older version of a dataset type deployed by another app and I expect that the dataset instances created by this app use the dataset type code included in this app.",0.9999545812606812,maintainability
20,"As a developer, I want a version of the DDR models gem that uses Active Fedora 9 and passes all tests on Fedora 4.",0.9996203184127808,maintainability
21,"As a Data Publishing User, I want to be able to edit the data source of data I have already imported, So that I can fix bugs or make enhancements in the API built for my data.",0.9998019337654114,maintainability
22,"As a developer, I want to have the API to be well defined and well documented. ",0.9992351531982422,maintainability
23,"As a tester, I want to have access to test features in environments other than Staging, so that I can test any nonProd feature in any environment.",0.9995447993278503,maintainability
24,"As a Web Developer, I want to be able to install multiple versions of the same datapackage separately, so that that all my projects could be developed independently and deployed locally.",0.9998505115509033,maintainability
25,"As a Developer I want to quickly access Broker application data, so that I can investigate issues.",0.9980164766311646,maintainability
26,"As a plugin developer, I want to upgrade the code of a dataset type used by a dataset instance created by that plugin when I deploy a new version of the plugin and update the pipeline to use that version.",0.9999545812606812,maintainability
27,"As a developer, I want to have the API components to be on a high level so that I don't have to deal with their details. ",0.9938321113586426,maintainability
28,"As a developer, I want a version of DUL Hydra that works with Active Fedora 9 and passes all tests.",0.994788646697998,maintainability
29,"As a developer, I want a dummy app to test DDR models on Fedora 4.",0.9998912811279297,maintainability
30,"As an app developer, I want to write unit tests for an app that depends on the interface of a dataset type.",0.9998729228973389,maintainability
31,"As an app developer, I want to ensure that when I deploy a new version of an app that includes a different version of a dataset type deployed by another app and this app shares a dataset instance of this type with the other app the deployment will fail with a version conflict error. ",0.9999545812606812,maintainability
32,"As a user, I want to update the properties of a dataset instance and I expect this to fail if the new properties are not compatible with a meaningful error message.",0.9980809688568115,maintainability
33,"As a Developer , I want to be able to log better, so that I can troubleshoot issues with particular submissions and functions.",0.9996840953826904,maintainability
34,"As a system administrator, I want to run a script that tests to see if a Neurohub installation is functioning correctly.",0.997645914554596,maintainability
35,"As Metadata Architect, I want to be able to use batch tools to ingest, update, and export descriptive and administrative metadata in lieu of METS ingest.",0.9957045912742615,maintainability
36,"As a developer, I want to deposit and maintain datasets via an API such as SWORD2, so that my service can interact with the archive. ",0.9987496137619019,maintainability
37,"As an app developer, I want to only depend on the interface of a dataset type in my app and have the system inject the implementation at runtime.",0.9998849630355835,maintainability
38,"As a release engineer, I want to call a script to execute acceptance tests against a Neurohub installation and report back the results.",0.9996724128723145,maintainability
39,"As a dataset developer, I want to separate the interface from the implementation of a dataset type.",0.9992051720619202,maintainability
40,"As repository developer, I want to find opportunities to merge functionality in batch tools.",0.9968320727348328,maintainability
41,"As a dataset developer, I want to have the option of forcing applications to have the dataset code injected at runtime.",0.9996323585510254,maintainability
42,"As a broker team member, I want to make some updates to the SQL codes for clarity.",0.9991886019706726,maintainability
43,"As an app developer, I want to deploy a new version of a dataset type as part of an app artifact, without affecting other datasets of this type.",0.9996994733810425,maintainability
44,"As a developer, I want to have the ALFRED API to reduce the work to achieve my goals. ",0.999413013458252,maintainability
45,"As an Owner, I want to reset the environment to only take Staging MAX permissions, so that I can ensure that the FABS testers no longer have access.",0.9995290040969849,maintainability
46,"As a data scientist, I want to be able to upgrade a dataset instance to a new version of its code.",0.9910548329353333,maintainability
47,"As a tester, I want to ensure that FABS is deriving fields properly through a robust test file plus a follow up check.",0.9990317821502686,maintainability
48,"As a MedicalCaregiver, I want to have a simple ALFRED unit that is expandable in is functions. ",0.9993118047714233,maintainability
49,"As a UI designer, I want to track the issues that come up in Tech Thursday, so that I know what to test and what want s to be fixed.",0.9998581409454346,maintainability
50,"As a developer, I want a version of the DDR Batch gem that works with Active Fedora 9 and passes all tests on Fedora 4.",0.9996216297149658,maintainability
51,"As a UI designer, I want to report to the Agencies about user testing, so that they are aware of their contributions to making Broker a better UX.",0.9991644620895386,maintainability
52,"As a UI designer, I want to begin user testing, so that I can validate stakeholder UI improvement requests.",0.9969582557678223,maintainability
53,"As a Data Publishing User, I want to know if my CSV file is valid, So that I can fix possible data issues before publishing it on Open Spending.",0.9990329742431641,maintainability
54,"As an Owner, I want to create a user testing summary from the UI SME, so that I can know what UI improvements we will follow through on.",0.9989952445030212,maintainability
0,"As a user, I want to view the group's shared calendars via the Neurohub Nodes' Web page as well as on my mobile device.",0.9997890591621399,portability
1,"As a team member, I want to see the first iteration of beta up on cloud.gov.",0.9999184608459473,portability
2,"As a Developer, I want to list all DataPackages requirements for my project in the file and pin the exact versions of any DataPackage that my project depends on, so that that the project can be deterministically deployed locally and won't break because of the DataPackage schema changes. ",0.9993544220924377,portability
3,"As a system administrator, I want to run a script that installs the Neurohub node onto a virgin Ubuntu operating system.",0.9995679259300232,portability
4,"As an OlderPerson, I want to have ALFRED on all my computers, tablets and phone.",0.9992115497589111,portability
5,"As a plugin developer, I want to use a custom dataset type that was deployed independently or as part of an app inside the plugin. ",0.9999545812606812,portability
6,"As an NSF administrator, I want to shadow the CMS implementation, so that I can learn as the prototype is developed further.",0.9996293783187866,portability
7,"As a release engineer, I want to configure nightly builds that automatically perform a Neurohub installation on a virgin operating system, execute tests and report back results, without requiring any manual input/interaction.",0.9961368441581726,portability
8,"As an app developer, I want to ensure that when I deploy a new version of an app that includes an older version of a dataset type deployed by another app and I expect that the dataset instances created by this app use the dataset type code included in this app.",0.9982359409332275,portability
9,"As a developer, I want a version of the DDR models gem that uses Active Fedora 9 and passes all tests on Fedora 4.",0.9999350309371948,portability
10,"As a Web Developer, I want to be able to install multiple versions of the same datapackage separately, so that that all my projects could be developed independently and deployed locally.",0.9998496770858765,portability
11,"As a Cornell faculty member, I want to search the repository and browse through its contents on my phone, so that I can check things on the go.",0.9993221759796143,portability
12,"As a plugin developer, I want to upgrade the code of a dataset type used by a dataset instance created by that plugin when I deploy a new version of the plugin and update the pipeline to use that version.",0.9982576966285706,portability
13,"As a developer, I want a version of DUL Hydra that works with Active Fedora 9 and passes all tests.",0.9989161491394043,portability
14,"As a developer, I want a dummy app to test DDR models on Fedora 4.",0.998177170753479,portability
15,"As a developer, I want to present my App in several ways. ",0.9991864562034607,portability
16,"As a repository developer, I would like to upgrade to Fedora 4 and migrate our applications and data.",0.9989578723907471,portability
17,"As a system administrator, I want to migrate data from an older version of NeuroHub to the current version.",0.9990687966346741,portability
18,"As a systems administrator, I want  to install Neurohub dependencies into an Ubuntu 10.04 LTS machine using the normal Ubuntu package management tools.",0.9987905621528625,portability
19,"As a developer, I want a version of the DDR Batch gem that works with Active Fedora 9 and passes all tests on Fedora 4.",0.9999297857284546,portability
20,"As a user, I want to be able to access the site and do all the other stuffs on all of my electronic devices.",0.9988127946853638,portability
21,"As a Data Publishing User, I want to know if my CSV file is valid, So that I can fix possible data issues before publishing it on Open Spending.",0.9982001781463623,portability
