,US,pred,label
0,"As an app developer, I want to ensure that application redeployment fails if any of its datasets cannot be reconfigured.",0.9998631477355957,reliability
1,"As an asset manager, I want to be assured that threats to copies in one repository are not automatically incurred by the redundant copies.",0.9784455299377441,reliability
2,"As a repository administrator, I would like to be able to continue to provide access to the repository in the event that the server fails.",0.9877846240997314,reliability
