,US,pred,label
0,"As a developer, I want to have created database indexes, so that the queries run as fast as possible.",0.00016292907821480185,compatibility
1,"As an institutional data manager, I want to know about the privacy and security requirements of the data, so that I can plan the right storage system and sharing permissions.",0.00012275532935746014,compatibility
2,"As a participant, I want to immediately see that an estimate has been given by a specific estimator, so that I know who has already given an estimate and who we're still waiting for.",4.539787187241018e-05,compatibility
3,"As an archive, I want to get information about the volume of data to preserve at an early stage, so that I can provide the adequate storage infrastructure.",0.0006800991832278669,compatibility
4,"As a user, I want to have the application respond quickly to my actions, so that I don't get bored.",0.0004919438506476581,compatibility
5,"As a PI, I want to plan what kind of data I want to record/store, so that I can ensure it will possible to store it.",0.0010355104459449649,compatibility
6,"As an IT staff member, I want to have an estimate of the produced data volume, so that I can plan the overall storage consumption.",0.00017669526278041303,compatibility
7,"As a Cornell faculty member, I want to share on the repository files that are larger than 1GB in a way that still allows users to download them if I want to use them, so that I can meet funder requirements.",0.00011376795737305656,compatibility
8,"As a repository operator, I want to know about the kind of data, so that I can evaluate the storage size and system.",0.0003313114575576037,compatibility
9,"As a Developer, I want D Files generation requests to be managed and cached, so that duplicate requests do not cause performance issues.",0.00019838516891468316,compatibility
10,"As an Agency user, I want to be able to include a large number of flexfields without performance impact.",0.0009389669285155833,compatibility
11,"As an OlderPerson, I want to have a very good battery for ALFRED so I can keep him on the whole day.",9.072216198546812e-05,compatibility
12,"As a user, I want to upload large files of over 1GB in size.",0.000500201596878469,compatibility
13,"As a Researcher, I want an app that create proxy Data Packages for well know and reliable data, sources, so that I can load high quality data using Data Package tooling. ",0.00040711028850637376,compatibility
14,"As a FABS user, I want to have my validations run in a reasonable amount of time.",0.0004999397206120193,compatibility
15,"As a depositor, I want to have a user interface that is familiar to me, so that I feel like all the University systems are joined up.",0.0029655839316546917,compatibility
16,"As a ProspectiveApplicant, I want to research requirements and to select a service, so that I can find the relevant service and/or application type to initiate via the online portal.",0.00030759963556192815,compatibility
17,"As a UI designer, I want to report to the Agencies about user testing, so that they are aware of their contributions to making Broker a better UX.",4.539787187241018e-05,compatibility
18,"As a user, I want to be able to anonymously view public information, so that I know about recycling centers near me before creating an account.",0.00010337422281736508,compatibility
19,"As a FABS user, I do not want  DABS banner messages and vice versa, so that I have the appropriate information for my application.",0.00022070480918046087,compatibility
20,"As a Platform administrator, I want to be able to translate the data types hierarchies of the Viewer while in embed mode, So that my users can understand the interface in their native language.",9.073055116459727e-05,compatibility
21,"As an Agency user, I want to accurately see who created a submission, so that I'm not confused about who last updated a submission.",6.0109468904556707e-05,compatibility
22,"As a Consumer, I want to see some example data packages quickly, so that I get a sense of what is on this site and if it is useful to look further.",4.539787187241018e-05,compatibility
23,"As a Publisher, I want to data to be validated when I publish it, so that that I know immediately if I have accidentally broken my data or have bugs and can take action to correct.",8.501574484398589e-05,compatibility
24,"As a depositor, I want to deposit and maintain datasets through Pure, so that I have a single onestop shop for managing my research outputs.",0.0006126704975031316,compatibility
25,"As a data reuser, I want to access the system in my native language, so that I am not put off reusing University of Bath data by language barriers.",0.0008354989695362747,compatibility
26,"As a ResearcherPublisher, I want to understand the ways in which my data is invalid, so that I can know how to fix it. ",0.0002428824664093554,compatibility
27,"As a participant, I want to always have the cards in the same order across multiple draws, so that it's easy to compare estimates.",0.00013500447676051408,compatibility
28,"As a user, I want to be able to use Unicode, so that I can use any language I like.",0.00028148095589131117,compatibility
29,"As a repository manager, I want to have metadata in additional languages, so that I can allow for multilingual data archive.",0.0008429085137322545,compatibility
30,"As an OlderPerson, I want to use only well-visible buttons.",0.0012109206290915608,compatibility
31,"As a Developer I want to quickly access Broker application data, so that I can investigate issues.",0.0005350142600946128,compatibility
32,"As a Publisher, I want to preview a datapackage I have prepared, so that that I can check it works and share the results.",4.539787187241018e-05,compatibility
33,"As a site editor, I want to have a prominent area on the home page where I can put special announcements not necessarily news or articles, so that I can give them additional exposure.",6.649225542787462e-05,compatibility
34,"As a Data Consuming User, I want to be able to filter, sort and aggregate data by multiple dimensions and measures, So that I can get more granular views on the data.",0.0003731593897100538,compatibility
35,"As an OlderPerson, I want to receive information from ALFRED by speech technology. ",0.00017126947932410985,compatibility
36,"As a publisher, I want to be able to check that every time I update my data it is still good, so that I can catch errors early and store reliable data. ",7.930878200568259e-05,compatibility
37,"As a FABS user, I want the frontend URLs to more accurately reflect the page I'm accessing, so that I'm not confused.",0.0001320025767199695,compatibility
38,"As a moderator, I want to add an item to the list of items to be estimated, so that so that we can be flexible and accommodate situations where we think of a new story while playing.",0.00016879031318239868,compatibility
39,"As a site visitor, I want to be able to get back to the home page quickly and easily, so that I don't get lost navigating.",0.00019058043835684657,compatibility
40,"As an OlderPerson, I want to use ALFRED as much as possible with speech interaction.",0.0028963664080947638,compatibility
41,"As a Data Consuming User, I want to be able to have stepped zoom on map visualisations, So that I can have better control over the navigation experience inside a map view.",0.00020491291070356965,compatibility
42,"As a user, I want to have the ability to move multiple files around and rearrange them using the Neurohub file browser while processing data.",0.00041462050285190344,compatibility
43,"As a developer, I want to have the site comply with the W3C accessibility guidelines where possible, so that people with accessibility issues can use the application.",0.00011968243052251637,compatibility
44,"As a Data Consuming User, I want to have consistent use of colour on map visualisations, So that I can better understand the visual logic of the map view.",0.0002549466153141111,compatibility
45,"As an Agency user, I want to receive a more helpful file-level error when I upload a file with the wrong extension.",0.00022667522716801614,compatibility
46,"As a participant, I want to have a small thumbnail photo displayed near where my cards are played, so that the game is more personal because I see who I'm estimating with.",8.995075040729716e-05,compatibility
47,"As a FABS user, I want the language on FABS pages to be appropriate for me, so that I am not confused.",0.00010726391337811947,compatibility
48,"As a Staff member, I need to be notified when Geospatial attributes change, so that I can ensure that I am reviewing the permit/application to the most current data and appropriate standards.",6.581491470569745e-05,compatibility
49,"As a trainer, I want to be assured that no one can submit the same answers multiple time and skew my results, so that my ratings are accurate.",0.0003072262625209987,compatibility
50,"As a user, I want to navigate forwards and backwards between log books and log book pages without having to use my browser's back button.",7.36824149498716e-05,compatibility
51,"As an archivist, I want to search images by uploading an image, so that so I can find images when i don't have any metadata.",0.00011109054321423173,compatibility
52,"As a publisher, I want to embed a preview button on my site, so that users can preview the data and be encouraged that this is the correct data for them.",4.539787187241018e-05,compatibility
53,"As a UI designer, I want to redesign the Resources page, so that it matches the new Broker design styles.",0.0001650396443437785,compatibility
54,"As a moderator, I want to see dates and times in my local timezone, so that I don't have to do timezone conversion myself.",0.00038830647827126086,compatibility
55,"As a Publisher, I want to see real examples of published packages so that I can understand how useful and simple the datapackage format and the registry is.",4.539787187241018e-05,compatibility
56,"As a Publisher, I want to be warned that a tag exists when I try to overwrite it, so that that I don't accidentally overwrite stable tagged data which is relied on by consumers.",0.00015739888476673514,compatibility
57,"As a Broker user, I want  to help create content mockups, so that I can submit my data efficiently.",0.0009488206706009805,compatibility
58,"As a user, I want the flexfields in my submission file to appear in the warning and error files when the only error is a missing required element.",0.0001821320183807984,compatibility
59,"As a user, I want to view user documentation for the website, so that I know how to use the web app.",0.00014410560834221542,compatibility
60,"As a researcher, I want to have the ability to insert Greek symbols into my logbook entries.",0.00044768507359549403,compatibility
61,"As an Applicant, I want to Check the Status of a transaction, so that I can understand where the provisioning of my service is in the process, such as information related to service levels, fees, plan review, permit, or inspection results.",7.436061423504725e-05,compatibility
62,"As a researcher, I want to promote/share my work through interactive maps, so that I can display the range and extent of my work graphically.",0.00026216532569378614,compatibility
63,"As an Agency user, I want to better understand my file-level errors.",0.0008301663910970092,compatibility
64,"As a donor representative, I want to see thumbnails of images, so that I can select which one I want.",0.0002458476519677788,compatibility
65,"As a user, I want to get feedback when I enter an invalid zip code.",0.00016794393013697118,compatibility
66,"As an app developer, I want to ensure that application redeployment fails if any of its datasets cannot be reconfigured.",7.680265844101086e-05,compatibility
67,"As a fundingbody, I want to be reassured that researchers I fund have robust archival plans for their data, so that I can be sure that funding them is a worthwhile investment.",9.910613152896985e-05,compatibility
68,"As a Publisher, I want to publish a data package where its resource data is stored on my servers but the registry caches a copy of that data, so that that if my data is lost or gets broken I still have a copy people can use.",0.00016089905693661422,compatibility
69,"As a data manager, I want to know whether the data can be reproduced efficiently, so that I can determine whether and how the data has to be stored.",0.00010679424303816631,compatibility
70,"As a Consumer, I want to be able to get the data for a data package even if the original data has been moved or removed, so that that I can still use is and my app or analysis keeps working.",0.0004267715266905725,compatibility
71,"As an asset manager, I want to be assured that threats to copies in one repository are not automatically incurred by the redundant copies.",0.00043777923565357924,compatibility
72,"As a pipeline designer, I want to get a meaningful error message when pipeline creation fails when I use an existing dataset as a sink or source, so that I know that the schema or any other property of the dataset is incompatible with what the pipeline requires. ",4.539787187241018e-05,compatibility
73,"As a repository administrator, I would like to be able to continue to provide access to the repository in the event that the server fails.",0.0008901058463379741,compatibility
74,"As an OlderPerson, I want to have an ALFRED device that informs me about a low battery when leaving the house. ",0.00012291004532016814,compatibility
75,"As a collection curator, I want the repository to queue my collection for replication upon ingest to our remote storage site and to display the remote replication status in each item and component page in the staff interface. I would also like to see a summary of this at the collection level on my dashboard.",0.00023947146837599576,compatibility
76,"As a user, I want to ensure that an update of explore never leads to silent loss of data or data available for explore. ",0.00019870720279868692,compatibility
77,"As an asset manager, I want to be assured that the digital copy I deposit is stored redundantly, so that when one copy suffers destruction or unwanted changes, I still have other good copies to restore from.",0.0005166530609130859,compatibility
78,"As a researcher, I want to indicate where my data will be stored during the project and where after the project, so that it remains accessible during all stages of the data lifecycle.",0.00028016368742100894,compatibility
79,"As a library staff member, I want to deliver streaming media from within the repository, so that I can deliver such content in the manner expected and ensure continued access to said content.",0.0004148634907323867,compatibility
80,"As a systems administrator, I want to be able to control the location of the demo database and I want it to be backed up.",0.000247989286435768,compatibility
81,"As a Researcher, I want an app that create proxy Data Packages for well know and reliable data, sources, so that I can load high quality data using Data Package tooling. ",0.00040711028850637376,compatibility
82,"As a depositor, I want to have guarantees about data integrity, so that I can use my data in the future and I can fulfil funder requirements for archival.",0.0008462120313197374,compatibility
83,"As a collection curator housed in the Protected Data Network, I want my collection to be encrypted with a key maintained on that server, a checksum made and stored of the encrypted file, and the encrypted file replicated to our remote storage site.",0.001189659466035664,compatibility
84,"As a Consumer, I want to know that the data I am downloading is good and can be relied on, so that that I don't have to check it myself or run into annoying bugs later on.",6.186922109918669e-05,compatibility
85,"As the Digital Records Archivist, I want a method to add and remove multiple people to deposit groups in specific collections. Ideally, I'd be able to set a date that the deposit window closes. The permissions conferred on these depositors should pick up on the collection's default permission.",5.0291124352952465e-05,compatibility
86,"As a moderator, I want to get a password reminder by email, so that I can get back to using the application when I've forgotten my password.",0.00019409487140364945,compatibility
87,"As an administrator, I want to limit who can see certain metadata fields, so that I can show or hide things from display based on user groups.",4.883341898676008e-05,compatibility
88,"AS an externalcoordinator, I want to access data from Bath collaborators off campus, so that I can collaborate effectively.",0.0017632212257012725,compatibility
89,"As an IT staff member, I want to know the security requirements of the data, so that I know which kind of security measures to apply.",4.539787187241018e-05,compatibility
90,"As a parent, I want to be able to sign and submit consent forms online, so that I don't have to deal with my child losing a consent form.",0.0016399207524955273,compatibility
91,"As an externalcollaborator, I want to gain privileged access to data for projects in which I am involved, so that I can collaborate effectively.",0.0018697530031204224,compatibility
92,"As a PI, I want to know who owns the data, so that I know what I am allowed to do with it.",0.0005877180374227464,compatibility
93,"As a researcher, I want to secure remote access to the Neurohub node when working away from the laboratory",0.0008341355132870376,compatibility
94,"As a repository manager, I want to know all the collections and objects in the DAMS for which I have custodial responsibility.  ",0.0013895260635763407,compatibility
95,"As an administrator, I want to assign rights to user groups or roles, so that I can control what users can and can't do.",0.0003315465583000332,compatibility
96,"As a member, I want to have the system email me a new password or a password reminder since i have short-term memory problems.",0.0004993450711481273,compatibility
97,"As an institutional data manager, I want to know about the privacy and security requirements of the data, so that I can plan the right storage system and sharing permissions.",0.00012275532935746014,compatibility
98,"As a Director of Research Integrity, I want to access reports containing details of research projects in which data are classified as sensitive or highly sensitive, so that I can confirm security protocols are applied to these data.",0.00011660046584438533,compatibility
99,"As a collection curator, I want to be able require authentication to access objects unless the request is coming from a whitelisted IP address, list of addresses (like the Special Collections Reading Room, or range.",0.0005523607251234353,compatibility
100,"As a User, I want to authenticate locally.",0.0031491408590227365,compatibility
101,"As a site editor, I want to be able to indicate whether an article is publicly available or for members only, so that visitors are incentivized to become members.",4.539787187241018e-05,compatibility
102,"As a library staff member, I want to upload material to the repository on the author's behalf, so that I can fulfill a service obligation.",0.00039730308344587684,compatibility
103,"As an administrator, I want to check that all data has the appropriate security level, so that I can demonstrate compliance.",0.0001251293724635616,compatibility
104,"As a collection curator, I want to restrict access to my collection or items to Duke IP addresses.",0.0006596988532692194,compatibility
105,"As a researcher,  I want to have the ability to restrict the data I share to certain researchers or groups of researchers.",0.00019524083472788334,compatibility
106,"As a DB/IR administrator, I want to set up or delete accounts for other administrators with various levels of permission.",0.00011774717859225348,compatibility
107,"As a superuser, I should be able to enter and exit the superuser scope.",0.0004835650324821472,compatibility
108,"As an Application Administrator, I want to assign Users to an Advanced Data Entry and ensure that the appropriate permissions are enforced.",4.539787187241018e-05,compatibility
109,"As an OlderPerson, I want to decide who has access to my vital data. ",0.0002410934685030952,compatibility
110,"As an archivist, I want to add detailed restrictions to groups of files, so that I know if and how they can be shared.",0.00020721854525618255,compatibility
111,"As a DB/IR administrator, I want to have a personal account with the ability to change passwords to make them more secure or to retrieve forgotten ones.",0.0001433470461051911,compatibility
112,"As a Platform Administrator, I want to be able to Hide any dataset already added as Public, So that I can maintain Public/Hidden status for other users.",0.0006931772222742438,compatibility
113,"As lab administrator, I want to have increased access to the system to support regular users. ",0.0003540243487805128,compatibility
114,"As a user, I want to have my personal information kept securely in the database of the website, so that I will not suffer from identity theft or telephone harassment.",0.00030684747616760433,compatibility
115,"As a Customer, I want to Create a Customer Portal User Account, so that I can log on to the Customer Portal and perform transactions that first require user authentication.",0.00013498298358172178,compatibility
116,"As an archivist, I want to restrict access to some files by IP address, so that I can give reading room access only to certain digital files.",0.0002329514391021803,compatibility
117,"As a user,  I want to have the ability to keep my data private on the system, and only share data that I deem should be shared.",0.0007787450449541211,compatibility
118,"As a repository manager, I want to know all the collections for which I have curatorial responsibility. ",0.0017942794365808368,compatibility
119,"As an administrator, I want to have researchers reset their own passwords, so that I don't have to send passwords in cleartext.",0.0004775983979925513,compatibility
120,"As an archivist, I want to mark individual files as restricted, so that they don't get shared by mistake.",0.0004507132398430258,compatibility
121,"As a authenticateduser, I want to Enter payment information and have my card charged for an individual sponsorship, so that I can pay for an individual sponsorship.",0.0003148264077026397,compatibility
122,"As an admin, I want to be able to block specific users based on IP address, so that I can prevent spamming on the websites.",0.0003366715391166508,compatibility
123,"As an admin, I want to have all data encrypted, so that important information will not be stolen during a server breach or an attack.",0.00017367473628837615,compatibility
124,"As a DB/IR administrator, I want to administrate patron accounts for purpose of closing accounts, viewing subscriptions, changing subscriptions, resetting passwords, changing email address, etc.",5.7411401940044016e-05,compatibility
125,"As a collection curator, I want users to be able to contact me directly from the repository to request access to restricted objects.",0.0007316842675209045,compatibility
126,"As a site member, I want to mark my email address as private even if the rest of my profile is not, so that no one can contact me.",0.0005096019594930112,compatibility
127,"As a parent, I want to be able to create an account, so that I can sign up my kids for camp online.",0.00019774987595155835,compatibility
128,"As a faculty member, I want to go to my repository dashboard to manage members of my classes. I want to be able to grant submit permissions by pasting in a list of NetIDs, see confirmation that DDR recognizes the NetIDs, ability to manually remove permissions, ability to set begin and end dates for a submission window, and a have a status screen to clearly illustrate who has and hasn't submitted.",4.539787187241018e-05,compatibility
129,"As a collection curator, I want to allow some collections the option of setting an embargo date (e.g. 2017-01-01)at deposit. Item metadata should be discoverable until that date. Once the embargo date is reached, the embargo should be lifted and access to the item should be allowed under the access permissions set on the object.",4.539787187241018e-05,compatibility
130,"As the Digital Records Archivist, I want to be able to grant embargo privileges to other repository administrators.",0.00182522798422724,compatibility
131,"As a user, I want to be able to create an account, so that I can create my own profile.",0.00032442627707496285,compatibility
132,As a collection curator I want to be able to change permissions on one or more items simultaneously.,0.0005741034401580691,compatibility
133,"As an archivist, I want to restrict access to certain files by user, so that I can allow donor representatives to see certain files.",9.761510591488332e-05,compatibility
134,"As a Publisher, I want to have private data packages, so that I can share just with my team.",0.00030692588188685477,compatibility
135,"As repository manager, I'd like to be able to view authenticated, active users and anonymous users.",0.0003282023244537413,compatibility
136,"As a MedicalCaregiver, I want to be sure that the user can decide who has access to her data. ",0.00032682096934877336,compatibility
137,"As User, I want to be able to log in.",0.001944442163221538,compatibility
138,"As an administrator, I want to create user groups, so that I can control user permissions.",0.00041410367703065276,compatibility
139,"As a Researcher, I want results to be stored in a non-identifiable way, so that I can study the data to see things like whether estimates converged around the first opinion given by ""estimator A"" for example.",0.00036269534029997885,compatibility
140,"As a non-Duke researcher, I and my team need to describe our objects in the repository after they've been deposited if we've been assigned permission to edit metadata.",0.0004201446135994047,compatibility
141,"As a fundingbody, I want to be reassured that researchers I fund have robust archival plans for their data, so that I can be sure that funding them is a worthwhile investment.",9.910613152896985e-05,compatibility
142,"As a moderator, I want to create an account for the application by entering my name, email address, a password and a username, so that I can start using the application.",7.396647561108693e-05,compatibility
143,"As a CST, I want to pay an annual fee, so that my CST status is active.",0.0001444520166842267,compatibility
144,"As a developer, I want a dummy app to test DDR models on Fedora 4.",0.0001512207672931254,compatibility
145,"As repository developer, I want to find opportunities to merge functionality in batch tools.",0.0011516140075400472,compatibility
146,"As a developer, I want to have the ALFRED API to reduce the work to achieve my goals. ",0.0008122891886159778,compatibility
147,"As a dataset developer, I want to deploy a new version of a dataset type without affecting the dataset instances of that type.",0.000146378661156632,compatibility
148,"As an app developer, I want to ensure that when I deploy a new version of an app that includes an older version of a dataset type deployed by another app and I expect that the dataset instances created by this app use the dataset type code included in this app.",4.539787187241018e-05,compatibility
149,"As a tester, I want to have access to test features in environments other than Staging, so that I can test any nonProd feature in any environment.",9.131652768701315e-05,compatibility
150,"As a user, I want to update the properties of a dataset instance and I expect this to fail if the new properties are not compatible with a meaningful error message.",0.00020808435510843992,compatibility
151,"As a Developer I want to quickly access Broker application data, so that I can investigate issues.",0.0005350142600946128,compatibility
152,"As a Web Developer, I want to be able to install multiple versions of the same datapackage separately, so that that all my projects could be developed independently and deployed locally.",0.00012225430691614747,compatibility
153,"As a plugin developer, I want to use a custom dataset type that was deployed independently or as part of an app inside the plugin. ",0.00012231948494445533,compatibility
154,"As a developer, I want to have the API to be well defined and well documented. ",0.000928173481952399,compatibility
155,"As a UI designer, I want to report to the Agencies about user testing, so that they are aware of their contributions to making Broker a better UX.",4.539787187241018e-05,compatibility
156,"As an Owner, I want to reset the environment to only take Staging MAX permissions, so that I can ensure that the FABS testers no longer have access.",0.00018938034190796316,compatibility
157,"As a Developer , I want to be able to log better, so that I can troubleshoot issues with particular submissions and functions.",0.0004501707444433123,compatibility
158,"As a dataset developer, I want to have the option of implementing a migration procedure that can be run after an upgrade of a dataset instance to a new version of it type. ",9.746321302372962e-05,compatibility
159,"As an app developer, I want to deploy a new version of a dataset type as part of an app artifact, without affecting other datasets of this type.",0.00014845946861896664,compatibility
160,"As a dataset developer, I want to separate the interface from the implementation of a dataset type.",0.0006994481082074344,compatibility
161,"As a developer, I want a version of the DDR Batch gem that works with Active Fedora 9 and passes all tests on Fedora 4.",0.00019500902271829545,compatibility
162,"As a UI designer, I want to track the issues that come up in Tech Thursday, so that I know what to test and what want s to be fixed.",0.0003158109320793301,compatibility
163,"As an NSF administrator, I want to shadow the CMS implementation, so that I can learn as the prototype is developed further.",0.00011307241948088631,compatibility
164,"As an app developer, I want to deploy a new version of a dataset type as part of deploying a new version of the app that includes it and I expect that all dataset instances of that type that were created as part of the app deployment start using the new code.",4.539787187241018e-05,compatibility
165,"As an app developer, I want to ensure that when I deploy a new version of an app that includes a shared dataset type that all dataset instances created by this app start using the new code but all dataset instances created by other apps remain unchanged.",4.539787187241018e-05,compatibility
166,"As a dataset developer, I want to deploy a dataset type independent from any app and allow apps to create and use dataset instances of that type.",0.00012329165474511683,compatibility
167,"As a Developer, I want to be able to customise the Brand Name and Icon, and Primary Color of all frontend Javascript apps, So that I can customise the branding for my own needs.",0.00013846253568772227,compatibility
168,"As a developer, I want to use a configuration that is not prepackaged within a built version of application.",0.0008710448746569455,compatibility
169,"As an Owner, I want to create a user testing summary from the UI SME, so that I can know what UI improvements we will follow through on.",0.0015361163532361388,compatibility
170,"As a UI designer, I want to begin user testing, so that I can validate stakeholder UI improvement requests.",0.00019526130927260965,compatibility
171,"As a dataset developer, I want to have the option of forcing applications to have the dataset code injected at runtime.",0.0002917711972258985,compatibility
172,"As a developer, I want a version of the DDR models gem that uses Active Fedora 9 and passes all tests on Fedora 4.",0.00014770051348023117,compatibility
173,"As an app developer, I want to ensure that when I deploy a new version of an app that includes a different version of a dataset type deployed by another app and this app shares a dataset instance of this type with the other app the deployment will fail with a version conflict error. ",4.539787187241018e-05,compatibility
174,"As an app developer, I want to only depend on the interface of a dataset type in my app and have the system inject the implementation at runtime.",0.00029429083224385977,compatibility
175,"As a data scientist, I want to be able to upgrade a dataset instance to a new version of its code.",0.00024120081798173487,compatibility
176,"As a broker team member, I want to make some updates to the SQL codes for clarity.",0.0003591256681829691,compatibility
177,"As an admin, I want to view user error logs, so that I can fix or review any issues that are being faced by users of the system.",4.539787187241018e-05,compatibility
178,"As a plugin developer, I want to upgrade the code of a dataset type used by a dataset instance created by that plugin when I deploy a new version of the plugin and update the pipeline to use that version.",4.539787187241018e-05,compatibility
179,"As a team member, I want to see the first iteration of beta up on cloud.gov.",0.00017377446056343615,compatibility
180,"As a developer, I want a dummy app to test DDR models on Fedora 4.",0.0001512207672931254,compatibility
181,"As a developer, I want a version of the DDR models gem that uses Active Fedora 9 and passes all tests on Fedora 4.",0.00014770051348023117,compatibility
182,"As an NSF administrator, I want to shadow the CMS implementation, so that I can learn as the prototype is developed further.",0.00011307241948088631,compatibility
183,"As a developer, I want a version of the DDR Batch gem that works with Active Fedora 9 and passes all tests on Fedora 4.",0.00019500902271829545,compatibility
184,"As a system administrator, I want to migrate data from an older version of NeuroHub to the current version.",0.0007636236841790378,compatibility
185,"As a repository developer, I would like to upgrade to Fedora 4 and migrate our applications and data.",0.0023182088043540716,compatibility
186,"As a release engineer, I want to configure nightly builds that automatically perform a Neurohub installation on a virgin operating system, execute tests and report back results, without requiring any manual input/interaction.",4.63330143247731e-05,compatibility
187,"As an Admin, I want to set key configuration parameters for my site deployment, so that that I can change key information like the site title.",4.539787187241018e-05,compatibility
188,"As a developer, I want to present my App in several ways. ",0.0013858098536729813,compatibility
189,"As a Web Developer, I want to be able to install multiple versions of the same datapackage separately, so that that all my projects could be developed independently and deployed locally.",0.00012225430691614747,compatibility
190,"As a system administrator, I want to run a script that installs the Neurohub node onto a virgin Ubuntu operating system.",0.0005187455681152642,compatibility
191,"As a Cornell faculty member, I want to search the repository and browse through its contents on my phone, so that I can check things on the go.",0.0004344244080130011,compatibility
192,"As a user, I want to view all locations of recycling centers on a map, so that I can check which routes to take to drop off waste.",0.0004650829650927335,compatibility
193,"As a user, I want to configure time-to-live in a uniform way across all dataset types.",0.0004700620484072715,compatibility
194,"As a DAMS manager, I want to indicate the source-capture information for a file where it is useful to do so. ",0.00041315160342492163,compatibility
195,"As a researcher, I want to see the sections on costing by other researchers in my department, so that I can see if we could share data manager posts.",0.00015492193051613867,compatibility
196,"As a user researcher, I want to test the user research plan, so that I make sure the in-person interviews are effective and capturing the right information.",0.0003752410993911326,compatibility
197,"As a sponsor, I want to link BADCamp attendees to my sponsorship page, so that I can show off our level of attendance.",0.00042536359978839755,compatibility
198,"As a Staff member, I want to Send a Formal Response to Applicant, so that I can satisfy communication and records responsibilities.",0.0006472832174040377,compatibility
199,"As an NSF employee, I want to have a final workshop to identify key lessons and features for the content management system decision.",8.735884330235422e-05,compatibility
200,"As a Cornell faculty member, I want to upload data and provide a cut and paste formatted citation for people who use it, so that I receive proper attribution for my work.",0.00010147180000785738,compatibility
201,"As a user, I want to get info about perceptually similar video items and segments.",0.00031684021814726293,compatibility
202,"As an archivist, I want to automatically assign unique identifiers to material I scan, so that I avoid potential errors.",0.0001098224165616557,compatibility
203,"As an NSF employee, I want to know how brand guidelines are developed and maintained, so that I can incorporate them throughout the project.",4.539787187241018e-05,compatibility
204,"As a VisualDesigner, I want to demonstrate the value of visual design to the NSF project team, so that visual design is an integral part of a redesign.",5.1253253332106397e-05,compatibility
205,"As a site visitor, I want to view a course I can click on the trainer's name and be taken to the trainer's profile, so that I can read more about a trainer before registering for a course.",4.539787187241018e-05,compatibility
206,"As a researcher, I want to have a timeline display of multiple data files and their associated images, so that I can compare the data taken from experiments on particular dates.",4.539787187241018e-05,compatibility
207,"As a recyclingfacility, I want to be able to communicate directly with the site admin and convey any issues or concerns I have, so that they fix them.",0.00014641857706010342,compatibility
208,"As an Applicant, I want to Submit Supporting Documentation, so that I can satisfy documentation requirements for my application.",0.00015463843010365963,compatibility
209,"As a DAMS manager, I want to know the outcome of the event, e.g., object NN was deleted. ",0.0005166355986148119,compatibility
210,"As a camp administrator, I want to be able to set a reminders related to specific tasks that has to be done.",4.9458336434327066e-05,compatibility
211,"As a user, I want to contact the administrators, so that I can give feedback or ask for help.",0.00018047899357043207,compatibility
212,"As a site administrator, I want to create an Other Course or Event that is not charged a listing fee, so that the Scrum Alliance doesn't charge itself for Scrum Gatherings that it puts on.",4.539787187241018e-05,compatibility
213,"As a team member, I want to have a prioritized list of features and elements of a future social element page, so that I can work with the engineers to determine feasibility.",0.000802810478489846,compatibility
214,"As a user researcher, I want to conduct a user definition workshop with NSF, so that I can better prepare them and the team for future research work.",0.0002088195615215227,compatibility
215,"As an OlderPerson, I want to have some games that show me how good my memory and physical health is. ",0.0003805511223617941,compatibility
216,"As a user, I want to take a picture or upload an image, so that I am recommended with videos related to that picture or image.",0.0003599465708248317,compatibility
217,"As an archivist, I want to apply automatic contrast and level operations to a scanned file, so that I can eliminate unnecessary work.",0.0014168216148391366,compatibility
218,"As a anonymoususer, I want to learn about sponsorship levels, so that I can determine the right level of sponsorship for my organization.",9.917949500959367e-05,compatibility
219,"As an OlderPerson, I want to have ALFRED ask spontaneous questions but it would be better to programme it during certain times of the day. ",0.00025500470655970275,compatibility
220,"As a camp administrator, I want to be quickly log attendance everyday, so that I can track which kids are coming in.",0.00031505641527473927,compatibility
221,"As a Consumer, I want to download a Data package at a particular version, so that that I know it is compatible with my scripts and system.",0.00032494383049197495,compatibility
222,"As a site editor, I want to update any course or event, so that I can fix things the original author hasn't.",0.00010419236059533432,compatibility
223,"As a Basic Data Entry user , I want to create and update basic archival description information.",0.00020479844533838332,compatibility
224,"As a hydrator user, I want to create a pipeline that reads or writes a new dataset instance and I want to create that dataset instance as part of pipeline creation.",5.580584183917381e-05,compatibility
225,"As a team member, I want to have a prototype strategy, so that I understand how we will gain understandings from tests that will drive recommendations.",7.76808665250428e-05,compatibility
226,"As an archivist, I want to find files that cannot be made publicly available, so that I can easily access everything that's been digitized.",0.0011525633744895458,compatibility
227,"As a site member, I want to describe myself on my own page in a semi-structured way, so that others can learn about me.",9.499748557573184e-05,compatibility
228,"As a hydrator user, I want to specify an explicit version of the dataset types of the dataset instances created by my pipeline and I expect pipeline creation to fail if that results in incompatible upgrade of an existing dataset instance that is shared with other apps or pipelines.",0.0018338653026148677,compatibility
229,"As a user, I want to scope by searches by name to a specific role such as illustrator, photographer, etc.",8.87559144757688e-05,compatibility
230,"As a Zooniverse admin, I want to know when I should interrupt a volunteer.",0.0007123244577087462,compatibility
231,"As a User, I want to be able to set my own username, So that my data is more easily discoverable.",0.0006668414571322501,compatibility
232,"As a camp administrator, I want to be able to add campers, so that I can keep track of each individual camper.",0.00013947865227237344,compatibility
233,"As a camp administrator, I want to be able to notify parents all at once, so that they can be notified of any upcoming events.",0.0002479159738868475,compatibility
234,"As an archivist, I want to automatically generate technical metadata, so that I know the file size.",0.002665865235030651,compatibility
235,"As an archivist, I want to see what a particular user has downloaded, so that I can track use of assets.",0.0019184090197086334,compatibility
236,"As a user, I want to make uploaded data files to be non-modifiable.",0.0005461059627123177,compatibility
237,"As a Developer , I want to determine how agencies will generate and validate D Files from FABS and FPDS data.",0.0006382436258718371,compatibility
238,"As a user, I want to search and discover music by exploiting enriched metadata and image tags, so that I find related artists, new genre, or other relevant listening path.",8.821741357678548e-05,compatibility
239,"As a SocialCaregiver, I want to have ALFRED to be able to recognize pain and or stress by using skin conduction sensors. ",0.0002534314407967031,compatibility
240,"As a camp administrator, I want to be able to add parents, so that they can enroll their kids at camp.",0.00015195476589724422,compatibility
241,"As an Agency user, I want all historical Financial Assistance data loaded for FABS go-live.",0.005544053856283426,compatibility
242,"As an archivemanager, I want to reuse the information regarding file format, so that I can apply automated checks for the file validation.",0.0001420652261003852,compatibility
243,"As a parent, I want to be able to see and edit my enrolled children to the camp year, so that I can know who I already enrolled to camp, who is still pending admission etc.",5.6623499403940514e-05,compatibility
244,"As a data manager, I want to know what the content of the data is, so that I can decide to which collection or repository the data fits.",0.005497555714100599,compatibility
245,"As a user researcher, I want to make sure the correct NSF people are invited to user interviews, so that they can observe the interviews and make recommendations accordingly.",0.00018036665278486907,compatibility
246,"As a administrator, I want to create and maintain venues, so that I can provide location details to help users find what they're looking for.",4.539787187241018e-05,compatibility
247,"As an archivist, I want to view physical locations for non-archival material, so that I can provide research services to donors.",0.00016071721620392054,compatibility
248,"As a user researcher, I want to know when outreach to lists is successful, so that I can plan on a new release to the next listserv on the priority list.",0.00019241600239183754,compatibility
249,"As a repository manager, I want to indicate subjects related to the collection.  ",0.0008197138085961342,compatibility
250,"As a Cornell faculty member, I want to create a collection for my documents, or my organization's documents, and apply some distinctive branding to that collection, so that I can promote my work, or that of my organization.",0.00018729099247138947,compatibility
251,"As a developer, I want to be notified as soon as possible when the state of any of my Apps changes. ",0.0001008587350952439,compatibility
252,"As an Owner, I want to design a schedule from the UI SME, so that I know the potential timeline of the UI improvements wanted.",7.979306974448264e-05,compatibility
253,"As a trainer, I want to create an Other Course or Event I am charged a listing fee for that activity, so that I don't list events I don't really intend to hold.",0.00038186830352060497,compatibility
254,"As a anonymoususer, I want to learn about posting jobs as a sponsor and contact the sponsorship person, so that I have the opportunty to post my job listing on the BADCamp site.",4.539787187241018e-05,compatibility
255,"As a supervisor, I want to create feedback forms within Neurohub, that my students can fill in and submit, in order to provide me with feedback about the course that they attended.",0.0005869466112926602,compatibility
256,"As a Publisher, I want to be able to overwrite the previously tagged datapackage, so that that I can fix it if I mess up.",0.0007262559374794364,compatibility
257,"As a camp administrator, I want to be able to assign different positions to the staff members, so that it is possible to organize activities in terms of responsibilities.",4.539787187241018e-05,compatibility
258,"As a faculty member, I want to maintain versioning of Extension brochures, FAQs, etc., so that only the most current are used/adapted by other CCE Educators in their work.",6.24989188509062e-05,compatibility
259,"As a trainingcoordinator, I want to have an admin view where all trainee information is shown and can be filtered to show a single training session, so that I can see WTF is happening.",0.00013001954357605428,compatibility
260,"As an API User, I want to be able to dynamically request polygons based on the query made, So that I can provide maps that match the query.",0.0019776630215346813,compatibility
261,"As a data depositor, I'd like to use the Simple Ingest Format to add items to an existing collection.",0.007522853557020426,compatibility
262,"As a user (University Archivist or Secretary Office Staff member), I want to be able to add a date delimiter to a search string so that I can limit a search to return only results from before, after, or between a given date or dates.",0.00015461513248737901,compatibility
263,"As a ResearcherGovernment Publisher, I want to add reference data on inflation to my spending dataset, so that the spending lines in my dataset is more understandable. ",0.00026284734485670924,compatibility
264,"As a Staff member, I want to Schedule a Meeting, so that I can bring the required parties together at a specific date/time to address an issue.",0.0003704556147567928,compatibility
265,"As a user, I want to find out what properties of a dataset can be updated.",0.0005419250810518861,compatibility
266,"As a Cornell faculty member, I want to easily find all the items in the repository that I have authored, by searching on my name (author name authority and/or identification issue), because I keeps my publications in the repository up-to-date and points people tithe repository.",0.00025086943060159683,compatibility
267,"As an OlderPerson, I want to use ALFRED for navigation. ",0.0007724358583800495,compatibility
268,"As a Research Information manager, I want to have datasets linked to metadata about projects, so that I can report on projects depositing datasets in relation to funder requirements.",0.0003124951326753944,compatibility
269,"As an app developer, I want to tolerate existing datasets if their properties are different but compatible when creating a dataset as part of app deployment. ",0.00031419284641742706,compatibility
270,"As a camp worker, I'm able to report necessary repairs to the manager that the camp is needed of.",0.0006826082244515419,compatibility
271,"As a Research Information manager, I want to segment the view and download statistics by country and sector so that impact of datasets outside academia can be demonstrated.",0.001276435679756105,compatibility
272,"As a repository manager, I want to know all the content files in the DAMS for my repository's objects. ",0.0037747120950371027,compatibility
273,"As an Archivist, I want to create and edit Agent records.",0.0008325489470735192,compatibility
274,"As a researcher, I want to know about costs, so that I can plan my research.",0.0002991462533827871,compatibility
275,"As a site admin, I want to stop publishing jobs on the site 30 days after being posted, so that jobs that may have been filled aren't still listed when the hiring party forgets to come back and delete the ad.",4.539787187241018e-05,compatibility
276,"As a Zooniverse admin, I want to perform prefiltering of the images to remove artefacts such as bright stars and camera read errors.",0.00041643177974037826,compatibility
277,"As a plugin developer, I want to include the code for a dataset type in the plugin artifact, so that when a pipeline using this plugin is created a dataset instance of that type is created and it is explorable and available to apps.",4.539787187241018e-05,compatibility
278,"As an archivist, I want to know if a photo has already been scanned, so that I can license it to a researcher.",0.00034798483829945326,compatibility
279,"As an OlderPerson, I want to use ALFRED to contact help in case of an emergency. ",0.0002867089060600847,compatibility
280,"As a patron, I want to know previous name(s) and publication date range (first version-last version) of reports/datasets, so that I can know what historical versions are available and how current more recent version is.",0.00012065757618984208,compatibility
281,"As a corporatesponsor, I want to make my logo randomly appear on the home page, so that others see the company's support of Scrum.",0.00010042026406154037,compatibility
282,"As a anonymoususer, I want to see a list of all the summits that include when they are, so that I can determine which summit I want to attend.",0.0001328665966866538,compatibility
283,"As a user, I want to update a single property of a dataset instance without knowing all other properties. ",0.0006935333949513733,compatibility
284,"As a researcher, I want to understand the copyright status of the image, so that I know if I can use it.",0.0002109524211846292,compatibility
285,"As a Publisher, I want to publish a data package in the UI, so that that it is available and published.",0.0006886188639327884,compatibility
286,"As a ReadOnly user , I want to view archival descriptions in my repository.",0.00043657966307364404,compatibility
287,"As a moderator, I want to view a transcript of a game, so that I can see the stories and estimates.",0.0001424355141352862,compatibility
288,"As a Data Consuming User, I want to be able to search any dataset published and publicly accessible by their title and metadata, So that I can find the datasets I'm interested in.",0.001457343460060656,compatibility
289,"As a data librarian, I want to import administrative information regarding a project into DMP, so that I can prepopulate the DMP.",0.0009161378256976604,compatibility
290,"As an archivist, I want to ensure that emails sent about specific objects contain accurate citation information, so that I can confirm which object is being referred to.",0.00010034588922280818,compatibility
291,"As a Publisher, I want to validate the data I am about to publish to the registry, so that that I publish good data and know that I am doing.",6.765111902495846e-05,compatibility
292,"As a user, I want to know what repository an object belongs to. ",0.007234458811581135,compatibility
293,"As a Bath Data Archive administrator, I want to encourage and promote the use of open standards for deposit, so that data is as reusable as possible.",9.143617353402078e-05,compatibility
294,"As a site admin, I want to approve each help wanted ad before it gets to the site, so that we're sure of the quality of jobs being listed.",4.539787187241018e-05,compatibility
295,"As a team member, I want to have recruiting-email templates ready to go, so that I can start recruiting interviewees ASAP!.",0.00011517835810082033,compatibility
296,"As an OlderPerson, I want to use ALFRED to send messages. ",0.002677472773939371,compatibility
297,"As a Publisher, I want to undelete the deleted data packages, so that that the deleted data packages is now visible again.",0.0005942117422819138,compatibility
298,"As an Archivist, I want to specify the Source for a Name Form of an Agent and add new Sources and edit existing Sources.",0.000785452255513519,compatibility
299,"As a team member, I want to have a schedule of more coworking slots, so that I can work in tandem with the rest of the team on a more regular basis.",0.000378823111532256,compatibility
300,"As an OlderPerson, I want to have the ALFRED shirt to look good. ",0.00033119841828010976,compatibility
301,"As Metadata Architect, I want metadata export to contain both item- and component-level metadata.",0.0016236958326771855,compatibility
302,"As an employee from the HR department, I want to have access to the full information of all employees working for this business.",0.00033400015672668815,compatibility
303,"As a Consumer, I want to be notified of changes to a package I care about, so that that I can check out what has changed and take action.",0.00021703536913264543,compatibility
304,"As an archivist, I want to have electronic versions of the collection files available for staff use, so that I increase accessibility and I do not lose the original files.",0.0003028726205229759,compatibility
305,"As a dataset developer, I want to have a way to reject an upgrade of a dataset instance to a newer version of it type if the upgrade is not compatible.",4.805583012057468e-05,compatibility
306,"As a user, I want to limit my search to a particular set of log books.",0.0003636069013737142,compatibility
307,"As a researcher, I want to ask a question about a specific file, so that I can find out more information.",0.00011203830945305526,compatibility
308,"As a repository support team member, I want to export a set of records and associated files, manipulate this data set, and reload into the system, because I am aware of a uniform error in a collection.",0.0001639686233829707,compatibility
309,"As a user, I want to specify the schema of a dataset in a uniform way across all dataset types.",0.0007172306068241596,compatibility
310,"As a DAMS manager, I want to know when the application of a statute to an object or object component has been modified, either manually or automatically. ",0.00025074841687455773,compatibility
311,"As a Consumer, I want to get a sense of the age of the datapackage that I have downloaded before, so that that I can decide if I should update or not.",4.957132841809653e-05,compatibility
312,"As a researcher, I want to receive an alert of any unattached files that are in my workspace.",0.0012151066912338138,compatibility
313,"As an NSF employee, I want to join Github, so that I can participate in the issues as assigned.",0.0005270183319225907,compatibility
314,"As an archivist, I want to upload a single file.",0.0022427677176892757,compatibility
315,"As a site visitor, I want to subscribe to an RSS feed of articles, so that I can read them without visiting the site.",0.0002037663070950657,compatibility
316,"As a moderator, I want to invite estimators by giving them a URL where they can access the game, so that we can start the game.",0.0007044110097922385,compatibility
317,"As an Inspection Staff Supervisor, I want to Assign Inspections, so that I can make sure the appropriate Inspector receives the work.",0.00010464151273481548,compatibility
318,"As a Publisher, I want to import my data package into the registry, so that my data has a permanent online home to access. ",0.0006442192243412137,compatibility
319,"As a DB/IR administrator, I want to manage subject classifications for ease of patron browsing and searching.",0.00044911590521223843,compatibility
320,"As a user, I want to assign bespoke information to a file dependent on its type.",9.621924255043268e-05,compatibility
321,"As a Staff member, I want to Manage Approved Proffers, so that I can ensure compliance with and satisfaction of the proffer in the future.",0.0004059805069118738,compatibility
322,"As a Consumer, I want to see a publisher's profile, so that that I can discover their packages and get a sense of how active and good they are.",4.539787187241018e-05,compatibility
323,"As a site admin, I want to delete any course or event, so that I can remove things that will no longer occur.",4.539787187241018e-05,compatibility
324,"As a Publisher, I want to know how many users have previewed a dataset, so that I know how interest in a dataset relates to its actual download numbers. ",4.539787187241018e-05,compatibility
325,"As a library staff member, I want to be able to assign an item to more than one collection.",0.0004613973433151841,compatibility
326,"As a repository manager, I want to indicate any subject that is pertinent to the component. ",0.00023377823526971042,compatibility
327,"As an System Administrator, I want to declare that a user is has the Repository Manager role for a given Repository.",0.0015510079683735967,compatibility
328,"As a site visitor, I want to see a list of all upcoming Events, so that I can decide if I want to attend any.",6.206191756064072e-05,compatibility
329,"As a potential research participant, I want to learn about the research and leave my contact information.",0.00014629869838245213,compatibility
330,"As a user, I want to choose a flexible pick up time, so that I can more conveniently use the website.",0.00024236057652160525,compatibility
331,"As a user, I want to have the system to also forward important news items to an external mailing list.",0.00046030565863475204,compatibility
332,"As a site editor, I want to assign priority numbers to news items, so that I can indicate which articles I want featured most prominently on the site.",7.71217601140961e-05,compatibility
333,"As a Zooniverse admin, I want to perform automatic image series detection for the case of timestamping malfunction in Snapshot Serengeti images.",0.0005133550148457289,compatibility
334,"As a metadata batch editor, I'd like to be able to mark any search results as an export set for metadata remediation.",0.002652871422469616,compatibility
335,"As a user, I want to be able to view the safe disposal events currently being organised around my area.",0.0001847880776040256,compatibility
336,"As a anonymoususer, I want to see a list of all the summits, so that I can determine which summit I might be interested and able to attend.",0.00013653315545525402,compatibility
337,"As a administrator, I want to mark a session as accepted, so that I can populate the schedule .",0.00011494214413687587,compatibility
338,"As a Consumer, I want to see how active the site is, so that I can decide if I should get involved.",4.619584797183052e-05,compatibility
339,"As a Zooniverse admin, I want to identify the number of whales heard in a single audio file.",0.0004324844921939075,compatibility
340,"As a repository manager, I want to list all the components, in their appropriate order, for an object ",0.0034240835811942816,compatibility
341,"As a hydrator user, I want to ensure that all dataset instances created by apps are available as sinks and sources for pipelines.",4.6385535824811086e-05,compatibility
342,"As a user, I want to identify brands in videos, and receive related information about them.",0.0002032116026384756,compatibility
343,"As a UI designer, I want to move on to round 2 of DABS or FABS landing page edits, so that I can get approvals from leadership.",0.0001836349838413298,compatibility
344,"As a Consumer, I want to view a Datapackage at a particular version online, so that that I can present/discuss the particular data timeslice of interest with other people.",0.0031103743240237236,compatibility
345,"As a Research Information manager, I want to include records for externally held data complete, so that the university's record of data holdings is complete.",0.0019574258476495743,compatibility
346,"As an archivist, I want to search images by photographer.",0.00043145418749190867,compatibility
347,"As a site visitor, I want to see a trainer's rating, so that I choose a course from an appropriate trainer.",5.383229654398747e-05,compatibility
348,"As a crossdeptprojteammember, I want to have a better place to collect and share project materials, with a range of organization/tagging and access options, including private (internal group use only), University and public.",6.194259913172573e-05,compatibility
349,"As the Digital Records Archivist, I want to be able to edit the length of embargoes.",0.0022222192492336035,compatibility
350,"As an OlderPerson, I want to have ALFRED to help to motivate me during the week to do exercise that should change daily, as the constant change motivates me. ",0.00024842520360834897,compatibility
351,"As a researcher, I want to access digitized archival materials without mediation, so that I can decide what, I want to look at.",0.00012684802641160786,compatibility
352,"As a user, I want to see all the component parts of an object. ",0.0003125499642919749,compatibility
353,"As a Staff member, I want to Capture a Hearing Decision, so that I can enforce the system.",0.0004302145098336041,compatibility
354,"As an archivist, I want to apply a license or rights statement, so that I know what I can do with a file.",0.0014622366288676858,compatibility
355,"As a DAMS manager, I want to know if application of a library policy to an object or object component has been modified, either manually or automatically.  ",0.00019430817337706685,compatibility
356,"As a Zooniverse admin, I want to group subjects by similarity.",0.0003926405915990472,compatibility
357,"As a user researcher, I want to have the finalized OLPA task script, so that I can begin testing with internal users.",0.00034347103792242706,compatibility
358,"As a user researcher, I want to set up a website recruitment test, so that I can see if we can recruit users in real time from the website.",4.782176620210521e-05,compatibility
359,"As a Bath Data Archive administrator, I want to approve scheduled disposal of data, so that data which is still required is not destroyed.",0.00014861881209071726,compatibility
360,"As a researcher, I want to extract the description of the data collected, so that I can reuse it for the writing of a data paper.",0.0005050390027463436,compatibility
361,"As a company accountant, I want to view all available activity fees online, so that I can easily create a bill statement.",0.0001727134658722207,compatibility
362,"As a Consumer, I want to see how much the data has been downloaded, so that that I can choose most popular in the case when there are several alternatives for my use case.",4.539787187241018e-05,compatibility
363,"As a Broker user, I want to have updated error codes that accurately reflect the logic and provide enough information, so that I can fix my submission.",9.885430335998535e-05,compatibility
364,"As a user, I want to scope my searches for collections, objects, or object components to a specific language. ",0.0004866091476287693,compatibility
365,"As a MedicalCaregiver, I want to give corrective feedback if exercises are performed wrong, too much or in any other way harmful to the user. ",0.00011591570364544168,compatibility
366,"As a user, I want to be able to select different types of recyclable waste, so I have and get a list of facilities that accept each type and their opening hours, so that I can find an optimal route and schedule.",4.539787187241018e-05,compatibility
367,"As a site editor, I want to post information in a trainers-only section, so that only trainers see it.",0.0002521122223697603,compatibility
368,"As a Staff member, I want to Process the Appeals, so that I can track the outcome and record the impact on the relevant records.",0.0015685316175222397,compatibility
369,"As a dataset developer, I want to have an archetype that helps me package my dataset type properly.",0.0007978707435540855,compatibility
370,"As a user, I want to download files directly from the search results page.",0.00046199545613490045,compatibility
371,"As a site visitor, I want to access old news that is no longer on the home page, so that I can access things I remember from the past or that others mention to me.",0.00029397313483059406,compatibility
372,"As a site visitor, I want to see a list of all upcoming Certification Courses and can page through them if there are a lot, so that I can choose the best course for me.",6.882519664941356e-05,compatibility
373,"As an API User, I want to be able to normalise measures by GINI and related socioeconomic indexes, So that I work with datasets in reference to their contextual constraints.",0.0008263918571174145,compatibility
374,"As a Zooniverse admin, I want to assess the probability/weight of a volunteer's classification based on their experience.",0.0004895499441772699,compatibility
375,"As a lab administrator, I want to create page templates with bespoke metadata fields.",0.0002456274232827127,compatibility
376,"As a fundingbody, I want to harvest metadata on outputs from research I fund, so that I can analyse effectiveness of funding strategy and I can encourage cross fertilisation of research outputs.",9.290809975937009e-05,compatibility
377,"As an OlderPerson, I want to use ALFRED to organize a meeting with a group of friends at a certain place. ",0.0009547994704917073,compatibility
378,"As a Publisher, I want to publish a dataset, so that I can share the dataset publicly with everyone.",0.0001467708352720365,compatibility
379,"As a participant, I want to scroll back through the stories and estimates from prior rounds, so that I can use this information when I estimate the item of the current round.",0.00037178146885707974,compatibility
380,"As a FABS user, I want additional helpful info in the submission dashboard, so that I can better manage submissions and IG requests.",0.00015451933722943068,compatibility
381,"As an archivemanager, I want to know in advance the conservation period of data, so that I can better organize the service by adapting the preservation actions.",0.00019060804334003478,compatibility
382,"As a user, I want to search by for collections and objects by name (person, family, or corporate body).  ",7.3679955676198e-05,compatibility
383,"As an admin, I want to add recycling center information, so that I can keep the database up-to-date over time.",0.0004871243145316839,compatibility
384,"As a anonymoususer, I want to view a list of user profiles, so that I know who is attending the conference.",0.00011825239926110953,compatibility
385,"As a funder, I want to know how secure data is, so that I can ensure legal compliance.",0.00017678627045825124,compatibility
386,"As an Archivist, I want to assign Location information to a Container.",0.00020257456344552338,compatibility
387,"As a FABS user, I want to submit a citywide as a PPoPZIP and pass validations.",0.00042581677553243935,compatibility
388,"As a moderator, I want to start a round by entering an item in a single multi-line text field, so that we can estimate it.",0.00011587038170546293,compatibility
389,"As an NSF employee, I want to know how visual design directions were developed, so that I can make better design decisions in the future.",0.0001612743071746081,compatibility
390,"As a camp administrator, I want to be able to keep track of which camper submitted which forms, so that legal issues are avoided.",0.0003622181247919798,compatibility
391,"As a faculty member, I want to access a collection within the repository, so that I can obtain research materials.",0.000464613432995975,compatibility
392,"As a Publisher, I want to unpublish a data package, so that it is no longer visible to anyone.",0.0006800207775086164,compatibility
393,"As a developer, I want to have an easy way to manage the pricing modality of my Apps. ",0.0002652639232110232,compatibility
394,"As a Cornell faculty member, I want to easily assign a CC license to the files I are depositing, so that users know how the materials can be used.",4.539787187241018e-05,compatibility
395,"As a Zooniverse admin, I want to detect important features such as areas of flooding, damage, temporary shelters, blocked roads etc in the satellite images.",0.0002517749380785972,compatibility
396,"As a faculty member, I want to recommend a digital collection be built in the repository, so that I can assist in my research.",0.002227004384621978,compatibility
397,"As a DAMS manager, I want to know the agent(s) responsible for carrying out an event.  ",4.829794852412306e-05,compatibility
398,"As a camp worker, I would be able to submit a completion report for the tasks which was assigned to me.",0.000439153314800933,compatibility
399,"As an API User, I want to be able to persistently store visualisation state in the database, So that such can be shared more easily and contribute to a visualisation gallery.",0.0014598463894799352,compatibility
400,"As a user, I want to search and discover music based on my profile.",0.0005891950568184257,compatibility
401,"As a RepositoryManagerResearcher, I want an app that acts as a match-making service for packaging data, so that owners are paired with data packagers. ",0.00031788344494998455,compatibility
402,"As a Consumer, I want to view a data package online, so that I can get a sense of whether this is the dataset I want.",5.333465014700778e-05,compatibility
403,"As the DAMS manager, I want to be able to list for browsing all formal collections represented in the DAMS and I want to list them with the appropriate relationships ",0.00029370756237767637,compatibility
404,"As a camp administrator, I want to be able to schedule activities for campers, so that camp workers can easily keep track of who is where at all times.",0.00028214891790412366,compatibility
405,"As a user, I want to know what collection(s) an object belongs to. ",0.003337761852890253,compatibility
406,"As a trainee, I want to add to ""my schedule"" if there is a schedule feature on the site, so that they can schedule their event experience.",0.00032115320209413767,compatibility
407,"As a MedicalCaregiver, I want to have ALFRED to be able to determine the user's body temperature. ",0.0008943884749896824,compatibility
408,"As repository manager, I want to know all the files belonging to an object ",0.0022273329086601734,compatibility
409,"As an OlderPerson, I want to have clear instructions and service after sales that guide me if I have trouble in using ALFRED.",0.000320856663165614,compatibility
410,"As a repository manager, I want to indicate any other rights pertinent to an object. ",0.00026020180666819215,compatibility
411,"As a student, I want to upload to the repository the data that is associated with my embargoed dissertation to meet requirements of a DMP I submitted with my NSF DDIG.",0.001695470535196364,compatibility
412,"As an asset manager, I want to have mechanism to pass ownership/management of the assets to a successor.",0.00015042275481391698,compatibility
413,"As a faculty data steward, I want to see the sections on costing, so that I can ensure sufficient expertise on data management to support the project.",0.00014222922618500888,compatibility
414,"As a student, I want to learn who at Cornell has or is engaged in research related to a particular topic, so that I can find an appropriate advisor, choose which courses to enroll in, and identify work/internship opportunities.",4.539787187241018e-05,compatibility
415,"As a site editor, I want to have some flexibility as to where things appear, so that I can accommodate different types of content.",9.708105790195987e-05,compatibility
416,"As a Consumer, I want to browse and find publishers, so that that I can find interesting publishers and their packages.",7.283884770004079e-05,compatibility
417,"As a patron, I want to know which reports/datasets are coming out when, so that I can access latest report/dataset.",0.0005187030765227973,compatibility
418,"As a repository manager, I want to know any changes occurring to titles for repository's collections, objects, and object components. ",0.0006197810871526599,compatibility
419,"As a anonymoususer, I want to have a training landing page with an intro section and a list of all training offerings and promote call for trainings, so that I can shop for training all with one page and we can have a call for trainings for selection.",4.539787187241018e-05,compatibility
420,"As an OlderPerson, I want to use ALFRED to control the heating. ",0.0005899230018258095,compatibility
421,"As a site visitor, I want to post comments about articles, so that others can read them.",0.0004377656732685864,compatibility
422,"As a researcher, I want to share reports I've written, so that it is available to staff and researchers.",0.00022715421800967306,compatibility
423,"As an asset manager, I want to have a mechanism to obtain a listing or understanding of all the assets that have been deposited, and their current status.",4.539787187241018e-05,compatibility
424,"As a researcher, I want to search by keyword, so that I can learn what already exists digitally and avoid placing additional duplication requests.",0.0010824662167578936,compatibility
425,"As a camp counselor, I want to be able to take attendance of my assigned kids, so that I can make ensure everybody is accounted for.",0.00022674504725728184,compatibility
426,"As an OlderPerson, I want to use ALFRED to contact people from my own circle. ",0.0013513538287952542,compatibility
427,"As a collection curator, I want to be able to move items from one collection to another.",0.00081729976227507,compatibility
428,"As an Archivist, I want to create and edit Rights Management statements.",0.00030227721435949206,compatibility
429,"As a Website user, I want to access published FABS files, so that I can see the new files as they come in.",0.0008713668794371188,compatibility
430,"As a site visitor, I want to do a full-text search of the FAQs, so that I can find an answer quickly.",0.00011250948591623455,compatibility
431,"As an archivist, I want to manage loan documentation, including preservation photos, forms and correspondence, so that I can find it easily later.",0.00012081657769158483,compatibility
432,"As a data manager, I want to have references to documentation of the data and its creation process, so that the data can be re-used and managed.",0.0005728194955736399,compatibility
433,"As a Cornell faculty member, I want to have some control over how items within my collection sort in collection contents lists, so that I can control how my work is presented.",0.00035741383908316493,compatibility
434,"As a potential depositor, I want to see what kinds of things the repository accepts and what formats are accepted and recommended.",0.000552798097487539,compatibility
435,"As a Consumer, I want to view a publisher's profile, so that that I can see who is behind a particular package or to see what other packages they produce. ",0.0005021998076699674,compatibility
436,"As an Applicant, I want to Satisfy Hearing Requirements, so that I can ensure all pre-hearing requirements are satisfied in time for the hearing.",0.00043742216075770557,compatibility
437,"As a moderator, I want to have the ""estimate"" field filled in automatically if all estimators show the same card, so that I can accept it more quickly.",6.713576294714585e-05,compatibility
438,"As an OlderPerson, I want to have ALFRED to enable me to have face to face contacts as well, so that I do not just have virtual contacts over ALFRED. ",0.00011342738434905186,compatibility
439,"As a researcher, I want to stay up to date on research related to a given topic at Cornell, including those in other departments/schools, so that my own research remains relevant and innovative.",0.00017277835286222398,compatibility
440,"As a researcher, I want to collect data as a library of data, which can then be used by one or multiple experiments that are defined at a later stage.",0.0003782161802519113,compatibility
441,"As a repository manager, I want to say one collection is related to another collection. (TBD) ",0.0002961148857139051,compatibility
442,"As an admin, I want to prefilter the content using search on high-level asset information such as metadata and tags either recognized by the system of provided by the user.",0.00042330872383899987,compatibility
443,"As a library staff member, I want to create custom metadata fields for certain collections, and allow searching of those fields, so that I can best reflect and deliver diverse content.",0.0004692911170423031,compatibility
444,"As a content designer, I want to develop a better understanding of NSF's content types and editorial plan, so that I can make more informed recommendations going forward.",0.00012605474330484867,compatibility
445,"As a Zooniverse admin, I want to automatically detect Snapshot Serengeti images with no classifiable animals in them.",0.0036566017661243677,compatibility
446,"As a camp administrator, I want to be able to warn a camp worker who I think did his/her job inappropriate.",9.65679791988805e-05,compatibility
447,"As a user, I want to walk around, access content using a geographical map and be informed if there are videos covering the area, monuments or any other relevant point of interest.",0.00018486705084796995,compatibility
448,"As a user, I want to be able to give my email ID, so that I can receive notifications for new events as they are posted.",0.0003822551225312054,compatibility
449,"As a l Staff member, I want to search for Property information, so that I can obtain all associated current and historic owners, permits, and applications.",0.0001951888989424333,compatibility
450,"As a site visitor, I want to read current news on the home page, so that I stay current on agile news.",4.539787187241018e-05,compatibility
451,"As a site member, I want to have full access to all articles, so that there is a benefit to being a member.",0.00028891258989460766,compatibility
452,"As a Staff member, I want to Manage Ordinances, so that I can maintain accurate ordinance information in the System.",0.0026588558685034513,compatibility
453,"As a researcher, I want to have information that will help me identify other faculty I might partner/collaborate with.",0.00048480124678462744,compatibility
454,"As a ResearcherGovernment Publisher, I want to add general country names to my dataset that only contains country codes, so that my dataset is more readable. ",0.00010402914631413296,compatibility
455,"As an owner, I want to invite someone using their email to sign up and become a member of my Publisher, so that that they are authorized to publish data packages under my Publisher.",0.0032885156106203794,compatibility
456,"As a researcher, I want to know when only part of a folder has been digitized, so that I know if I am seeing everything or only a portion.",0.00012399670958984643,compatibility
457,"As a user, I want to have access to the content files for an object. ",0.001581289223395288,compatibility
458,"As a Data Analyst, I want to compare different versions of some datapackage locally, so that that I can see schema changes clearly and adjust my analytics code to the desired schema version.",4.539787187241018e-05,compatibility
459,"As a trainer, I want to read information of relevance only to trainers, so that the Scrum Alliance can share information with me easily.",0.00031464340281672776,compatibility
460,"As a user researcher, I want to have a list of priority workflow candidates that we might test, so that I can make sure we're capturing the priority areas.",0.00017139986448455602,compatibility
461,"As a site visitor, I want to click the link from the article teaser to take me directly to the body of the article. not to another teaser setup, so that I can easily finish the article.",0.00030586784123443067,compatibility
462,"As a Bath Data Archive administrator, I want to import Bath data from an external data centre wholesale, so that Bath data holdings in external archives are not lost if they close down.",6.820807902840897e-05,compatibility
463,"As a Researcher, I want a tool that can generate basic statistics about a dataset, so that I can get a quick preview of the data. ",0.00343951559625566,compatibility
464,"As a researcher, I want to know how long it will take to archive, so that I can plan further steps.",0.0001690354256425053,compatibility
465,"As an Archivist, I want to associate a Subject record with a Resource description.",0.00063911615870893,compatibility
