User story,User-centric?,Contains QA?,QA Name 1,QA Name 2,
"As a researcher, I want to be able to view a finding aid for a particular collection/Resource.",Yes,No,,,
"As an Application Administrator, I want to be able to reset a User's password for them.",Yes,Yes,security,,
"As a user, I want backend changes for managing enum lists.",No,No,,,
"As an Archivist, I want to import EAD files that were exported by Archon.",Yes,Yes,compatibility,,
"As an Archivist, I want to assign a component unique identifier to a Resource Component.",Yes,No,,,
"As a User , I want to authenticate using LDAP.",Yes,Yes,security,compatibility,"M: no compatibility, but interop"
"As an Archivist, I want to associate a standard identifier string with a Subject heading.",No,No,,,
"As an Archivist, I want to be able to understand that an error occurred during import and why it might have occurred.",Yes,Yes,reliability,,
"As an Archivist, I want to import Accessions data in CSV.",Yes,Yes,compatibility,,
"As an Archivist, I want to import Resources from MARCXML records.",Yes,Yes,compatibility,,
"As a user, I want frontend changes for managing enum lists.",No,No,,,
"As an Authenticated User, I want to get access to links to contextual help.",Yes,No,,,
"As an Archivist, I want to see Dates and Extents displayed in both the read and edit views for Accessions and/or Resources before the list of Subjects.",Yes,No,,,
"As an Archivist, I want to import Agent information from EAC-CPF records.",Yes,Yes,compatibility,,
"As a user, I want backend changes to support loading enum value lists from the database.",No,No,,,
"As a user, I want backend changes for bulk updating one enum value to another.",No,No,,,
"As an Archivist, I want to export agent records as EAC-CPF.",Yes,Yes,compatibility,,
"As an Archivist, I want to import only Agent and Subject information from MARCXML records.",Yes,Yes,compatibility,,
"As an Application Administrator, I want to assign Users to an Advanced Data Entry and ensure that the appropriate permissions are enforced.",No,Yes,security,,
"As an Application Administrator , I want to be able to configure the help center URL and topic mappings.",No,No,,,
"As a user, I want to add additional properties for repositories.",Yes,No,,,
"As an Archivist, I want to add Notes to other record types.",Yes,No,,,
"As an Administrator, I want to create a new User account for someone else.",Yes,No,,,
"As an Archivist, I want to add administrative data about the archival description and finding aid-related data to a top-level Resource.",Yes,No,,,
"As an Archivist, I want to assign a Level of description to a Resource or Resource Component and optionally specify another value if the Level is not in a predefined list.",Yes,No,,,
"As a developer, I want to use a configuration that is not prepackaged within a built version of application.",No,Yes,maintainability,,"M: no maintainability, but modularity"
"As an Archivist, I want to import EAD files that were exported by the Archivists' Toolkit.",Yes,Yes,compatibility,,
"As a systems administrator, I want to be able to control the location of the demo database and I want it to be backed up.",No,Yes,reliability,,"M: no reliability, but fault-tolerance"
"As an archivist, I want to search within a repository for resource and accession and digital object records.",Yes,No,,,
"As an archivist, I want to create and edit a Collection Management subrecord.",Yes,No,,,
"As an Archivist, I want to rearrange the Resource and/or Digital Object hierarchy using keyboard-based navigation.",Yes,No,,,
"As an Archivist, I want to rearrange the resource description hierarchy by dragging an archival object to a different position in the hierarchy.",Yes,No,,,
"As an Archivist, I would like to indicate an Agent is either the creator or source or subject of an Accession or Resource or Resource Component.",Yes,No,,,
"As an Archivist, I want to export a description as EAD.",Yes,Yes,compatibility,,
"As an Archivist, I want to create and edit Event records.",Yes,No,,,
"As an Archivist, I want to manage Digital Objects.",Yes,No,,,
"As an Archivist, I want to associate an Instance with a Resource and/or Resource Component.",Yes,No,,,
"As an Archivist, I don't want to inadvertently overwrite someone else's changes to a record that I'm editing.",Yes,No,,,
"As an Archivist, I want to create and edit Rights Management statements.",Yes,No,,,
"As an Archivist, I want to upload an EAD for import from within the frontend application.",Yes,Yes,compatibility,,
"As an Archivist, I want to import EAD data.",Yes,Yes,compatibility,,
"As a Repository Manager , I want to create, update and delete archival descriptions in my repository.",Yes,No,,,
"As a Developer , I want to develop a custom importer.",No,Yes,compatibility,,
"As a Basic Data Entry user , I want to create and update basic archival description information.",Yes,No,,,
"As a Repository Manager , I want to create, update and delete any records in my repository.",Yes,No,,,
"As a ReadOnly user , I want to view archival descriptions in my repository.",Yes,No,,,
"As an System Administrator, I want to declare that a user is has the Repository Manager role for a given Repository.",Yes,No,,,
"As an Archivist, I want to specify the Source for a Name Form of an Agent and add new Sources and edit existing Sources.",Yes,No,,,
"As an Archivist, I want to create and edit Agent records.",Yes,No,,,
"As an Archivist, I want to create and edit a Resource record.",Yes,No,,,
"As an Archivist, I want to associate a Subject record with a Resource description.",Yes,No,,,
"As a User, I want to authenticate locally.",Yes,Yes,security,,
"As User, I want to be able to log in.",Yes,Yes,security,,
"As an Archivist, I want to associate an Instance with a Container.",Yes,No,,,
"As an Archivist, I want to assign Location information to a Container.",Yes,No,,,
