,eval,epoch
0,"{'performance': {'tp': 0.0, 'fp': 1e-08, 'fn': 1.00000001, 'tn': 83.0, 'tot': 1.00000001, 'eval': {'textcat_p': 0.0, 'textcat_r': 0.0, 'textcat_f': 0}}, 'compatibility': {'tp': 0.0, 'fp': 1e-08, 'fn': 16.00000001, 'tn': 68.0, 'tot': 16.00000001, 'eval': {'textcat_p': 0.0, 'textcat_r': 0.0, 'textcat_f': 0}}, 'security': {'tp': 0.0, 'fp': 1e-08, 'fn': 12.00000001, 'tn': 72.0, 'tot': 12.00000001, 'eval': {'textcat_p': 0.0, 'textcat_r': 0.0, 'textcat_f': 0}}, 'maintainability': {'tp': 0.0, 'fp': 1e-08, 'fn': 8.00000001, 'tn': 76.0, 'tot': 8.00000001, 'eval': {'textcat_p': 0.0, 'textcat_r': 0.0, 'textcat_f': 0}}, 'eval_global': {'textcat_p': 0.0, 'textcat_r': 0.0, 'textcat_f': 0}}",0
1,"{'performance': {'tp': 0.0, 'fp': 1e-08, 'fn': 1.00000001, 'tn': 83.0, 'tot': 1.00000001, 'eval': {'textcat_p': 0.0, 'textcat_r': 0.0, 'textcat_f': 0}}, 'compatibility': {'tp': 1.0, 'fp': 1e-08, 'fn': 15.00000001, 'tn': 68.0, 'tot': 16.00000001, 'eval': {'textcat_p': 0.9999999900000002, 'textcat_r': 0.0624999999609375, 'textcat_f': 0.1176470586851211}}, 'security': {'tp': 0.0, 'fp': 1e-08, 'fn': 12.00000001, 'tn': 72.0, 'tot': 12.00000001, 'eval': {'textcat_p': 0.0, 'textcat_r': 0.0, 'textcat_f': 0}}, 'maintainability': {'tp': 0.0, 'fp': 1e-08, 'fn': 8.00000001, 'tn': 76.0, 'tot': 8.00000001, 'eval': {'textcat_p': 0.0, 'textcat_r': 0.0, 'textcat_f': 0}}, 'eval_global': {'textcat_p': 0.9999999900000002, 'textcat_r': 0.027027027019722424, 'textcat_f': 0.05263157891966758}}",1
2,"{'performance': {'tp': 0.0, 'fp': 1e-08, 'fn': 1.00000001, 'tn': 83.0, 'tot': 1.00000001, 'eval': {'textcat_p': 0.0, 'textcat_r': 0.0, 'textcat_f': 0}}, 'compatibility': {'tp': 1.0, 'fp': 2.00000001, 'fn': 15.00000001, 'tn': 66.0, 'tot': 16.00000001, 'eval': {'textcat_p': 0.3333333322222222, 'textcat_r': 0.0624999999609375, 'textcat_f': 0.10526315778393351}}, 'security': {'tp': 0.0, 'fp': 1e-08, 'fn': 12.00000001, 'tn': 72.0, 'tot': 12.00000001, 'eval': {'textcat_p': 0.0, 'textcat_r': 0.0, 'textcat_f': 0}}, 'maintainability': {'tp': 0.0, 'fp': 1e-08, 'fn': 8.00000001, 'tn': 76.0, 'tot': 8.00000001, 'eval': {'textcat_p': 0.0, 'textcat_r': 0.0, 'textcat_f': 0}}, 'eval_global': {'textcat_p': 0.3333333322222222, 'textcat_r': 0.027027027019722424, 'textcat_f': 0.049999999975}}",2
3,"{'performance': {'tp': 0.0, 'fp': 1e-08, 'fn': 1.00000001, 'tn': 83.0, 'tot': 1.00000001, 'eval': {'textcat_p': 0.0, 'textcat_r': 0.0, 'textcat_f': 0}}, 'compatibility': {'tp': 3.0, 'fp': 1.00000001, 'fn': 13.00000001, 'tn': 67.0, 'tot': 16.00000001, 'eval': {'textcat_p': 0.7499999981250001, 'textcat_r': 0.1874999998828125, 'textcat_f': 0.2999999997}}, 'security': {'tp': 0.0, 'fp': 1e-08, 'fn': 12.00000001, 'tn': 72.0, 'tot': 12.00000001, 'eval': {'textcat_p': 0.0, 'textcat_r': 0.0, 'textcat_f': 0}}, 'maintainability': {'tp': 0.0, 'fp': 1e-08, 'fn': 8.00000001, 'tn': 76.0, 'tot': 8.00000001, 'eval': {'textcat_p': 0.0, 'textcat_r': 0.0, 'textcat_f': 0}}, 'eval_global': {'textcat_p': 0.7499999981250001, 'textcat_r': 0.08108108105916727, 'textcat_f': 0.14634146334324807}}",3
4,"{'performance': {'tp': 0.0, 'fp': 1.00000001, 'fn': 1.00000001, 'tn': 82.0, 'tot': 1.00000001, 'eval': {'textcat_p': 0.0, 'textcat_r': 0.0, 'textcat_f': 0}}, 'compatibility': {'tp': 8.0, 'fp': 2.00000001, 'fn': 8.00000001, 'tn': 66.0, 'tot': 16.00000001, 'eval': {'textcat_p': 0.7999999992, 'textcat_r': 0.4999999996875, 'textcat_f': 0.6153846149112425}}, 'security': {'tp': 0.0, 'fp': 1e-08, 'fn': 12.00000001, 'tn': 72.0, 'tot': 12.00000001, 'eval': {'textcat_p': 0.0, 'textcat_r': 0.0, 'textcat_f': 0}}, 'maintainability': {'tp': 0.0, 'fp': 1e-08, 'fn': 8.00000001, 'tn': 76.0, 'tot': 8.00000001, 'eval': {'textcat_p': 0.0, 'textcat_r': 0.0, 'textcat_f': 0}}, 'eval_global': {'textcat_p': 0.7272727266115702, 'textcat_r': 0.2162162161577794, 'textcat_f': 0.3333333331944444}}",4
5,"{'performance': {'tp': 0.0, 'fp': 1.00000001, 'fn': 1.00000001, 'tn': 82.0, 'tot': 1.00000001, 'eval': {'textcat_p': 0.0, 'textcat_r': 0.0, 'textcat_f': 0}}, 'compatibility': {'tp': 6.0, 'fp': 2.00000001, 'fn': 10.00000001, 'tn': 66.0, 'tot': 16.00000001, 'eval': {'textcat_p': 0.7499999990624999, 'textcat_r': 0.374999999765625, 'textcat_f': 0.4999999995833333}}, 'security': {'tp': 0.0, 'fp': 1e-08, 'fn': 12.00000001, 'tn': 72.0, 'tot': 12.00000001, 'eval': {'textcat_p': 0.0, 'textcat_r': 0.0, 'textcat_f': 0}}, 'maintainability': {'tp': 2.0, 'fp': 1e-08, 'fn': 6.00000001, 'tn': 76.0, 'tot': 8.00000001, 'eval': {'textcat_p': 0.999999995, 'textcat_r': 0.24999999968749997, 'textcat_f': 0.39999999919999996}}, 'eval_global': {'textcat_p': 0.7272727266115702, 'textcat_r': 0.2162162161577794, 'textcat_f': 0.3333333331944444}}",5
6,"{'performance': {'tp': 0.0, 'fp': 1.00000001, 'fn': 1.00000001, 'tn': 82.0, 'tot': 1.00000001, 'eval': {'textcat_p': 0.0, 'textcat_r': 0.0, 'textcat_f': 0}}, 'compatibility': {'tp': 5.0, 'fp': 4.00000001, 'fn': 11.00000001, 'tn': 64.0, 'tot': 16.00000001, 'eval': {'textcat_p': 0.5555555549382716, 'textcat_r': 0.3124999998046875, 'textcat_f': 0.39999999968}}, 'security': {'tp': 0.0, 'fp': 1e-08, 'fn': 12.00000001, 'tn': 72.0, 'tot': 12.00000001, 'eval': {'textcat_p': 0.0, 'textcat_r': 0.0, 'textcat_f': 0}}, 'maintainability': {'tp': 2.0, 'fp': 1e-08, 'fn': 6.00000001, 'tn': 76.0, 'tot': 8.00000001, 'eval': {'textcat_p': 0.999999995, 'textcat_r': 0.24999999968749997, 'textcat_f': 0.39999999919999996}}, 'eval_global': {'textcat_p': 0.5833333328472222, 'textcat_r': 0.18918918913805696, 'textcat_f': 0.2857142855976676}}",6
7,"{'performance': {'tp': 0.0, 'fp': 1.00000001, 'fn': 1.00000001, 'tn': 82.0, 'tot': 1.00000001, 'eval': {'textcat_p': 0.0, 'textcat_r': 0.0, 'textcat_f': 0}}, 'compatibility': {'tp': 6.0, 'fp': 4.00000001, 'fn': 10.00000001, 'tn': 64.0, 'tot': 16.00000001, 'eval': {'textcat_p': 0.5999999993999999, 'textcat_r': 0.374999999765625, 'textcat_f': 0.46153846118343195}}, 'security': {'tp': 0.0, 'fp': 1e-08, 'fn': 12.00000001, 'tn': 72.0, 'tot': 12.00000001, 'eval': {'textcat_p': 0.0, 'textcat_r': 0.0, 'textcat_f': 0}}, 'maintainability': {'tp': 2.0, 'fp': 1e-08, 'fn': 6.00000001, 'tn': 76.0, 'tot': 8.00000001, 'eval': {'textcat_p': 0.999999995, 'textcat_r': 0.24999999968749997, 'textcat_f': 0.39999999919999996}}, 'eval_global': {'textcat_p': 0.6153846149112425, 'textcat_r': 0.2162162161577794, 'textcat_f': 0.31999999987199995}}",7
8,"{'performance': {'tp': 0.0, 'fp': 1e-08, 'fn': 1.00000001, 'tn': 83.0, 'tot': 1.00000001, 'eval': {'textcat_p': 0.0, 'textcat_r': 0.0, 'textcat_f': 0}}, 'compatibility': {'tp': 8.0, 'fp': 4.00000001, 'fn': 8.00000001, 'tn': 64.0, 'tot': 16.00000001, 'eval': {'textcat_p': 0.666666666111111, 'textcat_r': 0.4999999996875, 'textcat_f': 0.5714285710204081}}, 'security': {'tp': 0.0, 'fp': 1e-08, 'fn': 12.00000001, 'tn': 72.0, 'tot': 12.00000001, 'eval': {'textcat_p': 0.0, 'textcat_r': 0.0, 'textcat_f': 0}}, 'maintainability': {'tp': 2.0, 'fp': 1e-08, 'fn': 6.00000001, 'tn': 76.0, 'tot': 8.00000001, 'eval': {'textcat_p': 0.999999995, 'textcat_r': 0.24999999968749997, 'textcat_f': 0.39999999919999996}}, 'eval_global': {'textcat_p': 0.7142857137755102, 'textcat_r': 0.27027027019722427, 'textcat_f': 0.39215686259131105}}",8
9,"{'performance': {'tp': 0.0, 'fp': 1e-08, 'fn': 1.00000001, 'tn': 83.0, 'tot': 1.00000001, 'eval': {'textcat_p': 0.0, 'textcat_r': 0.0, 'textcat_f': 0}}, 'compatibility': {'tp': 10.0, 'fp': 4.00000001, 'fn': 6.00000001, 'tn': 64.0, 'tot': 16.00000001, 'eval': {'textcat_p': 0.7142857137755102, 'textcat_r': 0.624999999609375, 'textcat_f': 0.6666666662222223}}, 'security': {'tp': 3.0, 'fp': 1e-08, 'fn': 9.00000001, 'tn': 72.0, 'tot': 12.00000001, 'eval': {'textcat_p': 0.9999999966666667, 'textcat_r': 0.24999999979166665, 'textcat_f': 0.3999999994666666}}, 'maintainability': {'tp': 3.0, 'fp': 1.00000001, 'fn': 5.00000001, 'tn': 75.0, 'tot': 8.00000001, 'eval': {'textcat_p': 0.7499999981250001, 'textcat_r': 0.37499999953124996, 'textcat_f': 0.4999999991666667}}, 'eval_global': {'textcat_p': 0.7619047615419501, 'textcat_r': 0.4324324323155588, 'textcat_f': 0.5517241377407848}}",9
10,"{'performance': {'tp': 0.0, 'fp': 1e-08, 'fn': 1.00000001, 'tn': 83.0, 'tot': 1.00000001, 'eval': {'textcat_p': 0.0, 'textcat_r': 0.0, 'textcat_f': 0}}, 'compatibility': {'tp': 9.0, 'fp': 4.00000001, 'fn': 7.00000001, 'tn': 64.0, 'tot': 16.00000001, 'eval': {'textcat_p': 0.6923076917751478, 'textcat_r': 0.5624999996484374, 'textcat_f': 0.6206896547443519}}, 'security': {'tp': 4.0, 'fp': 1.00000001, 'fn': 8.00000001, 'tn': 71.0, 'tot': 12.00000001, 'eval': {'textcat_p': 0.7999999984, 'textcat_r': 0.3333333330555555, 'textcat_f': 0.4705882347404844}}, 'maintainability': {'tp': 3.0, 'fp': 1.00000001, 'fn': 5.00000001, 'tn': 75.0, 'tot': 8.00000001, 'eval': {'textcat_p': 0.7499999981250001, 'textcat_r': 0.37499999953124996, 'textcat_f': 0.4999999991666667}}, 'eval_global': {'textcat_p': 0.7272727269421487, 'textcat_r': 0.4324324323155588, 'textcat_f': 0.542372881172077}}",10
11,"{'performance': {'tp': 0.0, 'fp': 1e-08, 'fn': 1.00000001, 'tn': 83.0, 'tot': 1.00000001, 'eval': {'textcat_p': 0.0, 'textcat_r': 0.0, 'textcat_f': 0}}, 'compatibility': {'tp': 9.0, 'fp': 4.00000001, 'fn': 7.00000001, 'tn': 64.0, 'tot': 16.00000001, 'eval': {'textcat_p': 0.6923076917751478, 'textcat_r': 0.5624999996484374, 'textcat_f': 0.6206896547443519}}, 'security': {'tp': 4.0, 'fp': 1.00000001, 'fn': 8.00000001, 'tn': 71.0, 'tot': 12.00000001, 'eval': {'textcat_p': 0.7999999984, 'textcat_r': 0.3333333330555555, 'textcat_f': 0.4705882347404844}}, 'maintainability': {'tp': 3.0, 'fp': 2.00000001, 'fn': 5.00000001, 'tn': 74.0, 'tot': 8.00000001, 'eval': {'textcat_p': 0.5999999988, 'textcat_r': 0.37499999953124996, 'textcat_f': 0.46153846082840233}}, 'eval_global': {'textcat_p': 0.695652173610586, 'textcat_r': 0.4324324323155588, 'textcat_f': 0.5333333331555555}}",11
12,"{'performance': {'tp': 0.0, 'fp': 1e-08, 'fn': 1.00000001, 'tn': 83.0, 'tot': 1.00000001, 'eval': {'textcat_p': 0.0, 'textcat_r': 0.0, 'textcat_f': 0}}, 'compatibility': {'tp': 8.0, 'fp': 4.00000001, 'fn': 8.00000001, 'tn': 64.0, 'tot': 16.00000001, 'eval': {'textcat_p': 0.666666666111111, 'textcat_r': 0.4999999996875, 'textcat_f': 0.5714285710204081}}, 'security': {'tp': 4.0, 'fp': 1.00000001, 'fn': 8.00000001, 'tn': 71.0, 'tot': 12.00000001, 'eval': {'textcat_p': 0.7999999984, 'textcat_r': 0.3333333330555555, 'textcat_f': 0.4705882347404844}}, 'maintainability': {'tp': 3.0, 'fp': 1.00000001, 'fn': 5.00000001, 'tn': 75.0, 'tot': 8.00000001, 'eval': {'textcat_p': 0.7499999981250001, 'textcat_r': 0.37499999953124996, 'textcat_f': 0.4999999991666667}}, 'eval_global': {'textcat_p': 0.7142857139455782, 'textcat_r': 0.40540540529583635, 'textcat_f': 0.5172413791319858}}",12
13,"{'performance': {'tp': 0.0, 'fp': 1e-08, 'fn': 1.00000001, 'tn': 83.0, 'tot': 1.00000001, 'eval': {'textcat_p': 0.0, 'textcat_r': 0.0, 'textcat_f': 0}}, 'compatibility': {'tp': 8.0, 'fp': 4.00000001, 'fn': 8.00000001, 'tn': 64.0, 'tot': 16.00000001, 'eval': {'textcat_p': 0.666666666111111, 'textcat_r': 0.4999999996875, 'textcat_f': 0.5714285710204081}}, 'security': {'tp': 4.0, 'fp': 2.00000001, 'fn': 8.00000001, 'tn': 70.0, 'tot': 12.00000001, 'eval': {'textcat_p': 0.6666666655555555, 'textcat_r': 0.3333333330555555, 'textcat_f': 0.4444444439506173}}, 'maintainability': {'tp': 3.0, 'fp': 1.00000001, 'fn': 5.00000001, 'tn': 75.0, 'tot': 8.00000001, 'eval': {'textcat_p': 0.7499999981250001, 'textcat_r': 0.37499999953124996, 'textcat_f': 0.4999999991666667}}, 'eval_global': {'textcat_p': 0.6818181815082645, 'textcat_r': 0.40540540529583635, 'textcat_f': 0.5084745760988222}}",13
14,"{'performance': {'tp': 0.0, 'fp': 1e-08, 'fn': 1.00000001, 'tn': 83.0, 'tot': 1.00000001, 'eval': {'textcat_p': 0.0, 'textcat_r': 0.0, 'textcat_f': 0}}, 'compatibility': {'tp': 7.0, 'fp': 5.00000001, 'fn': 9.00000001, 'tn': 63.0, 'tot': 16.00000001, 'eval': {'textcat_p': 0.5833333328472222, 'textcat_r': 0.4374999997265625, 'textcat_f': 0.49999999964285724}}, 'security': {'tp': 4.0, 'fp': 2.00000001, 'fn': 8.00000001, 'tn': 70.0, 'tot': 12.00000001, 'eval': {'textcat_p': 0.6666666655555555, 'textcat_r': 0.3333333330555555, 'textcat_f': 0.4444444439506173}}, 'maintainability': {'tp': 3.0, 'fp': 1.00000001, 'fn': 5.00000001, 'tn': 75.0, 'tot': 8.00000001, 'eval': {'textcat_p': 0.7499999981250001, 'textcat_r': 0.37499999953124996, 'textcat_f': 0.4999999991666667}}, 'eval_global': {'textcat_p': 0.6363636360743802, 'textcat_r': 0.3783783782761139, 'textcat_f': 0.4745762710255673}}",14
15,"{'performance': {'tp': 0.0, 'fp': 1e-08, 'fn': 1.00000001, 'tn': 83.0, 'tot': 1.00000001, 'eval': {'textcat_p': 0.0, 'textcat_r': 0.0, 'textcat_f': 0}}, 'compatibility': {'tp': 8.0, 'fp': 5.00000001, 'fn': 8.00000001, 'tn': 63.0, 'tot': 16.00000001, 'eval': {'textcat_p': 0.6153846149112425, 'textcat_r': 0.4999999996875, 'textcat_f': 0.551724137550535}}, 'security': {'tp': 4.0, 'fp': 2.00000001, 'fn': 8.00000001, 'tn': 70.0, 'tot': 12.00000001, 'eval': {'textcat_p': 0.6666666655555555, 'textcat_r': 0.3333333330555555, 'textcat_f': 0.4444444439506173}}, 'maintainability': {'tp': 3.0, 'fp': 1.00000001, 'fn': 5.00000001, 'tn': 75.0, 'tot': 8.00000001, 'eval': {'textcat_p': 0.7499999981250001, 'textcat_r': 0.37499999953124996, 'textcat_f': 0.4999999991666667}}, 'eval_global': {'textcat_p': 0.6521739127599243, 'textcat_r': 0.40540540529583635, 'textcat_f': 0.4999999998333333}}",15
16,"{'performance': {'tp': 0.0, 'fp': 1e-08, 'fn': 1.00000001, 'tn': 83.0, 'tot': 1.00000001, 'eval': {'textcat_p': 0.0, 'textcat_r': 0.0, 'textcat_f': 0}}, 'compatibility': {'tp': 8.0, 'fp': 6.00000001, 'fn': 8.00000001, 'tn': 62.0, 'tot': 16.00000001, 'eval': {'textcat_p': 0.5714285710204081, 'textcat_r': 0.4999999996875, 'textcat_f': 0.5333333329777777}}, 'security': {'tp': 5.0, 'fp': 4.00000001, 'fn': 7.00000001, 'tn': 68.0, 'tot': 12.00000001, 'eval': {'textcat_p': 0.5555555549382716, 'textcat_r': 0.41666666631944443, 'textcat_f': 0.4761904757369614}}, 'maintainability': {'tp': 3.0, 'fp': 1.00000001, 'fn': 5.00000001, 'tn': 75.0, 'tot': 8.00000001, 'eval': {'textcat_p': 0.7499999981250001, 'textcat_r': 0.37499999953124996, 'textcat_f': 0.4999999991666667}}, 'eval_global': {'textcat_p': 0.5925925923731138, 'textcat_r': 0.4324324323155588, 'textcat_f': 0.49999999984374993}}",16
17,"{'performance': {'tp': 0.0, 'fp': 1e-08, 'fn': 1.00000001, 'tn': 83.0, 'tot': 1.00000001, 'eval': {'textcat_p': 0.0, 'textcat_r': 0.0, 'textcat_f': 0}}, 'compatibility': {'tp': 8.0, 'fp': 5.00000001, 'fn': 8.00000001, 'tn': 63.0, 'tot': 16.00000001, 'eval': {'textcat_p': 0.6153846149112425, 'textcat_r': 0.4999999996875, 'textcat_f': 0.551724137550535}}, 'security': {'tp': 5.0, 'fp': 5.00000001, 'fn': 7.00000001, 'tn': 67.0, 'tot': 12.00000001, 'eval': {'textcat_p': 0.49999999949999996, 'textcat_r': 0.41666666631944443, 'textcat_f': 0.45454545413223135}}, 'maintainability': {'tp': 3.0, 'fp': 1.00000001, 'fn': 5.00000001, 'tn': 75.0, 'tot': 8.00000001, 'eval': {'textcat_p': 0.7499999981250001, 'textcat_r': 0.37499999953124996, 'textcat_f': 0.4999999991666667}}, 'eval_global': {'textcat_p': 0.5925925923731138, 'textcat_r': 0.4324324323155588, 'textcat_f': 0.49999999984374993}}",17
18,"{'performance': {'tp': 0.0, 'fp': 1e-08, 'fn': 1.00000001, 'tn': 83.0, 'tot': 1.00000001, 'eval': {'textcat_p': 0.0, 'textcat_r': 0.0, 'textcat_f': 0}}, 'compatibility': {'tp': 8.0, 'fp': 5.00000001, 'fn': 8.00000001, 'tn': 63.0, 'tot': 16.00000001, 'eval': {'textcat_p': 0.6153846149112425, 'textcat_r': 0.4999999996875, 'textcat_f': 0.551724137550535}}, 'security': {'tp': 5.0, 'fp': 4.00000001, 'fn': 7.00000001, 'tn': 68.0, 'tot': 12.00000001, 'eval': {'textcat_p': 0.5555555549382716, 'textcat_r': 0.41666666631944443, 'textcat_f': 0.4761904757369614}}, 'maintainability': {'tp': 3.0, 'fp': 3.00000001, 'fn': 5.00000001, 'tn': 73.0, 'tot': 8.00000001, 'eval': {'textcat_p': 0.49999999916666665, 'textcat_r': 0.37499999953124996, 'textcat_f': 0.4285714279591836}}, 'eval_global': {'textcat_p': 0.5714285712244898, 'textcat_r': 0.4324324323155588, 'textcat_f': 0.49230769215621295}}",18
19,"{'performance': {'tp': 0.0, 'fp': 1e-08, 'fn': 1.00000001, 'tn': 83.0, 'tot': 1.00000001, 'eval': {'textcat_p': 0.0, 'textcat_r': 0.0, 'textcat_f': 0}}, 'compatibility': {'tp': 8.0, 'fp': 5.00000001, 'fn': 8.00000001, 'tn': 63.0, 'tot': 16.00000001, 'eval': {'textcat_p': 0.6153846149112425, 'textcat_r': 0.4999999996875, 'textcat_f': 0.551724137550535}}, 'security': {'tp': 4.0, 'fp': 4.00000001, 'fn': 8.00000001, 'tn': 68.0, 'tot': 12.00000001, 'eval': {'textcat_p': 0.49999999937499995, 'textcat_r': 0.3333333330555555, 'textcat_f': 0.3999999996}}, 'maintainability': {'tp': 3.0, 'fp': 3.00000001, 'fn': 5.00000001, 'tn': 73.0, 'tot': 8.00000001, 'eval': {'textcat_p': 0.49999999916666665, 'textcat_r': 0.37499999953124996, 'textcat_f': 0.4285714279591836}}, 'eval_global': {'textcat_p': 0.5555555553497942, 'textcat_r': 0.40540540529583635, 'textcat_f': 0.4687499998535156}}",19
20,"{'performance': {'tp': 0.0, 'fp': 1e-08, 'fn': 1.00000001, 'tn': 83.0, 'tot': 1.00000001, 'eval': {'textcat_p': 0.0, 'textcat_r': 0.0, 'textcat_f': 0}}, 'compatibility': {'tp': 8.0, 'fp': 5.00000001, 'fn': 8.00000001, 'tn': 63.0, 'tot': 16.00000001, 'eval': {'textcat_p': 0.6153846149112425, 'textcat_r': 0.4999999996875, 'textcat_f': 0.551724137550535}}, 'security': {'tp': 4.0, 'fp': 5.00000001, 'fn': 8.00000001, 'tn': 67.0, 'tot': 12.00000001, 'eval': {'textcat_p': 0.4444444439506172, 'textcat_r': 0.3333333330555555, 'textcat_f': 0.38095238058956915}}, 'maintainability': {'tp': 3.0, 'fp': 3.00000001, 'fn': 5.00000001, 'tn': 73.0, 'tot': 8.00000001, 'eval': {'textcat_p': 0.49999999916666665, 'textcat_r': 0.37499999953124996, 'textcat_f': 0.4285714279591836}}, 'eval_global': {'textcat_p': 0.5357142855229592, 'textcat_r': 0.40540540529583635, 'textcat_f': 0.46153846139644966}}",20
21,"{'performance': {'tp': 0.0, 'fp': 1e-08, 'fn': 1.00000001, 'tn': 83.0, 'tot': 1.00000001, 'eval': {'textcat_p': 0.0, 'textcat_r': 0.0, 'textcat_f': 0}}, 'compatibility': {'tp': 8.0, 'fp': 5.00000001, 'fn': 8.00000001, 'tn': 63.0, 'tot': 16.00000001, 'eval': {'textcat_p': 0.6153846149112425, 'textcat_r': 0.4999999996875, 'textcat_f': 0.551724137550535}}, 'security': {'tp': 4.0, 'fp': 5.00000001, 'fn': 8.00000001, 'tn': 67.0, 'tot': 12.00000001, 'eval': {'textcat_p': 0.4444444439506172, 'textcat_r': 0.3333333330555555, 'textcat_f': 0.38095238058956915}}, 'maintainability': {'tp': 3.0, 'fp': 3.00000001, 'fn': 5.00000001, 'tn': 73.0, 'tot': 8.00000001, 'eval': {'textcat_p': 0.49999999916666665, 'textcat_r': 0.37499999953124996, 'textcat_f': 0.4285714279591836}}, 'eval_global': {'textcat_p': 0.5357142855229592, 'textcat_r': 0.40540540529583635, 'textcat_f': 0.46153846139644966}}",21
22,"{'performance': {'tp': 0.0, 'fp': 1e-08, 'fn': 1.00000001, 'tn': 83.0, 'tot': 1.00000001, 'eval': {'textcat_p': 0.0, 'textcat_r': 0.0, 'textcat_f': 0}}, 'compatibility': {'tp': 8.0, 'fp': 5.00000001, 'fn': 8.00000001, 'tn': 63.0, 'tot': 16.00000001, 'eval': {'textcat_p': 0.6153846149112425, 'textcat_r': 0.4999999996875, 'textcat_f': 0.551724137550535}}, 'security': {'tp': 4.0, 'fp': 5.00000001, 'fn': 8.00000001, 'tn': 67.0, 'tot': 12.00000001, 'eval': {'textcat_p': 0.4444444439506172, 'textcat_r': 0.3333333330555555, 'textcat_f': 0.38095238058956915}}, 'maintainability': {'tp': 3.0, 'fp': 4.00000001, 'fn': 5.00000001, 'tn': 72.0, 'tot': 8.00000001, 'eval': {'textcat_p': 0.4285714279591837, 'textcat_r': 0.37499999953124996, 'textcat_f': 0.39999999946666664}}, 'eval_global': {'textcat_p': 0.5172413791319858, 'textcat_r': 0.40540540529583635, 'textcat_f': 0.4545454544077135}}",22
23,"{'performance': {'tp': 0.0, 'fp': 1e-08, 'fn': 1.00000001, 'tn': 83.0, 'tot': 1.00000001, 'eval': {'textcat_p': 0.0, 'textcat_r': 0.0, 'textcat_f': 0}}, 'compatibility': {'tp': 8.0, 'fp': 5.00000001, 'fn': 8.00000001, 'tn': 63.0, 'tot': 16.00000001, 'eval': {'textcat_p': 0.6153846149112425, 'textcat_r': 0.4999999996875, 'textcat_f': 0.551724137550535}}, 'security': {'tp': 4.0, 'fp': 5.00000001, 'fn': 8.00000001, 'tn': 67.0, 'tot': 12.00000001, 'eval': {'textcat_p': 0.4444444439506172, 'textcat_r': 0.3333333330555555, 'textcat_f': 0.38095238058956915}}, 'maintainability': {'tp': 3.0, 'fp': 4.00000001, 'fn': 5.00000001, 'tn': 72.0, 'tot': 8.00000001, 'eval': {'textcat_p': 0.4285714279591837, 'textcat_r': 0.37499999953124996, 'textcat_f': 0.39999999946666664}}, 'eval_global': {'textcat_p': 0.5172413791319858, 'textcat_r': 0.40540540529583635, 'textcat_f': 0.4545454544077135}}",23
24,"{'performance': {'tp': 0.0, 'fp': 1e-08, 'fn': 1.00000001, 'tn': 83.0, 'tot': 1.00000001, 'eval': {'textcat_p': 0.0, 'textcat_r': 0.0, 'textcat_f': 0}}, 'compatibility': {'tp': 8.0, 'fp': 5.00000001, 'fn': 8.00000001, 'tn': 63.0, 'tot': 16.00000001, 'eval': {'textcat_p': 0.6153846149112425, 'textcat_r': 0.4999999996875, 'textcat_f': 0.551724137550535}}, 'security': {'tp': 4.0, 'fp': 5.00000001, 'fn': 8.00000001, 'tn': 67.0, 'tot': 12.00000001, 'eval': {'textcat_p': 0.4444444439506172, 'textcat_r': 0.3333333330555555, 'textcat_f': 0.38095238058956915}}, 'maintainability': {'tp': 3.0, 'fp': 4.00000001, 'fn': 5.00000001, 'tn': 72.0, 'tot': 8.00000001, 'eval': {'textcat_p': 0.4285714279591837, 'textcat_r': 0.37499999953124996, 'textcat_f': 0.39999999946666664}}, 'eval_global': {'textcat_p': 0.5172413791319858, 'textcat_r': 0.40540540529583635, 'textcat_f': 0.4545454544077135}}",24
25,"{'performance': {'tp': 0.0, 'fp': 1e-08, 'fn': 1.00000001, 'tn': 83.0, 'tot': 1.00000001, 'eval': {'textcat_p': 0.0, 'textcat_r': 0.0, 'textcat_f': 0}}, 'compatibility': {'tp': 8.0, 'fp': 5.00000001, 'fn': 8.00000001, 'tn': 63.0, 'tot': 16.00000001, 'eval': {'textcat_p': 0.6153846149112425, 'textcat_r': 0.4999999996875, 'textcat_f': 0.551724137550535}}, 'security': {'tp': 4.0, 'fp': 5.00000001, 'fn': 8.00000001, 'tn': 67.0, 'tot': 12.00000001, 'eval': {'textcat_p': 0.4444444439506172, 'textcat_r': 0.3333333330555555, 'textcat_f': 0.38095238058956915}}, 'maintainability': {'tp': 3.0, 'fp': 4.00000001, 'fn': 5.00000001, 'tn': 72.0, 'tot': 8.00000001, 'eval': {'textcat_p': 0.4285714279591837, 'textcat_r': 0.37499999953124996, 'textcat_f': 0.39999999946666664}}, 'eval_global': {'textcat_p': 0.5172413791319858, 'textcat_r': 0.40540540529583635, 'textcat_f': 0.4545454544077135}}",25
26,"{'performance': {'tp': 0.0, 'fp': 1e-08, 'fn': 1.00000001, 'tn': 83.0, 'tot': 1.00000001, 'eval': {'textcat_p': 0.0, 'textcat_r': 0.0, 'textcat_f': 0}}, 'compatibility': {'tp': 7.0, 'fp': 5.00000001, 'fn': 9.00000001, 'tn': 63.0, 'tot': 16.00000001, 'eval': {'textcat_p': 0.5833333328472222, 'textcat_r': 0.4374999997265625, 'textcat_f': 0.49999999964285724}}, 'security': {'tp': 4.0, 'fp': 5.00000001, 'fn': 8.00000001, 'tn': 67.0, 'tot': 12.00000001, 'eval': {'textcat_p': 0.4444444439506172, 'textcat_r': 0.3333333330555555, 'textcat_f': 0.38095238058956915}}, 'maintainability': {'tp': 3.0, 'fp': 4.00000001, 'fn': 5.00000001, 'tn': 72.0, 'tot': 8.00000001, 'eval': {'textcat_p': 0.4285714279591837, 'textcat_r': 0.37499999953124996, 'textcat_f': 0.39999999946666664}}, 'eval_global': {'textcat_p': 0.49999999982142856, 'textcat_r': 0.3783783782761139, 'textcat_f': 0.4307692306366864}}",26
27,"{'performance': {'tp': 0.0, 'fp': 1e-08, 'fn': 1.00000001, 'tn': 83.0, 'tot': 1.00000001, 'eval': {'textcat_p': 0.0, 'textcat_r': 0.0, 'textcat_f': 0}}, 'compatibility': {'tp': 7.0, 'fp': 5.00000001, 'fn': 9.00000001, 'tn': 63.0, 'tot': 16.00000001, 'eval': {'textcat_p': 0.5833333328472222, 'textcat_r': 0.4374999997265625, 'textcat_f': 0.49999999964285724}}, 'security': {'tp': 4.0, 'fp': 6.00000001, 'fn': 8.00000001, 'tn': 66.0, 'tot': 12.00000001, 'eval': {'textcat_p': 0.3999999996, 'textcat_r': 0.3333333330555555, 'textcat_f': 0.3636363633057851}}, 'maintainability': {'tp': 3.0, 'fp': 4.00000001, 'fn': 5.00000001, 'tn': 72.0, 'tot': 8.00000001, 'eval': {'textcat_p': 0.4285714279591837, 'textcat_r': 0.37499999953124996, 'textcat_f': 0.39999999946666664}}, 'eval_global': {'textcat_p': 0.4827586205231867, 'textcat_r': 0.3783783782761139, 'textcat_f': 0.4242424241138659}}",27
28,"{'performance': {'tp': 0.0, 'fp': 1e-08, 'fn': 1.00000001, 'tn': 83.0, 'tot': 1.00000001, 'eval': {'textcat_p': 0.0, 'textcat_r': 0.0, 'textcat_f': 0}}, 'compatibility': {'tp': 7.0, 'fp': 5.00000001, 'fn': 9.00000001, 'tn': 63.0, 'tot': 16.00000001, 'eval': {'textcat_p': 0.5833333328472222, 'textcat_r': 0.4374999997265625, 'textcat_f': 0.49999999964285724}}, 'security': {'tp': 4.0, 'fp': 6.00000001, 'fn': 8.00000001, 'tn': 66.0, 'tot': 12.00000001, 'eval': {'textcat_p': 0.3999999996, 'textcat_r': 0.3333333330555555, 'textcat_f': 0.3636363633057851}}, 'maintainability': {'tp': 3.0, 'fp': 4.00000001, 'fn': 5.00000001, 'tn': 72.0, 'tot': 8.00000001, 'eval': {'textcat_p': 0.4285714279591837, 'textcat_r': 0.37499999953124996, 'textcat_f': 0.39999999946666664}}, 'eval_global': {'textcat_p': 0.4827586205231867, 'textcat_r': 0.3783783782761139, 'textcat_f': 0.4242424241138659}}",28
29,"{'performance': {'tp': 0.0, 'fp': 1e-08, 'fn': 1.00000001, 'tn': 83.0, 'tot': 1.00000001, 'eval': {'textcat_p': 0.0, 'textcat_r': 0.0, 'textcat_f': 0}}, 'compatibility': {'tp': 7.0, 'fp': 5.00000001, 'fn': 9.00000001, 'tn': 63.0, 'tot': 16.00000001, 'eval': {'textcat_p': 0.5833333328472222, 'textcat_r': 0.4374999997265625, 'textcat_f': 0.49999999964285724}}, 'security': {'tp': 4.0, 'fp': 6.00000001, 'fn': 8.00000001, 'tn': 66.0, 'tot': 12.00000001, 'eval': {'textcat_p': 0.3999999996, 'textcat_r': 0.3333333330555555, 'textcat_f': 0.3636363633057851}}, 'maintainability': {'tp': 3.0, 'fp': 4.00000001, 'fn': 5.00000001, 'tn': 72.0, 'tot': 8.00000001, 'eval': {'textcat_p': 0.4285714279591837, 'textcat_r': 0.37499999953124996, 'textcat_f': 0.39999999946666664}}, 'eval_global': {'textcat_p': 0.4827586205231867, 'textcat_r': 0.3783783782761139, 'textcat_f': 0.4242424241138659}}",29
30,"{'performance': {'tp': 0.0, 'fp': 1e-08, 'fn': 1.00000001, 'tn': 83.0, 'tot': 1.00000001, 'eval': {'textcat_p': 0.0, 'textcat_r': 0.0, 'textcat_f': 0}}, 'compatibility': {'tp': 7.0, 'fp': 5.00000001, 'fn': 9.00000001, 'tn': 63.0, 'tot': 16.00000001, 'eval': {'textcat_p': 0.5833333328472222, 'textcat_r': 0.4374999997265625, 'textcat_f': 0.49999999964285724}}, 'security': {'tp': 4.0, 'fp': 6.00000001, 'fn': 8.00000001, 'tn': 66.0, 'tot': 12.00000001, 'eval': {'textcat_p': 0.3999999996, 'textcat_r': 0.3333333330555555, 'textcat_f': 0.3636363633057851}}, 'maintainability': {'tp': 3.0, 'fp': 4.00000001, 'fn': 5.00000001, 'tn': 72.0, 'tot': 8.00000001, 'eval': {'textcat_p': 0.4285714279591837, 'textcat_r': 0.37499999953124996, 'textcat_f': 0.39999999946666664}}, 'eval_global': {'textcat_p': 0.4827586205231867, 'textcat_r': 0.3783783782761139, 'textcat_f': 0.4242424241138659}}",30
31,"{'performance': {'tp': 0.0, 'fp': 1e-08, 'fn': 1.00000001, 'tn': 83.0, 'tot': 1.00000001, 'eval': {'textcat_p': 0.0, 'textcat_r': 0.0, 'textcat_f': 0}}, 'compatibility': {'tp': 7.0, 'fp': 5.00000001, 'fn': 9.00000001, 'tn': 63.0, 'tot': 16.00000001, 'eval': {'textcat_p': 0.5833333328472222, 'textcat_r': 0.4374999997265625, 'textcat_f': 0.49999999964285724}}, 'security': {'tp': 4.0, 'fp': 6.00000001, 'fn': 8.00000001, 'tn': 66.0, 'tot': 12.00000001, 'eval': {'textcat_p': 0.3999999996, 'textcat_r': 0.3333333330555555, 'textcat_f': 0.3636363633057851}}, 'maintainability': {'tp': 3.0, 'fp': 3.00000001, 'fn': 5.00000001, 'tn': 73.0, 'tot': 8.00000001, 'eval': {'textcat_p': 0.49999999916666665, 'textcat_r': 0.37499999953124996, 'textcat_f': 0.4285714279591836}}, 'eval_global': {'textcat_p': 0.49999999982142856, 'textcat_r': 0.3783783782761139, 'textcat_f': 0.4307692306366864}}",31
32,"{'performance': {'tp': 0.0, 'fp': 1e-08, 'fn': 1.00000001, 'tn': 83.0, 'tot': 1.00000001, 'eval': {'textcat_p': 0.0, 'textcat_r': 0.0, 'textcat_f': 0}}, 'compatibility': {'tp': 7.0, 'fp': 6.00000001, 'fn': 9.00000001, 'tn': 62.0, 'tot': 16.00000001, 'eval': {'textcat_p': 0.5384615380473372, 'textcat_r': 0.4374999997265625, 'textcat_f': 0.4827586203567181}}, 'security': {'tp': 4.0, 'fp': 6.00000001, 'fn': 8.00000001, 'tn': 66.0, 'tot': 12.00000001, 'eval': {'textcat_p': 0.3999999996, 'textcat_r': 0.3333333330555555, 'textcat_f': 0.3636363633057851}}, 'maintainability': {'tp': 3.0, 'fp': 3.00000001, 'fn': 5.00000001, 'tn': 73.0, 'tot': 8.00000001, 'eval': {'textcat_p': 0.49999999916666665, 'textcat_r': 0.37499999953124996, 'textcat_f': 0.4285714279591836}}, 'eval_global': {'textcat_p': 0.4827586205231867, 'textcat_r': 0.3783783782761139, 'textcat_f': 0.4242424241138659}}",32
33,"{'performance': {'tp': 0.0, 'fp': 1e-08, 'fn': 1.00000001, 'tn': 83.0, 'tot': 1.00000001, 'eval': {'textcat_p': 0.0, 'textcat_r': 0.0, 'textcat_f': 0}}, 'compatibility': {'tp': 6.0, 'fp': 6.00000001, 'fn': 10.00000001, 'tn': 62.0, 'tot': 16.00000001, 'eval': {'textcat_p': 0.4999999995833333, 'textcat_r': 0.374999999765625, 'textcat_f': 0.4285714282653061}}, 'security': {'tp': 4.0, 'fp': 7.00000001, 'fn': 8.00000001, 'tn': 65.0, 'tot': 12.00000001, 'eval': {'textcat_p': 0.3636363633057851, 'textcat_r': 0.3333333330555555, 'textcat_f': 0.3478260866540643}}, 'maintainability': {'tp': 2.0, 'fp': 3.00000001, 'fn': 6.00000001, 'tn': 73.0, 'tot': 8.00000001, 'eval': {'textcat_p': 0.3999999992, 'textcat_r': 0.24999999968749997, 'textcat_f': 0.30769230721893487}}, 'eval_global': {'textcat_p': 0.4285714284183673, 'textcat_r': 0.32432432423666907, 'textcat_f': 0.36923076911715974}}",33
34,"{'performance': {'tp': 0.0, 'fp': 1e-08, 'fn': 1.00000001, 'tn': 83.0, 'tot': 1.00000001, 'eval': {'textcat_p': 0.0, 'textcat_r': 0.0, 'textcat_f': 0}}, 'compatibility': {'tp': 6.0, 'fp': 6.00000001, 'fn': 10.00000001, 'tn': 62.0, 'tot': 16.00000001, 'eval': {'textcat_p': 0.4999999995833333, 'textcat_r': 0.374999999765625, 'textcat_f': 0.4285714282653061}}, 'security': {'tp': 4.0, 'fp': 6.00000001, 'fn': 8.00000001, 'tn': 66.0, 'tot': 12.00000001, 'eval': {'textcat_p': 0.3999999996, 'textcat_r': 0.3333333330555555, 'textcat_f': 0.3636363633057851}}, 'maintainability': {'tp': 3.0, 'fp': 3.00000001, 'fn': 5.00000001, 'tn': 73.0, 'tot': 8.00000001, 'eval': {'textcat_p': 0.49999999916666665, 'textcat_r': 0.37499999953124996, 'textcat_f': 0.4285714279591836}}, 'eval_global': {'textcat_p': 0.46428571411989794, 'textcat_r': 0.3513513512563915, 'textcat_f': 0.3999999998769231}}",34
35,"{'performance': {'tp': 0.0, 'fp': 1e-08, 'fn': 1.00000001, 'tn': 83.0, 'tot': 1.00000001, 'eval': {'textcat_p': 0.0, 'textcat_r': 0.0, 'textcat_f': 0}}, 'compatibility': {'tp': 6.0, 'fp': 6.00000001, 'fn': 10.00000001, 'tn': 62.0, 'tot': 16.00000001, 'eval': {'textcat_p': 0.4999999995833333, 'textcat_r': 0.374999999765625, 'textcat_f': 0.4285714282653061}}, 'security': {'tp': 4.0, 'fp': 6.00000001, 'fn': 8.00000001, 'tn': 66.0, 'tot': 12.00000001, 'eval': {'textcat_p': 0.3999999996, 'textcat_r': 0.3333333330555555, 'textcat_f': 0.3636363633057851}}, 'maintainability': {'tp': 3.0, 'fp': 3.00000001, 'fn': 5.00000001, 'tn': 73.0, 'tot': 8.00000001, 'eval': {'textcat_p': 0.49999999916666665, 'textcat_r': 0.37499999953124996, 'textcat_f': 0.4285714279591836}}, 'eval_global': {'textcat_p': 0.46428571411989794, 'textcat_r': 0.3513513512563915, 'textcat_f': 0.3999999998769231}}",35
36,"{'performance': {'tp': 0.0, 'fp': 1e-08, 'fn': 1.00000001, 'tn': 83.0, 'tot': 1.00000001, 'eval': {'textcat_p': 0.0, 'textcat_r': 0.0, 'textcat_f': 0}}, 'compatibility': {'tp': 6.0, 'fp': 6.00000001, 'fn': 10.00000001, 'tn': 62.0, 'tot': 16.00000001, 'eval': {'textcat_p': 0.4999999995833333, 'textcat_r': 0.374999999765625, 'textcat_f': 0.4285714282653061}}, 'security': {'tp': 4.0, 'fp': 6.00000001, 'fn': 8.00000001, 'tn': 66.0, 'tot': 12.00000001, 'eval': {'textcat_p': 0.3999999996, 'textcat_r': 0.3333333330555555, 'textcat_f': 0.3636363633057851}}, 'maintainability': {'tp': 3.0, 'fp': 2.00000001, 'fn': 5.00000001, 'tn': 74.0, 'tot': 8.00000001, 'eval': {'textcat_p': 0.5999999988, 'textcat_r': 0.37499999953124996, 'textcat_f': 0.46153846082840233}}, 'eval_global': {'textcat_p': 0.481481481303155, 'textcat_r': 0.3513513512563915, 'textcat_f': 0.4062499998730469}}",36
37,"{'performance': {'tp': 0.0, 'fp': 1e-08, 'fn': 1.00000001, 'tn': 83.0, 'tot': 1.00000001, 'eval': {'textcat_p': 0.0, 'textcat_r': 0.0, 'textcat_f': 0}}, 'compatibility': {'tp': 6.0, 'fp': 6.00000001, 'fn': 10.00000001, 'tn': 62.0, 'tot': 16.00000001, 'eval': {'textcat_p': 0.4999999995833333, 'textcat_r': 0.374999999765625, 'textcat_f': 0.4285714282653061}}, 'security': {'tp': 4.0, 'fp': 5.00000001, 'fn': 8.00000001, 'tn': 67.0, 'tot': 12.00000001, 'eval': {'textcat_p': 0.4444444439506172, 'textcat_r': 0.3333333330555555, 'textcat_f': 0.38095238058956915}}, 'maintainability': {'tp': 3.0, 'fp': 2.00000001, 'fn': 5.00000001, 'tn': 74.0, 'tot': 8.00000001, 'eval': {'textcat_p': 0.5999999988, 'textcat_r': 0.37499999953124996, 'textcat_f': 0.46153846082840233}}, 'eval_global': {'textcat_p': 0.4999999998076923, 'textcat_r': 0.3513513512563915, 'textcat_f': 0.41269841256739725}}",37
38,"{'performance': {'tp': 0.0, 'fp': 1e-08, 'fn': 1.00000001, 'tn': 83.0, 'tot': 1.00000001, 'eval': {'textcat_p': 0.0, 'textcat_r': 0.0, 'textcat_f': 0}}, 'compatibility': {'tp': 6.0, 'fp': 6.00000001, 'fn': 10.00000001, 'tn': 62.0, 'tot': 16.00000001, 'eval': {'textcat_p': 0.4999999995833333, 'textcat_r': 0.374999999765625, 'textcat_f': 0.4285714282653061}}, 'security': {'tp': 4.0, 'fp': 5.00000001, 'fn': 8.00000001, 'tn': 67.0, 'tot': 12.00000001, 'eval': {'textcat_p': 0.4444444439506172, 'textcat_r': 0.3333333330555555, 'textcat_f': 0.38095238058956915}}, 'maintainability': {'tp': 3.0, 'fp': 1.00000001, 'fn': 5.00000001, 'tn': 75.0, 'tot': 8.00000001, 'eval': {'textcat_p': 0.7499999981250001, 'textcat_r': 0.37499999953124996, 'textcat_f': 0.4999999991666667}}, 'eval_global': {'textcat_p': 0.519999999792, 'textcat_r': 0.3513513512563915, 'textcat_f': 0.41935483857440164}}",38
39,"{'performance': {'tp': 0.0, 'fp': 1e-08, 'fn': 1.00000001, 'tn': 83.0, 'tot': 1.00000001, 'eval': {'textcat_p': 0.0, 'textcat_r': 0.0, 'textcat_f': 0}}, 'compatibility': {'tp': 6.0, 'fp': 6.00000001, 'fn': 10.00000001, 'tn': 62.0, 'tot': 16.00000001, 'eval': {'textcat_p': 0.4999999995833333, 'textcat_r': 0.374999999765625, 'textcat_f': 0.4285714282653061}}, 'security': {'tp': 4.0, 'fp': 4.00000001, 'fn': 8.00000001, 'tn': 68.0, 'tot': 12.00000001, 'eval': {'textcat_p': 0.49999999937499995, 'textcat_r': 0.3333333330555555, 'textcat_f': 0.3999999996}}, 'maintainability': {'tp': 3.0, 'fp': 1.00000001, 'fn': 5.00000001, 'tn': 75.0, 'tot': 8.00000001, 'eval': {'textcat_p': 0.7499999981250001, 'textcat_r': 0.37499999953124996, 'textcat_f': 0.4999999991666667}}, 'eval_global': {'textcat_p': 0.5416666664409722, 'textcat_r': 0.3513513512563915, 'textcat_f': 0.4262295080569739}}",39
40,"{'performance': {'tp': 0.0, 'fp': 1e-08, 'fn': 1.00000001, 'tn': 83.0, 'tot': 1.00000001, 'eval': {'textcat_p': 0.0, 'textcat_r': 0.0, 'textcat_f': 0}}, 'compatibility': {'tp': 6.0, 'fp': 6.00000001, 'fn': 10.00000001, 'tn': 62.0, 'tot': 16.00000001, 'eval': {'textcat_p': 0.4999999995833333, 'textcat_r': 0.374999999765625, 'textcat_f': 0.4285714282653061}}, 'security': {'tp': 4.0, 'fp': 5.00000001, 'fn': 8.00000001, 'tn': 67.0, 'tot': 12.00000001, 'eval': {'textcat_p': 0.4444444439506172, 'textcat_r': 0.3333333330555555, 'textcat_f': 0.38095238058956915}}, 'maintainability': {'tp': 3.0, 'fp': 2.00000001, 'fn': 5.00000001, 'tn': 74.0, 'tot': 8.00000001, 'eval': {'textcat_p': 0.5999999988, 'textcat_r': 0.37499999953124996, 'textcat_f': 0.46153846082840233}}, 'eval_global': {'textcat_p': 0.4999999998076923, 'textcat_r': 0.3513513512563915, 'textcat_f': 0.41269841256739725}}",40
41,"{'performance': {'tp': 0.0, 'fp': 1e-08, 'fn': 1.00000001, 'tn': 83.0, 'tot': 1.00000001, 'eval': {'textcat_p': 0.0, 'textcat_r': 0.0, 'textcat_f': 0}}, 'compatibility': {'tp': 6.0, 'fp': 6.00000001, 'fn': 10.00000001, 'tn': 62.0, 'tot': 16.00000001, 'eval': {'textcat_p': 0.4999999995833333, 'textcat_r': 0.374999999765625, 'textcat_f': 0.4285714282653061}}, 'security': {'tp': 4.0, 'fp': 5.00000001, 'fn': 8.00000001, 'tn': 67.0, 'tot': 12.00000001, 'eval': {'textcat_p': 0.4444444439506172, 'textcat_r': 0.3333333330555555, 'textcat_f': 0.38095238058956915}}, 'maintainability': {'tp': 2.0, 'fp': 2.00000001, 'fn': 6.00000001, 'tn': 74.0, 'tot': 8.00000001, 'eval': {'textcat_p': 0.49999999875, 'textcat_r': 0.24999999968749997, 'textcat_f': 0.33333333277777777}}, 'eval_global': {'textcat_p': 0.479999999808, 'textcat_r': 0.32432432423666907, 'textcat_f': 0.38709677406867843}}",41
42,"{'performance': {'tp': 0.0, 'fp': 1e-08, 'fn': 1.00000001, 'tn': 83.0, 'tot': 1.00000001, 'eval': {'textcat_p': 0.0, 'textcat_r': 0.0, 'textcat_f': 0}}, 'compatibility': {'tp': 6.0, 'fp': 6.00000001, 'fn': 10.00000001, 'tn': 62.0, 'tot': 16.00000001, 'eval': {'textcat_p': 0.4999999995833333, 'textcat_r': 0.374999999765625, 'textcat_f': 0.4285714282653061}}, 'security': {'tp': 4.0, 'fp': 5.00000001, 'fn': 8.00000001, 'tn': 67.0, 'tot': 12.00000001, 'eval': {'textcat_p': 0.4444444439506172, 'textcat_r': 0.3333333330555555, 'textcat_f': 0.38095238058956915}}, 'maintainability': {'tp': 2.0, 'fp': 2.00000001, 'fn': 6.00000001, 'tn': 74.0, 'tot': 8.00000001, 'eval': {'textcat_p': 0.49999999875, 'textcat_r': 0.24999999968749997, 'textcat_f': 0.33333333277777777}}, 'eval_global': {'textcat_p': 0.479999999808, 'textcat_r': 0.32432432423666907, 'textcat_f': 0.38709677406867843}}",42
43,"{'performance': {'tp': 0.0, 'fp': 1e-08, 'fn': 1.00000001, 'tn': 83.0, 'tot': 1.00000001, 'eval': {'textcat_p': 0.0, 'textcat_r': 0.0, 'textcat_f': 0}}, 'compatibility': {'tp': 6.0, 'fp': 6.00000001, 'fn': 10.00000001, 'tn': 62.0, 'tot': 16.00000001, 'eval': {'textcat_p': 0.4999999995833333, 'textcat_r': 0.374999999765625, 'textcat_f': 0.4285714282653061}}, 'security': {'tp': 4.0, 'fp': 5.00000001, 'fn': 8.00000001, 'tn': 67.0, 'tot': 12.00000001, 'eval': {'textcat_p': 0.4444444439506172, 'textcat_r': 0.3333333330555555, 'textcat_f': 0.38095238058956915}}, 'maintainability': {'tp': 2.0, 'fp': 2.00000001, 'fn': 6.00000001, 'tn': 74.0, 'tot': 8.00000001, 'eval': {'textcat_p': 0.49999999875, 'textcat_r': 0.24999999968749997, 'textcat_f': 0.33333333277777777}}, 'eval_global': {'textcat_p': 0.479999999808, 'textcat_r': 0.32432432423666907, 'textcat_f': 0.38709677406867843}}",43
44,"{'performance': {'tp': 1.0, 'fp': 1e-08, 'fn': 1e-08, 'tn': 83.0, 'tot': 1.00000001, 'eval': {'textcat_p': 0.9999999900000002, 'textcat_r': 0.9999999900000002, 'textcat_f': 0.9999999900000002}}, 'compatibility': {'tp': 6.0, 'fp': 6.00000001, 'fn': 10.00000001, 'tn': 62.0, 'tot': 16.00000001, 'eval': {'textcat_p': 0.4999999995833333, 'textcat_r': 0.374999999765625, 'textcat_f': 0.4285714282653061}}, 'security': {'tp': 4.0, 'fp': 5.00000001, 'fn': 8.00000001, 'tn': 67.0, 'tot': 12.00000001, 'eval': {'textcat_p': 0.4444444439506172, 'textcat_r': 0.3333333330555555, 'textcat_f': 0.38095238058956915}}, 'maintainability': {'tp': 2.0, 'fp': 2.00000001, 'fn': 6.00000001, 'tn': 74.0, 'tot': 8.00000001, 'eval': {'textcat_p': 0.49999999875, 'textcat_r': 0.24999999968749997, 'textcat_f': 0.33333333277777777}}, 'eval_global': {'textcat_p': 0.4999999998076923, 'textcat_r': 0.3513513512563915, 'textcat_f': 0.41269841256739725}}",44
45,"{'performance': {'tp': 1.0, 'fp': 1e-08, 'fn': 1e-08, 'tn': 83.0, 'tot': 1.00000001, 'eval': {'textcat_p': 0.9999999900000002, 'textcat_r': 0.9999999900000002, 'textcat_f': 0.9999999900000002}}, 'compatibility': {'tp': 6.0, 'fp': 6.00000001, 'fn': 10.00000001, 'tn': 62.0, 'tot': 16.00000001, 'eval': {'textcat_p': 0.4999999995833333, 'textcat_r': 0.374999999765625, 'textcat_f': 0.4285714282653061}}, 'security': {'tp': 4.0, 'fp': 5.00000001, 'fn': 8.00000001, 'tn': 67.0, 'tot': 12.00000001, 'eval': {'textcat_p': 0.4444444439506172, 'textcat_r': 0.3333333330555555, 'textcat_f': 0.38095238058956915}}, 'maintainability': {'tp': 3.0, 'fp': 2.00000001, 'fn': 5.00000001, 'tn': 74.0, 'tot': 8.00000001, 'eval': {'textcat_p': 0.5999999988, 'textcat_r': 0.37499999953124996, 'textcat_f': 0.46153846082840233}}, 'eval_global': {'textcat_p': 0.5185185183264746, 'textcat_r': 0.3783783782761139, 'textcat_f': 0.4374999998632812}}",45
46,"{'performance': {'tp': 1.0, 'fp': 1e-08, 'fn': 1e-08, 'tn': 83.0, 'tot': 1.00000001, 'eval': {'textcat_p': 0.9999999900000002, 'textcat_r': 0.9999999900000002, 'textcat_f': 0.9999999900000002}}, 'compatibility': {'tp': 6.0, 'fp': 6.00000001, 'fn': 10.00000001, 'tn': 62.0, 'tot': 16.00000001, 'eval': {'textcat_p': 0.4999999995833333, 'textcat_r': 0.374999999765625, 'textcat_f': 0.4285714282653061}}, 'security': {'tp': 4.0, 'fp': 5.00000001, 'fn': 8.00000001, 'tn': 67.0, 'tot': 12.00000001, 'eval': {'textcat_p': 0.4444444439506172, 'textcat_r': 0.3333333330555555, 'textcat_f': 0.38095238058956915}}, 'maintainability': {'tp': 3.0, 'fp': 2.00000001, 'fn': 5.00000001, 'tn': 74.0, 'tot': 8.00000001, 'eval': {'textcat_p': 0.5999999988, 'textcat_r': 0.37499999953124996, 'textcat_f': 0.46153846082840233}}, 'eval_global': {'textcat_p': 0.5185185183264746, 'textcat_r': 0.3783783782761139, 'textcat_f': 0.4374999998632812}}",46
47,"{'performance': {'tp': 1.0, 'fp': 1e-08, 'fn': 1e-08, 'tn': 83.0, 'tot': 1.00000001, 'eval': {'textcat_p': 0.9999999900000002, 'textcat_r': 0.9999999900000002, 'textcat_f': 0.9999999900000002}}, 'compatibility': {'tp': 6.0, 'fp': 6.00000001, 'fn': 10.00000001, 'tn': 62.0, 'tot': 16.00000001, 'eval': {'textcat_p': 0.4999999995833333, 'textcat_r': 0.374999999765625, 'textcat_f': 0.4285714282653061}}, 'security': {'tp': 4.0, 'fp': 5.00000001, 'fn': 8.00000001, 'tn': 67.0, 'tot': 12.00000001, 'eval': {'textcat_p': 0.4444444439506172, 'textcat_r': 0.3333333330555555, 'textcat_f': 0.38095238058956915}}, 'maintainability': {'tp': 3.0, 'fp': 3.00000001, 'fn': 5.00000001, 'tn': 73.0, 'tot': 8.00000001, 'eval': {'textcat_p': 0.49999999916666665, 'textcat_r': 0.37499999953124996, 'textcat_f': 0.4285714279591836}}, 'eval_global': {'textcat_p': 0.49999999982142856, 'textcat_r': 0.3783783782761139, 'textcat_f': 0.4307692306366864}}",47
48,"{'performance': {'tp': 1.0, 'fp': 1e-08, 'fn': 1e-08, 'tn': 83.0, 'tot': 1.00000001, 'eval': {'textcat_p': 0.9999999900000002, 'textcat_r': 0.9999999900000002, 'textcat_f': 0.9999999900000002}}, 'compatibility': {'tp': 6.0, 'fp': 6.00000001, 'fn': 10.00000001, 'tn': 62.0, 'tot': 16.00000001, 'eval': {'textcat_p': 0.4999999995833333, 'textcat_r': 0.374999999765625, 'textcat_f': 0.4285714282653061}}, 'security': {'tp': 3.0, 'fp': 4.00000001, 'fn': 9.00000001, 'tn': 68.0, 'tot': 12.00000001, 'eval': {'textcat_p': 0.4285714279591837, 'textcat_r': 0.24999999979166665, 'textcat_f': 0.3157894733518006}}, 'maintainability': {'tp': 3.0, 'fp': 3.00000001, 'fn': 5.00000001, 'tn': 73.0, 'tot': 8.00000001, 'eval': {'textcat_p': 0.49999999916666665, 'textcat_r': 0.37499999953124996, 'textcat_f': 0.4285714279591836}}, 'eval_global': {'textcat_p': 0.4999999998076923, 'textcat_r': 0.3513513512563915, 'textcat_f': 0.41269841256739725}}",48
49,"{'performance': {'tp': 1.0, 'fp': 1e-08, 'fn': 1e-08, 'tn': 83.0, 'tot': 1.00000001, 'eval': {'textcat_p': 0.9999999900000002, 'textcat_r': 0.9999999900000002, 'textcat_f': 0.9999999900000002}}, 'compatibility': {'tp': 6.0, 'fp': 6.00000001, 'fn': 10.00000001, 'tn': 62.0, 'tot': 16.00000001, 'eval': {'textcat_p': 0.4999999995833333, 'textcat_r': 0.374999999765625, 'textcat_f': 0.4285714282653061}}, 'security': {'tp': 3.0, 'fp': 4.00000001, 'fn': 9.00000001, 'tn': 68.0, 'tot': 12.00000001, 'eval': {'textcat_p': 0.4285714279591837, 'textcat_r': 0.24999999979166665, 'textcat_f': 0.3157894733518006}}, 'maintainability': {'tp': 3.0, 'fp': 3.00000001, 'fn': 5.00000001, 'tn': 73.0, 'tot': 8.00000001, 'eval': {'textcat_p': 0.49999999916666665, 'textcat_r': 0.37499999953124996, 'textcat_f': 0.4285714279591836}}, 'eval_global': {'textcat_p': 0.4999999998076923, 'textcat_r': 0.3513513512563915, 'textcat_f': 0.41269841256739725}}",49
50,"{'performance': {'tp': 1.0, 'fp': 1e-08, 'fn': 1e-08, 'tn': 83.0, 'tot': 1.00000001, 'eval': {'textcat_p': 0.9999999900000002, 'textcat_r': 0.9999999900000002, 'textcat_f': 0.9999999900000002}}, 'compatibility': {'tp': 6.0, 'fp': 6.00000001, 'fn': 10.00000001, 'tn': 62.0, 'tot': 16.00000001, 'eval': {'textcat_p': 0.4999999995833333, 'textcat_r': 0.374999999765625, 'textcat_f': 0.4285714282653061}}, 'security': {'tp': 3.0, 'fp': 4.00000001, 'fn': 9.00000001, 'tn': 68.0, 'tot': 12.00000001, 'eval': {'textcat_p': 0.4285714279591837, 'textcat_r': 0.24999999979166665, 'textcat_f': 0.3157894733518006}}, 'maintainability': {'tp': 3.0, 'fp': 4.00000001, 'fn': 5.00000001, 'tn': 72.0, 'tot': 8.00000001, 'eval': {'textcat_p': 0.4285714279591837, 'textcat_r': 0.37499999953124996, 'textcat_f': 0.39999999946666664}}, 'eval_global': {'textcat_p': 0.481481481303155, 'textcat_r': 0.3513513512563915, 'textcat_f': 0.4062499998730469}}",50
51,"{'performance': {'tp': 1.0, 'fp': 1e-08, 'fn': 1e-08, 'tn': 83.0, 'tot': 1.00000001, 'eval': {'textcat_p': 0.9999999900000002, 'textcat_r': 0.9999999900000002, 'textcat_f': 0.9999999900000002}}, 'compatibility': {'tp': 6.0, 'fp': 6.00000001, 'fn': 10.00000001, 'tn': 62.0, 'tot': 16.00000001, 'eval': {'textcat_p': 0.4999999995833333, 'textcat_r': 0.374999999765625, 'textcat_f': 0.4285714282653061}}, 'security': {'tp': 3.0, 'fp': 4.00000001, 'fn': 9.00000001, 'tn': 68.0, 'tot': 12.00000001, 'eval': {'textcat_p': 0.4285714279591837, 'textcat_r': 0.24999999979166665, 'textcat_f': 0.3157894733518006}}, 'maintainability': {'tp': 3.0, 'fp': 4.00000001, 'fn': 5.00000001, 'tn': 72.0, 'tot': 8.00000001, 'eval': {'textcat_p': 0.4285714279591837, 'textcat_r': 0.37499999953124996, 'textcat_f': 0.39999999946666664}}, 'eval_global': {'textcat_p': 0.481481481303155, 'textcat_r': 0.3513513512563915, 'textcat_f': 0.4062499998730469}}",51
52,"{'performance': {'tp': 1.0, 'fp': 1e-08, 'fn': 1e-08, 'tn': 83.0, 'tot': 1.00000001, 'eval': {'textcat_p': 0.9999999900000002, 'textcat_r': 0.9999999900000002, 'textcat_f': 0.9999999900000002}}, 'compatibility': {'tp': 6.0, 'fp': 6.00000001, 'fn': 10.00000001, 'tn': 62.0, 'tot': 16.00000001, 'eval': {'textcat_p': 0.4999999995833333, 'textcat_r': 0.374999999765625, 'textcat_f': 0.4285714282653061}}, 'security': {'tp': 3.0, 'fp': 4.00000001, 'fn': 9.00000001, 'tn': 68.0, 'tot': 12.00000001, 'eval': {'textcat_p': 0.4285714279591837, 'textcat_r': 0.24999999979166665, 'textcat_f': 0.3157894733518006}}, 'maintainability': {'tp': 3.0, 'fp': 3.00000001, 'fn': 5.00000001, 'tn': 73.0, 'tot': 8.00000001, 'eval': {'textcat_p': 0.49999999916666665, 'textcat_r': 0.37499999953124996, 'textcat_f': 0.4285714279591836}}, 'eval_global': {'textcat_p': 0.4999999998076923, 'textcat_r': 0.3513513512563915, 'textcat_f': 0.41269841256739725}}",52
53,"{'performance': {'tp': 1.0, 'fp': 1e-08, 'fn': 1e-08, 'tn': 83.0, 'tot': 1.00000001, 'eval': {'textcat_p': 0.9999999900000002, 'textcat_r': 0.9999999900000002, 'textcat_f': 0.9999999900000002}}, 'compatibility': {'tp': 6.0, 'fp': 6.00000001, 'fn': 10.00000001, 'tn': 62.0, 'tot': 16.00000001, 'eval': {'textcat_p': 0.4999999995833333, 'textcat_r': 0.374999999765625, 'textcat_f': 0.4285714282653061}}, 'security': {'tp': 3.0, 'fp': 4.00000001, 'fn': 9.00000001, 'tn': 68.0, 'tot': 12.00000001, 'eval': {'textcat_p': 0.4285714279591837, 'textcat_r': 0.24999999979166665, 'textcat_f': 0.3157894733518006}}, 'maintainability': {'tp': 4.0, 'fp': 3.00000001, 'fn': 4.00000001, 'tn': 73.0, 'tot': 8.00000001, 'eval': {'textcat_p': 0.571428570612245, 'textcat_r': 0.49999999937499995, 'textcat_f': 0.5333333326222222}}, 'eval_global': {'textcat_p': 0.5185185183264746, 'textcat_r': 0.3783783782761139, 'textcat_f': 0.4374999998632812}}",53
54,"{'performance': {'tp': 1.0, 'fp': 1e-08, 'fn': 1e-08, 'tn': 83.0, 'tot': 1.00000001, 'eval': {'textcat_p': 0.9999999900000002, 'textcat_r': 0.9999999900000002, 'textcat_f': 0.9999999900000002}}, 'compatibility': {'tp': 6.0, 'fp': 6.00000001, 'fn': 10.00000001, 'tn': 62.0, 'tot': 16.00000001, 'eval': {'textcat_p': 0.4999999995833333, 'textcat_r': 0.374999999765625, 'textcat_f': 0.4285714282653061}}, 'security': {'tp': 3.0, 'fp': 4.00000001, 'fn': 9.00000001, 'tn': 68.0, 'tot': 12.00000001, 'eval': {'textcat_p': 0.4285714279591837, 'textcat_r': 0.24999999979166665, 'textcat_f': 0.3157894733518006}}, 'maintainability': {'tp': 4.0, 'fp': 3.00000001, 'fn': 4.00000001, 'tn': 73.0, 'tot': 8.00000001, 'eval': {'textcat_p': 0.571428570612245, 'textcat_r': 0.49999999937499995, 'textcat_f': 0.5333333326222222}}, 'eval_global': {'textcat_p': 0.5185185183264746, 'textcat_r': 0.3783783782761139, 'textcat_f': 0.4374999998632812}}",54
55,"{'performance': {'tp': 1.0, 'fp': 1e-08, 'fn': 1e-08, 'tn': 83.0, 'tot': 1.00000001, 'eval': {'textcat_p': 0.9999999900000002, 'textcat_r': 0.9999999900000002, 'textcat_f': 0.9999999900000002}}, 'compatibility': {'tp': 6.0, 'fp': 6.00000001, 'fn': 10.00000001, 'tn': 62.0, 'tot': 16.00000001, 'eval': {'textcat_p': 0.4999999995833333, 'textcat_r': 0.374999999765625, 'textcat_f': 0.4285714282653061}}, 'security': {'tp': 3.0, 'fp': 3.00000001, 'fn': 9.00000001, 'tn': 69.0, 'tot': 12.00000001, 'eval': {'textcat_p': 0.49999999916666665, 'textcat_r': 0.24999999979166665, 'textcat_f': 0.33333333296296297}}, 'maintainability': {'tp': 5.0, 'fp': 3.00000001, 'fn': 3.00000001, 'tn': 73.0, 'tot': 8.00000001, 'eval': {'textcat_p': 0.6249999992187499, 'textcat_r': 0.6249999992187499, 'textcat_f': 0.6249999992187499}}, 'eval_global': {'textcat_p': 0.5555555553497942, 'textcat_r': 0.40540540529583635, 'textcat_f': 0.4687499998535156}}",55
56,"{'performance': {'tp': 1.0, 'fp': 1e-08, 'fn': 1e-08, 'tn': 83.0, 'tot': 1.00000001, 'eval': {'textcat_p': 0.9999999900000002, 'textcat_r': 0.9999999900000002, 'textcat_f': 0.9999999900000002}}, 'compatibility': {'tp': 6.0, 'fp': 6.00000001, 'fn': 10.00000001, 'tn': 62.0, 'tot': 16.00000001, 'eval': {'textcat_p': 0.4999999995833333, 'textcat_r': 0.374999999765625, 'textcat_f': 0.4285714282653061}}, 'security': {'tp': 3.0, 'fp': 3.00000001, 'fn': 9.00000001, 'tn': 69.0, 'tot': 12.00000001, 'eval': {'textcat_p': 0.49999999916666665, 'textcat_r': 0.24999999979166665, 'textcat_f': 0.33333333296296297}}, 'maintainability': {'tp': 5.0, 'fp': 3.00000001, 'fn': 3.00000001, 'tn': 73.0, 'tot': 8.00000001, 'eval': {'textcat_p': 0.6249999992187499, 'textcat_r': 0.6249999992187499, 'textcat_f': 0.6249999992187499}}, 'eval_global': {'textcat_p': 0.5555555553497942, 'textcat_r': 0.40540540529583635, 'textcat_f': 0.4687499998535156}}",56
57,"{'performance': {'tp': 1.0, 'fp': 1e-08, 'fn': 1e-08, 'tn': 83.0, 'tot': 1.00000001, 'eval': {'textcat_p': 0.9999999900000002, 'textcat_r': 0.9999999900000002, 'textcat_f': 0.9999999900000002}}, 'compatibility': {'tp': 6.0, 'fp': 6.00000001, 'fn': 10.00000001, 'tn': 62.0, 'tot': 16.00000001, 'eval': {'textcat_p': 0.4999999995833333, 'textcat_r': 0.374999999765625, 'textcat_f': 0.4285714282653061}}, 'security': {'tp': 3.0, 'fp': 3.00000001, 'fn': 9.00000001, 'tn': 69.0, 'tot': 12.00000001, 'eval': {'textcat_p': 0.49999999916666665, 'textcat_r': 0.24999999979166665, 'textcat_f': 0.33333333296296297}}, 'maintainability': {'tp': 5.0, 'fp': 3.00000001, 'fn': 3.00000001, 'tn': 73.0, 'tot': 8.00000001, 'eval': {'textcat_p': 0.6249999992187499, 'textcat_r': 0.6249999992187499, 'textcat_f': 0.6249999992187499}}, 'eval_global': {'textcat_p': 0.5555555553497942, 'textcat_r': 0.40540540529583635, 'textcat_f': 0.4687499998535156}}",57
58,"{'performance': {'tp': 1.0, 'fp': 1e-08, 'fn': 1e-08, 'tn': 83.0, 'tot': 1.00000001, 'eval': {'textcat_p': 0.9999999900000002, 'textcat_r': 0.9999999900000002, 'textcat_f': 0.9999999900000002}}, 'compatibility': {'tp': 6.0, 'fp': 6.00000001, 'fn': 10.00000001, 'tn': 62.0, 'tot': 16.00000001, 'eval': {'textcat_p': 0.4999999995833333, 'textcat_r': 0.374999999765625, 'textcat_f': 0.4285714282653061}}, 'security': {'tp': 3.0, 'fp': 3.00000001, 'fn': 9.00000001, 'tn': 69.0, 'tot': 12.00000001, 'eval': {'textcat_p': 0.49999999916666665, 'textcat_r': 0.24999999979166665, 'textcat_f': 0.33333333296296297}}, 'maintainability': {'tp': 5.0, 'fp': 3.00000001, 'fn': 3.00000001, 'tn': 73.0, 'tot': 8.00000001, 'eval': {'textcat_p': 0.6249999992187499, 'textcat_r': 0.6249999992187499, 'textcat_f': 0.6249999992187499}}, 'eval_global': {'textcat_p': 0.5555555553497942, 'textcat_r': 0.40540540529583635, 'textcat_f': 0.4687499998535156}}",58
59,"{'performance': {'tp': 1.0, 'fp': 1e-08, 'fn': 1e-08, 'tn': 83.0, 'tot': 1.00000001, 'eval': {'textcat_p': 0.9999999900000002, 'textcat_r': 0.9999999900000002, 'textcat_f': 0.9999999900000002}}, 'compatibility': {'tp': 6.0, 'fp': 6.00000001, 'fn': 10.00000001, 'tn': 62.0, 'tot': 16.00000001, 'eval': {'textcat_p': 0.4999999995833333, 'textcat_r': 0.374999999765625, 'textcat_f': 0.4285714282653061}}, 'security': {'tp': 3.0, 'fp': 3.00000001, 'fn': 9.00000001, 'tn': 69.0, 'tot': 12.00000001, 'eval': {'textcat_p': 0.49999999916666665, 'textcat_r': 0.24999999979166665, 'textcat_f': 0.33333333296296297}}, 'maintainability': {'tp': 5.0, 'fp': 3.00000001, 'fn': 3.00000001, 'tn': 73.0, 'tot': 8.00000001, 'eval': {'textcat_p': 0.6249999992187499, 'textcat_r': 0.6249999992187499, 'textcat_f': 0.6249999992187499}}, 'eval_global': {'textcat_p': 0.5555555553497942, 'textcat_r': 0.40540540529583635, 'textcat_f': 0.4687499998535156}}",59
60,"{'performance': {'tp': 1.0, 'fp': 1e-08, 'fn': 1e-08, 'tn': 83.0, 'tot': 1.00000001, 'eval': {'textcat_p': 0.9999999900000002, 'textcat_r': 0.9999999900000002, 'textcat_f': 0.9999999900000002}}, 'compatibility': {'tp': 6.0, 'fp': 6.00000001, 'fn': 10.00000001, 'tn': 62.0, 'tot': 16.00000001, 'eval': {'textcat_p': 0.4999999995833333, 'textcat_r': 0.374999999765625, 'textcat_f': 0.4285714282653061}}, 'security': {'tp': 4.0, 'fp': 2.00000001, 'fn': 8.00000001, 'tn': 70.0, 'tot': 12.00000001, 'eval': {'textcat_p': 0.6666666655555555, 'textcat_r': 0.3333333330555555, 'textcat_f': 0.4444444439506173}}, 'maintainability': {'tp': 5.0, 'fp': 3.00000001, 'fn': 3.00000001, 'tn': 73.0, 'tot': 8.00000001, 'eval': {'textcat_p': 0.6249999992187499, 'textcat_r': 0.6249999992187499, 'textcat_f': 0.6249999992187499}}, 'eval_global': {'textcat_p': 0.5925925923731138, 'textcat_r': 0.4324324323155588, 'textcat_f': 0.49999999984374993}}",60
61,"{'performance': {'tp': 1.0, 'fp': 1e-08, 'fn': 1e-08, 'tn': 83.0, 'tot': 1.00000001, 'eval': {'textcat_p': 0.9999999900000002, 'textcat_r': 0.9999999900000002, 'textcat_f': 0.9999999900000002}}, 'compatibility': {'tp': 6.0, 'fp': 6.00000001, 'fn': 10.00000001, 'tn': 62.0, 'tot': 16.00000001, 'eval': {'textcat_p': 0.4999999995833333, 'textcat_r': 0.374999999765625, 'textcat_f': 0.4285714282653061}}, 'security': {'tp': 4.0, 'fp': 2.00000001, 'fn': 8.00000001, 'tn': 70.0, 'tot': 12.00000001, 'eval': {'textcat_p': 0.6666666655555555, 'textcat_r': 0.3333333330555555, 'textcat_f': 0.4444444439506173}}, 'maintainability': {'tp': 5.0, 'fp': 3.00000001, 'fn': 3.00000001, 'tn': 73.0, 'tot': 8.00000001, 'eval': {'textcat_p': 0.6249999992187499, 'textcat_r': 0.6249999992187499, 'textcat_f': 0.6249999992187499}}, 'eval_global': {'textcat_p': 0.5925925923731138, 'textcat_r': 0.4324324323155588, 'textcat_f': 0.49999999984374993}}",61
62,"{'performance': {'tp': 1.0, 'fp': 1e-08, 'fn': 1e-08, 'tn': 83.0, 'tot': 1.00000001, 'eval': {'textcat_p': 0.9999999900000002, 'textcat_r': 0.9999999900000002, 'textcat_f': 0.9999999900000002}}, 'compatibility': {'tp': 6.0, 'fp': 6.00000001, 'fn': 10.00000001, 'tn': 62.0, 'tot': 16.00000001, 'eval': {'textcat_p': 0.4999999995833333, 'textcat_r': 0.374999999765625, 'textcat_f': 0.4285714282653061}}, 'security': {'tp': 4.0, 'fp': 2.00000001, 'fn': 8.00000001, 'tn': 70.0, 'tot': 12.00000001, 'eval': {'textcat_p': 0.6666666655555555, 'textcat_r': 0.3333333330555555, 'textcat_f': 0.4444444439506173}}, 'maintainability': {'tp': 5.0, 'fp': 3.00000001, 'fn': 3.00000001, 'tn': 73.0, 'tot': 8.00000001, 'eval': {'textcat_p': 0.6249999992187499, 'textcat_r': 0.6249999992187499, 'textcat_f': 0.6249999992187499}}, 'eval_global': {'textcat_p': 0.5925925923731138, 'textcat_r': 0.4324324323155588, 'textcat_f': 0.49999999984374993}}",62
63,"{'performance': {'tp': 1.0, 'fp': 1e-08, 'fn': 1e-08, 'tn': 83.0, 'tot': 1.00000001, 'eval': {'textcat_p': 0.9999999900000002, 'textcat_r': 0.9999999900000002, 'textcat_f': 0.9999999900000002}}, 'compatibility': {'tp': 6.0, 'fp': 6.00000001, 'fn': 10.00000001, 'tn': 62.0, 'tot': 16.00000001, 'eval': {'textcat_p': 0.4999999995833333, 'textcat_r': 0.374999999765625, 'textcat_f': 0.4285714282653061}}, 'security': {'tp': 4.0, 'fp': 2.00000001, 'fn': 8.00000001, 'tn': 70.0, 'tot': 12.00000001, 'eval': {'textcat_p': 0.6666666655555555, 'textcat_r': 0.3333333330555555, 'textcat_f': 0.4444444439506173}}, 'maintainability': {'tp': 5.0, 'fp': 3.00000001, 'fn': 3.00000001, 'tn': 73.0, 'tot': 8.00000001, 'eval': {'textcat_p': 0.6249999992187499, 'textcat_r': 0.6249999992187499, 'textcat_f': 0.6249999992187499}}, 'eval_global': {'textcat_p': 0.5925925923731138, 'textcat_r': 0.4324324323155588, 'textcat_f': 0.49999999984374993}}",63
64,"{'performance': {'tp': 1.0, 'fp': 1e-08, 'fn': 1e-08, 'tn': 83.0, 'tot': 1.00000001, 'eval': {'textcat_p': 0.9999999900000002, 'textcat_r': 0.9999999900000002, 'textcat_f': 0.9999999900000002}}, 'compatibility': {'tp': 6.0, 'fp': 6.00000001, 'fn': 10.00000001, 'tn': 62.0, 'tot': 16.00000001, 'eval': {'textcat_p': 0.4999999995833333, 'textcat_r': 0.374999999765625, 'textcat_f': 0.4285714282653061}}, 'security': {'tp': 4.0, 'fp': 2.00000001, 'fn': 8.00000001, 'tn': 70.0, 'tot': 12.00000001, 'eval': {'textcat_p': 0.6666666655555555, 'textcat_r': 0.3333333330555555, 'textcat_f': 0.4444444439506173}}, 'maintainability': {'tp': 4.0, 'fp': 2.00000001, 'fn': 4.00000001, 'tn': 74.0, 'tot': 8.00000001, 'eval': {'textcat_p': 0.6666666655555555, 'textcat_r': 0.49999999937499995, 'textcat_f': 0.5714285706122448}}, 'eval_global': {'textcat_p': 0.59999999976, 'textcat_r': 0.40540540529583635, 'textcat_f': 0.4838709675858481}}",64
65,"{'performance': {'tp': 1.0, 'fp': 1e-08, 'fn': 1e-08, 'tn': 83.0, 'tot': 1.00000001, 'eval': {'textcat_p': 0.9999999900000002, 'textcat_r': 0.9999999900000002, 'textcat_f': 0.9999999900000002}}, 'compatibility': {'tp': 6.0, 'fp': 6.00000001, 'fn': 10.00000001, 'tn': 62.0, 'tot': 16.00000001, 'eval': {'textcat_p': 0.4999999995833333, 'textcat_r': 0.374999999765625, 'textcat_f': 0.4285714282653061}}, 'security': {'tp': 4.0, 'fp': 2.00000001, 'fn': 8.00000001, 'tn': 70.0, 'tot': 12.00000001, 'eval': {'textcat_p': 0.6666666655555555, 'textcat_r': 0.3333333330555555, 'textcat_f': 0.4444444439506173}}, 'maintainability': {'tp': 4.0, 'fp': 2.00000001, 'fn': 4.00000001, 'tn': 74.0, 'tot': 8.00000001, 'eval': {'textcat_p': 0.6666666655555555, 'textcat_r': 0.49999999937499995, 'textcat_f': 0.5714285706122448}}, 'eval_global': {'textcat_p': 0.59999999976, 'textcat_r': 0.40540540529583635, 'textcat_f': 0.4838709675858481}}",65
66,"{'performance': {'tp': 1.0, 'fp': 1e-08, 'fn': 1e-08, 'tn': 83.0, 'tot': 1.00000001, 'eval': {'textcat_p': 0.9999999900000002, 'textcat_r': 0.9999999900000002, 'textcat_f': 0.9999999900000002}}, 'compatibility': {'tp': 6.0, 'fp': 6.00000001, 'fn': 10.00000001, 'tn': 62.0, 'tot': 16.00000001, 'eval': {'textcat_p': 0.4999999995833333, 'textcat_r': 0.374999999765625, 'textcat_f': 0.4285714282653061}}, 'security': {'tp': 4.0, 'fp': 2.00000001, 'fn': 8.00000001, 'tn': 70.0, 'tot': 12.00000001, 'eval': {'textcat_p': 0.6666666655555555, 'textcat_r': 0.3333333330555555, 'textcat_f': 0.4444444439506173}}, 'maintainability': {'tp': 4.0, 'fp': 2.00000001, 'fn': 4.00000001, 'tn': 74.0, 'tot': 8.00000001, 'eval': {'textcat_p': 0.6666666655555555, 'textcat_r': 0.49999999937499995, 'textcat_f': 0.5714285706122448}}, 'eval_global': {'textcat_p': 0.59999999976, 'textcat_r': 0.40540540529583635, 'textcat_f': 0.4838709675858481}}",66
67,"{'performance': {'tp': 1.0, 'fp': 1e-08, 'fn': 1e-08, 'tn': 83.0, 'tot': 1.00000001, 'eval': {'textcat_p': 0.9999999900000002, 'textcat_r': 0.9999999900000002, 'textcat_f': 0.9999999900000002}}, 'compatibility': {'tp': 6.0, 'fp': 6.00000001, 'fn': 10.00000001, 'tn': 62.0, 'tot': 16.00000001, 'eval': {'textcat_p': 0.4999999995833333, 'textcat_r': 0.374999999765625, 'textcat_f': 0.4285714282653061}}, 'security': {'tp': 4.0, 'fp': 2.00000001, 'fn': 8.00000001, 'tn': 70.0, 'tot': 12.00000001, 'eval': {'textcat_p': 0.6666666655555555, 'textcat_r': 0.3333333330555555, 'textcat_f': 0.4444444439506173}}, 'maintainability': {'tp': 4.0, 'fp': 1.00000001, 'fn': 4.00000001, 'tn': 75.0, 'tot': 8.00000001, 'eval': {'textcat_p': 0.7999999984, 'textcat_r': 0.49999999937499995, 'textcat_f': 0.6153846144378697}}, 'eval_global': {'textcat_p': 0.6249999997395833, 'textcat_r': 0.40540540529583635, 'textcat_f': 0.4918032785272776}}",67
68,"{'performance': {'tp': 1.0, 'fp': 1e-08, 'fn': 1e-08, 'tn': 83.0, 'tot': 1.00000001, 'eval': {'textcat_p': 0.9999999900000002, 'textcat_r': 0.9999999900000002, 'textcat_f': 0.9999999900000002}}, 'compatibility': {'tp': 6.0, 'fp': 6.00000001, 'fn': 10.00000001, 'tn': 62.0, 'tot': 16.00000001, 'eval': {'textcat_p': 0.4999999995833333, 'textcat_r': 0.374999999765625, 'textcat_f': 0.4285714282653061}}, 'security': {'tp': 4.0, 'fp': 2.00000001, 'fn': 8.00000001, 'tn': 70.0, 'tot': 12.00000001, 'eval': {'textcat_p': 0.6666666655555555, 'textcat_r': 0.3333333330555555, 'textcat_f': 0.4444444439506173}}, 'maintainability': {'tp': 4.0, 'fp': 1.00000001, 'fn': 4.00000001, 'tn': 75.0, 'tot': 8.00000001, 'eval': {'textcat_p': 0.7999999984, 'textcat_r': 0.49999999937499995, 'textcat_f': 0.6153846144378697}}, 'eval_global': {'textcat_p': 0.6249999997395833, 'textcat_r': 0.40540540529583635, 'textcat_f': 0.4918032785272776}}",68
69,"{'performance': {'tp': 1.0, 'fp': 1e-08, 'fn': 1e-08, 'tn': 83.0, 'tot': 1.00000001, 'eval': {'textcat_p': 0.9999999900000002, 'textcat_r': 0.9999999900000002, 'textcat_f': 0.9999999900000002}}, 'compatibility': {'tp': 6.0, 'fp': 7.00000001, 'fn': 10.00000001, 'tn': 61.0, 'tot': 16.00000001, 'eval': {'textcat_p': 0.46153846118343195, 'textcat_r': 0.374999999765625, 'textcat_f': 0.4137931031629013}}, 'security': {'tp': 4.0, 'fp': 2.00000001, 'fn': 8.00000001, 'tn': 70.0, 'tot': 12.00000001, 'eval': {'textcat_p': 0.6666666655555555, 'textcat_r': 0.3333333330555555, 'textcat_f': 0.4444444439506173}}, 'maintainability': {'tp': 4.0, 'fp': 1.00000001, 'fn': 4.00000001, 'tn': 75.0, 'tot': 8.00000001, 'eval': {'textcat_p': 0.7999999984, 'textcat_r': 0.49999999937499995, 'textcat_f': 0.6153846144378697}}, 'eval_global': {'textcat_p': 0.59999999976, 'textcat_r': 0.40540540529583635, 'textcat_f': 0.4838709675858481}}",69
70,"{'performance': {'tp': 1.0, 'fp': 1e-08, 'fn': 1e-08, 'tn': 83.0, 'tot': 1.00000001, 'eval': {'textcat_p': 0.9999999900000002, 'textcat_r': 0.9999999900000002, 'textcat_f': 0.9999999900000002}}, 'compatibility': {'tp': 6.0, 'fp': 7.00000001, 'fn': 10.00000001, 'tn': 61.0, 'tot': 16.00000001, 'eval': {'textcat_p': 0.46153846118343195, 'textcat_r': 0.374999999765625, 'textcat_f': 0.4137931031629013}}, 'security': {'tp': 4.0, 'fp': 2.00000001, 'fn': 8.00000001, 'tn': 70.0, 'tot': 12.00000001, 'eval': {'textcat_p': 0.6666666655555555, 'textcat_r': 0.3333333330555555, 'textcat_f': 0.4444444439506173}}, 'maintainability': {'tp': 4.0, 'fp': 1.00000001, 'fn': 4.00000001, 'tn': 75.0, 'tot': 8.00000001, 'eval': {'textcat_p': 0.7999999984, 'textcat_r': 0.49999999937499995, 'textcat_f': 0.6153846144378697}}, 'eval_global': {'textcat_p': 0.59999999976, 'textcat_r': 0.40540540529583635, 'textcat_f': 0.4838709675858481}}",70
71,"{'performance': {'tp': 1.0, 'fp': 1e-08, 'fn': 1e-08, 'tn': 83.0, 'tot': 1.00000001, 'eval': {'textcat_p': 0.9999999900000002, 'textcat_r': 0.9999999900000002, 'textcat_f': 0.9999999900000002}}, 'compatibility': {'tp': 6.0, 'fp': 7.00000001, 'fn': 10.00000001, 'tn': 61.0, 'tot': 16.00000001, 'eval': {'textcat_p': 0.46153846118343195, 'textcat_r': 0.374999999765625, 'textcat_f': 0.4137931031629013}}, 'security': {'tp': 4.0, 'fp': 2.00000001, 'fn': 8.00000001, 'tn': 70.0, 'tot': 12.00000001, 'eval': {'textcat_p': 0.6666666655555555, 'textcat_r': 0.3333333330555555, 'textcat_f': 0.4444444439506173}}, 'maintainability': {'tp': 5.0, 'fp': 2.00000001, 'fn': 3.00000001, 'tn': 74.0, 'tot': 8.00000001, 'eval': {'textcat_p': 0.7142857132653061, 'textcat_r': 0.6249999992187499, 'textcat_f': 0.6666666657777777}}, 'eval_global': {'textcat_p': 0.5925925923731138, 'textcat_r': 0.4324324323155588, 'textcat_f': 0.49999999984374993}}",71
72,"{'performance': {'tp': 1.0, 'fp': 1e-08, 'fn': 1e-08, 'tn': 83.0, 'tot': 1.00000001, 'eval': {'textcat_p': 0.9999999900000002, 'textcat_r': 0.9999999900000002, 'textcat_f': 0.9999999900000002}}, 'compatibility': {'tp': 6.0, 'fp': 7.00000001, 'fn': 10.00000001, 'tn': 61.0, 'tot': 16.00000001, 'eval': {'textcat_p': 0.46153846118343195, 'textcat_r': 0.374999999765625, 'textcat_f': 0.4137931031629013}}, 'security': {'tp': 4.0, 'fp': 3.00000001, 'fn': 8.00000001, 'tn': 69.0, 'tot': 12.00000001, 'eval': {'textcat_p': 0.571428570612245, 'textcat_r': 0.3333333330555555, 'textcat_f': 0.421052631135734}}, 'maintainability': {'tp': 5.0, 'fp': 2.00000001, 'fn': 3.00000001, 'tn': 74.0, 'tot': 8.00000001, 'eval': {'textcat_p': 0.7142857132653061, 'textcat_r': 0.6249999992187499, 'textcat_f': 0.6666666657777777}}, 'eval_global': {'textcat_p': 0.5714285712244898, 'textcat_r': 0.4324324323155588, 'textcat_f': 0.49230769215621295}}",72
73,"{'performance': {'tp': 1.0, 'fp': 1e-08, 'fn': 1e-08, 'tn': 83.0, 'tot': 1.00000001, 'eval': {'textcat_p': 0.9999999900000002, 'textcat_r': 0.9999999900000002, 'textcat_f': 0.9999999900000002}}, 'compatibility': {'tp': 6.0, 'fp': 7.00000001, 'fn': 10.00000001, 'tn': 61.0, 'tot': 16.00000001, 'eval': {'textcat_p': 0.46153846118343195, 'textcat_r': 0.374999999765625, 'textcat_f': 0.4137931031629013}}, 'security': {'tp': 4.0, 'fp': 3.00000001, 'fn': 8.00000001, 'tn': 69.0, 'tot': 12.00000001, 'eval': {'textcat_p': 0.571428570612245, 'textcat_r': 0.3333333330555555, 'textcat_f': 0.421052631135734}}, 'maintainability': {'tp': 5.0, 'fp': 2.00000001, 'fn': 3.00000001, 'tn': 74.0, 'tot': 8.00000001, 'eval': {'textcat_p': 0.7142857132653061, 'textcat_r': 0.6249999992187499, 'textcat_f': 0.6666666657777777}}, 'eval_global': {'textcat_p': 0.5714285712244898, 'textcat_r': 0.4324324323155588, 'textcat_f': 0.49230769215621295}}",73
74,"{'performance': {'tp': 1.0, 'fp': 1e-08, 'fn': 1e-08, 'tn': 83.0, 'tot': 1.00000001, 'eval': {'textcat_p': 0.9999999900000002, 'textcat_r': 0.9999999900000002, 'textcat_f': 0.9999999900000002}}, 'compatibility': {'tp': 6.0, 'fp': 7.00000001, 'fn': 10.00000001, 'tn': 61.0, 'tot': 16.00000001, 'eval': {'textcat_p': 0.46153846118343195, 'textcat_r': 0.374999999765625, 'textcat_f': 0.4137931031629013}}, 'security': {'tp': 4.0, 'fp': 3.00000001, 'fn': 8.00000001, 'tn': 69.0, 'tot': 12.00000001, 'eval': {'textcat_p': 0.571428570612245, 'textcat_r': 0.3333333330555555, 'textcat_f': 0.421052631135734}}, 'maintainability': {'tp': 5.0, 'fp': 2.00000001, 'fn': 3.00000001, 'tn': 74.0, 'tot': 8.00000001, 'eval': {'textcat_p': 0.7142857132653061, 'textcat_r': 0.6249999992187499, 'textcat_f': 0.6666666657777777}}, 'eval_global': {'textcat_p': 0.5714285712244898, 'textcat_r': 0.4324324323155588, 'textcat_f': 0.49230769215621295}}",74
75,"{'performance': {'tp': 1.0, 'fp': 1e-08, 'fn': 1e-08, 'tn': 83.0, 'tot': 1.00000001, 'eval': {'textcat_p': 0.9999999900000002, 'textcat_r': 0.9999999900000002, 'textcat_f': 0.9999999900000002}}, 'compatibility': {'tp': 6.0, 'fp': 7.00000001, 'fn': 10.00000001, 'tn': 61.0, 'tot': 16.00000001, 'eval': {'textcat_p': 0.46153846118343195, 'textcat_r': 0.374999999765625, 'textcat_f': 0.4137931031629013}}, 'security': {'tp': 4.0, 'fp': 3.00000001, 'fn': 8.00000001, 'tn': 69.0, 'tot': 12.00000001, 'eval': {'textcat_p': 0.571428570612245, 'textcat_r': 0.3333333330555555, 'textcat_f': 0.421052631135734}}, 'maintainability': {'tp': 4.0, 'fp': 2.00000001, 'fn': 4.00000001, 'tn': 74.0, 'tot': 8.00000001, 'eval': {'textcat_p': 0.6666666655555555, 'textcat_r': 0.49999999937499995, 'textcat_f': 0.5714285706122448}}, 'eval_global': {'textcat_p': 0.5555555553497942, 'textcat_r': 0.40540540529583635, 'textcat_f': 0.4687499998535156}}",75
76,"{'performance': {'tp': 1.0, 'fp': 1e-08, 'fn': 1e-08, 'tn': 83.0, 'tot': 1.00000001, 'eval': {'textcat_p': 0.9999999900000002, 'textcat_r': 0.9999999900000002, 'textcat_f': 0.9999999900000002}}, 'compatibility': {'tp': 6.0, 'fp': 7.00000001, 'fn': 10.00000001, 'tn': 61.0, 'tot': 16.00000001, 'eval': {'textcat_p': 0.46153846118343195, 'textcat_r': 0.374999999765625, 'textcat_f': 0.4137931031629013}}, 'security': {'tp': 4.0, 'fp': 3.00000001, 'fn': 8.00000001, 'tn': 69.0, 'tot': 12.00000001, 'eval': {'textcat_p': 0.571428570612245, 'textcat_r': 0.3333333330555555, 'textcat_f': 0.421052631135734}}, 'maintainability': {'tp': 4.0, 'fp': 2.00000001, 'fn': 4.00000001, 'tn': 74.0, 'tot': 8.00000001, 'eval': {'textcat_p': 0.6666666655555555, 'textcat_r': 0.49999999937499995, 'textcat_f': 0.5714285706122448}}, 'eval_global': {'textcat_p': 0.5555555553497942, 'textcat_r': 0.40540540529583635, 'textcat_f': 0.4687499998535156}}",76
77,"{'performance': {'tp': 1.0, 'fp': 1e-08, 'fn': 1e-08, 'tn': 83.0, 'tot': 1.00000001, 'eval': {'textcat_p': 0.9999999900000002, 'textcat_r': 0.9999999900000002, 'textcat_f': 0.9999999900000002}}, 'compatibility': {'tp': 6.0, 'fp': 7.00000001, 'fn': 10.00000001, 'tn': 61.0, 'tot': 16.00000001, 'eval': {'textcat_p': 0.46153846118343195, 'textcat_r': 0.374999999765625, 'textcat_f': 0.4137931031629013}}, 'security': {'tp': 4.0, 'fp': 3.00000001, 'fn': 8.00000001, 'tn': 69.0, 'tot': 12.00000001, 'eval': {'textcat_p': 0.571428570612245, 'textcat_r': 0.3333333330555555, 'textcat_f': 0.421052631135734}}, 'maintainability': {'tp': 4.0, 'fp': 2.00000001, 'fn': 4.00000001, 'tn': 74.0, 'tot': 8.00000001, 'eval': {'textcat_p': 0.6666666655555555, 'textcat_r': 0.49999999937499995, 'textcat_f': 0.5714285706122448}}, 'eval_global': {'textcat_p': 0.5555555553497942, 'textcat_r': 0.40540540529583635, 'textcat_f': 0.4687499998535156}}",77
78,"{'performance': {'tp': 1.0, 'fp': 1e-08, 'fn': 1e-08, 'tn': 83.0, 'tot': 1.00000001, 'eval': {'textcat_p': 0.9999999900000002, 'textcat_r': 0.9999999900000002, 'textcat_f': 0.9999999900000002}}, 'compatibility': {'tp': 6.0, 'fp': 6.00000001, 'fn': 10.00000001, 'tn': 62.0, 'tot': 16.00000001, 'eval': {'textcat_p': 0.4999999995833333, 'textcat_r': 0.374999999765625, 'textcat_f': 0.4285714282653061}}, 'security': {'tp': 4.0, 'fp': 4.00000001, 'fn': 8.00000001, 'tn': 68.0, 'tot': 12.00000001, 'eval': {'textcat_p': 0.49999999937499995, 'textcat_r': 0.3333333330555555, 'textcat_f': 0.3999999996}}, 'maintainability': {'tp': 4.0, 'fp': 2.00000001, 'fn': 4.00000001, 'tn': 74.0, 'tot': 8.00000001, 'eval': {'textcat_p': 0.6666666655555555, 'textcat_r': 0.49999999937499995, 'textcat_f': 0.5714285706122448}}, 'eval_global': {'textcat_p': 0.5555555553497942, 'textcat_r': 0.40540540529583635, 'textcat_f': 0.4687499998535156}}",78
79,"{'performance': {'tp': 1.0, 'fp': 1e-08, 'fn': 1e-08, 'tn': 83.0, 'tot': 1.00000001, 'eval': {'textcat_p': 0.9999999900000002, 'textcat_r': 0.9999999900000002, 'textcat_f': 0.9999999900000002}}, 'compatibility': {'tp': 6.0, 'fp': 6.00000001, 'fn': 10.00000001, 'tn': 62.0, 'tot': 16.00000001, 'eval': {'textcat_p': 0.4999999995833333, 'textcat_r': 0.374999999765625, 'textcat_f': 0.4285714282653061}}, 'security': {'tp': 4.0, 'fp': 4.00000001, 'fn': 8.00000001, 'tn': 68.0, 'tot': 12.00000001, 'eval': {'textcat_p': 0.49999999937499995, 'textcat_r': 0.3333333330555555, 'textcat_f': 0.3999999996}}, 'maintainability': {'tp': 3.0, 'fp': 2.00000001, 'fn': 5.00000001, 'tn': 74.0, 'tot': 8.00000001, 'eval': {'textcat_p': 0.5999999988, 'textcat_r': 0.37499999953124996, 'textcat_f': 0.46153846082840233}}, 'eval_global': {'textcat_p': 0.5384615382544379, 'textcat_r': 0.3783783782761139, 'textcat_f': 0.4444444443033509}}",79
80,"{'performance': {'tp': 1.0, 'fp': 1e-08, 'fn': 1e-08, 'tn': 83.0, 'tot': 1.00000001, 'eval': {'textcat_p': 0.9999999900000002, 'textcat_r': 0.9999999900000002, 'textcat_f': 0.9999999900000002}}, 'compatibility': {'tp': 6.0, 'fp': 6.00000001, 'fn': 10.00000001, 'tn': 62.0, 'tot': 16.00000001, 'eval': {'textcat_p': 0.4999999995833333, 'textcat_r': 0.374999999765625, 'textcat_f': 0.4285714282653061}}, 'security': {'tp': 5.0, 'fp': 5.00000001, 'fn': 7.00000001, 'tn': 67.0, 'tot': 12.00000001, 'eval': {'textcat_p': 0.49999999949999996, 'textcat_r': 0.41666666631944443, 'textcat_f': 0.45454545413223135}}, 'maintainability': {'tp': 3.0, 'fp': 2.00000001, 'fn': 5.00000001, 'tn': 74.0, 'tot': 8.00000001, 'eval': {'textcat_p': 0.5999999988, 'textcat_r': 0.37499999953124996, 'textcat_f': 0.46153846082840233}}, 'eval_global': {'textcat_p': 0.5357142855229592, 'textcat_r': 0.40540540529583635, 'textcat_f': 0.46153846139644966}}",80
81,"{'performance': {'tp': 1.0, 'fp': 1e-08, 'fn': 1e-08, 'tn': 83.0, 'tot': 1.00000001, 'eval': {'textcat_p': 0.9999999900000002, 'textcat_r': 0.9999999900000002, 'textcat_f': 0.9999999900000002}}, 'compatibility': {'tp': 6.0, 'fp': 6.00000001, 'fn': 10.00000001, 'tn': 62.0, 'tot': 16.00000001, 'eval': {'textcat_p': 0.4999999995833333, 'textcat_r': 0.374999999765625, 'textcat_f': 0.4285714282653061}}, 'security': {'tp': 5.0, 'fp': 5.00000001, 'fn': 7.00000001, 'tn': 67.0, 'tot': 12.00000001, 'eval': {'textcat_p': 0.49999999949999996, 'textcat_r': 0.41666666631944443, 'textcat_f': 0.45454545413223135}}, 'maintainability': {'tp': 3.0, 'fp': 2.00000001, 'fn': 5.00000001, 'tn': 74.0, 'tot': 8.00000001, 'eval': {'textcat_p': 0.5999999988, 'textcat_r': 0.37499999953124996, 'textcat_f': 0.46153846082840233}}, 'eval_global': {'textcat_p': 0.5357142855229592, 'textcat_r': 0.40540540529583635, 'textcat_f': 0.46153846139644966}}",81
82,"{'performance': {'tp': 1.0, 'fp': 1e-08, 'fn': 1e-08, 'tn': 83.0, 'tot': 1.00000001, 'eval': {'textcat_p': 0.9999999900000002, 'textcat_r': 0.9999999900000002, 'textcat_f': 0.9999999900000002}}, 'compatibility': {'tp': 6.0, 'fp': 6.00000001, 'fn': 10.00000001, 'tn': 62.0, 'tot': 16.00000001, 'eval': {'textcat_p': 0.4999999995833333, 'textcat_r': 0.374999999765625, 'textcat_f': 0.4285714282653061}}, 'security': {'tp': 5.0, 'fp': 4.00000001, 'fn': 7.00000001, 'tn': 68.0, 'tot': 12.00000001, 'eval': {'textcat_p': 0.5555555549382716, 'textcat_r': 0.41666666631944443, 'textcat_f': 0.4761904757369614}}, 'maintainability': {'tp': 3.0, 'fp': 2.00000001, 'fn': 5.00000001, 'tn': 74.0, 'tot': 8.00000001, 'eval': {'textcat_p': 0.5999999988, 'textcat_r': 0.37499999953124996, 'textcat_f': 0.46153846082840233}}, 'eval_global': {'textcat_p': 0.5555555553497942, 'textcat_r': 0.40540540529583635, 'textcat_f': 0.4687499998535156}}",82
83,"{'performance': {'tp': 1.0, 'fp': 1e-08, 'fn': 1e-08, 'tn': 83.0, 'tot': 1.00000001, 'eval': {'textcat_p': 0.9999999900000002, 'textcat_r': 0.9999999900000002, 'textcat_f': 0.9999999900000002}}, 'compatibility': {'tp': 6.0, 'fp': 6.00000001, 'fn': 10.00000001, 'tn': 62.0, 'tot': 16.00000001, 'eval': {'textcat_p': 0.4999999995833333, 'textcat_r': 0.374999999765625, 'textcat_f': 0.4285714282653061}}, 'security': {'tp': 5.0, 'fp': 4.00000001, 'fn': 7.00000001, 'tn': 68.0, 'tot': 12.00000001, 'eval': {'textcat_p': 0.5555555549382716, 'textcat_r': 0.41666666631944443, 'textcat_f': 0.4761904757369614}}, 'maintainability': {'tp': 3.0, 'fp': 1.00000001, 'fn': 5.00000001, 'tn': 75.0, 'tot': 8.00000001, 'eval': {'textcat_p': 0.7499999981250001, 'textcat_r': 0.37499999953124996, 'textcat_f': 0.4999999991666667}}, 'eval_global': {'textcat_p': 0.5769230767011834, 'textcat_r': 0.40540540529583635, 'textcat_f': 0.47619047603930453}}",83
84,"{'performance': {'tp': 1.0, 'fp': 1e-08, 'fn': 1e-08, 'tn': 83.0, 'tot': 1.00000001, 'eval': {'textcat_p': 0.9999999900000002, 'textcat_r': 0.9999999900000002, 'textcat_f': 0.9999999900000002}}, 'compatibility': {'tp': 6.0, 'fp': 6.00000001, 'fn': 10.00000001, 'tn': 62.0, 'tot': 16.00000001, 'eval': {'textcat_p': 0.4999999995833333, 'textcat_r': 0.374999999765625, 'textcat_f': 0.4285714282653061}}, 'security': {'tp': 5.0, 'fp': 4.00000001, 'fn': 7.00000001, 'tn': 68.0, 'tot': 12.00000001, 'eval': {'textcat_p': 0.5555555549382716, 'textcat_r': 0.41666666631944443, 'textcat_f': 0.4761904757369614}}, 'maintainability': {'tp': 3.0, 'fp': 1.00000001, 'fn': 5.00000001, 'tn': 75.0, 'tot': 8.00000001, 'eval': {'textcat_p': 0.7499999981250001, 'textcat_r': 0.37499999953124996, 'textcat_f': 0.4999999991666667}}, 'eval_global': {'textcat_p': 0.5769230767011834, 'textcat_r': 0.40540540529583635, 'textcat_f': 0.47619047603930453}}",84
85,"{'performance': {'tp': 1.0, 'fp': 1e-08, 'fn': 1e-08, 'tn': 83.0, 'tot': 1.00000001, 'eval': {'textcat_p': 0.9999999900000002, 'textcat_r': 0.9999999900000002, 'textcat_f': 0.9999999900000002}}, 'compatibility': {'tp': 6.0, 'fp': 6.00000001, 'fn': 10.00000001, 'tn': 62.0, 'tot': 16.00000001, 'eval': {'textcat_p': 0.4999999995833333, 'textcat_r': 0.374999999765625, 'textcat_f': 0.4285714282653061}}, 'security': {'tp': 5.0, 'fp': 4.00000001, 'fn': 7.00000001, 'tn': 68.0, 'tot': 12.00000001, 'eval': {'textcat_p': 0.5555555549382716, 'textcat_r': 0.41666666631944443, 'textcat_f': 0.4761904757369614}}, 'maintainability': {'tp': 3.0, 'fp': 1.00000001, 'fn': 5.00000001, 'tn': 75.0, 'tot': 8.00000001, 'eval': {'textcat_p': 0.7499999981250001, 'textcat_r': 0.37499999953124996, 'textcat_f': 0.4999999991666667}}, 'eval_global': {'textcat_p': 0.5769230767011834, 'textcat_r': 0.40540540529583635, 'textcat_f': 0.47619047603930453}}",85
86,"{'performance': {'tp': 1.0, 'fp': 1e-08, 'fn': 1e-08, 'tn': 83.0, 'tot': 1.00000001, 'eval': {'textcat_p': 0.9999999900000002, 'textcat_r': 0.9999999900000002, 'textcat_f': 0.9999999900000002}}, 'compatibility': {'tp': 6.0, 'fp': 6.00000001, 'fn': 10.00000001, 'tn': 62.0, 'tot': 16.00000001, 'eval': {'textcat_p': 0.4999999995833333, 'textcat_r': 0.374999999765625, 'textcat_f': 0.4285714282653061}}, 'security': {'tp': 4.0, 'fp': 4.00000001, 'fn': 8.00000001, 'tn': 68.0, 'tot': 12.00000001, 'eval': {'textcat_p': 0.49999999937499995, 'textcat_r': 0.3333333330555555, 'textcat_f': 0.3999999996}}, 'maintainability': {'tp': 3.0, 'fp': 1.00000001, 'fn': 5.00000001, 'tn': 75.0, 'tot': 8.00000001, 'eval': {'textcat_p': 0.7499999981250001, 'textcat_r': 0.37499999953124996, 'textcat_f': 0.4999999991666667}}, 'eval_global': {'textcat_p': 0.559999999776, 'textcat_r': 0.3783783782761139, 'textcat_f': 0.45161290308012486}}",86
87,"{'performance': {'tp': 1.0, 'fp': 1e-08, 'fn': 1e-08, 'tn': 83.0, 'tot': 1.00000001, 'eval': {'textcat_p': 0.9999999900000002, 'textcat_r': 0.9999999900000002, 'textcat_f': 0.9999999900000002}}, 'compatibility': {'tp': 6.0, 'fp': 6.00000001, 'fn': 10.00000001, 'tn': 62.0, 'tot': 16.00000001, 'eval': {'textcat_p': 0.4999999995833333, 'textcat_r': 0.374999999765625, 'textcat_f': 0.4285714282653061}}, 'security': {'tp': 4.0, 'fp': 4.00000001, 'fn': 8.00000001, 'tn': 68.0, 'tot': 12.00000001, 'eval': {'textcat_p': 0.49999999937499995, 'textcat_r': 0.3333333330555555, 'textcat_f': 0.3999999996}}, 'maintainability': {'tp': 3.0, 'fp': 1.00000001, 'fn': 5.00000001, 'tn': 75.0, 'tot': 8.00000001, 'eval': {'textcat_p': 0.7499999981250001, 'textcat_r': 0.37499999953124996, 'textcat_f': 0.4999999991666667}}, 'eval_global': {'textcat_p': 0.559999999776, 'textcat_r': 0.3783783782761139, 'textcat_f': 0.45161290308012486}}",87
88,"{'performance': {'tp': 1.0, 'fp': 1e-08, 'fn': 1e-08, 'tn': 83.0, 'tot': 1.00000001, 'eval': {'textcat_p': 0.9999999900000002, 'textcat_r': 0.9999999900000002, 'textcat_f': 0.9999999900000002}}, 'compatibility': {'tp': 6.0, 'fp': 6.00000001, 'fn': 10.00000001, 'tn': 62.0, 'tot': 16.00000001, 'eval': {'textcat_p': 0.4999999995833333, 'textcat_r': 0.374999999765625, 'textcat_f': 0.4285714282653061}}, 'security': {'tp': 4.0, 'fp': 3.00000001, 'fn': 8.00000001, 'tn': 69.0, 'tot': 12.00000001, 'eval': {'textcat_p': 0.571428570612245, 'textcat_r': 0.3333333330555555, 'textcat_f': 0.421052631135734}}, 'maintainability': {'tp': 3.0, 'fp': 1.00000001, 'fn': 5.00000001, 'tn': 75.0, 'tot': 8.00000001, 'eval': {'textcat_p': 0.7499999981250001, 'textcat_r': 0.37499999953124996, 'textcat_f': 0.4999999991666667}}, 'eval_global': {'textcat_p': 0.5833333330902778, 'textcat_r': 0.3783783782761139, 'textcat_f': 0.45901639329212574}}",88
89,"{'performance': {'tp': 1.0, 'fp': 1e-08, 'fn': 1e-08, 'tn': 83.0, 'tot': 1.00000001, 'eval': {'textcat_p': 0.9999999900000002, 'textcat_r': 0.9999999900000002, 'textcat_f': 0.9999999900000002}}, 'compatibility': {'tp': 6.0, 'fp': 5.00000001, 'fn': 10.00000001, 'tn': 63.0, 'tot': 16.00000001, 'eval': {'textcat_p': 0.5454545449586776, 'textcat_r': 0.374999999765625, 'textcat_f': 0.44444444411522627}}, 'security': {'tp': 4.0, 'fp': 3.00000001, 'fn': 8.00000001, 'tn': 69.0, 'tot': 12.00000001, 'eval': {'textcat_p': 0.571428570612245, 'textcat_r': 0.3333333330555555, 'textcat_f': 0.421052631135734}}, 'maintainability': {'tp': 3.0, 'fp': 1.00000001, 'fn': 5.00000001, 'tn': 75.0, 'tot': 8.00000001, 'eval': {'textcat_p': 0.7499999981250001, 'textcat_r': 0.37499999953124996, 'textcat_f': 0.4999999991666667}}, 'eval_global': {'textcat_p': 0.6086956519092628, 'textcat_r': 0.3783783782761139, 'textcat_f': 0.4666666665111111}}",89
90,"{'performance': {'tp': 1.0, 'fp': 1e-08, 'fn': 1e-08, 'tn': 83.0, 'tot': 1.00000001, 'eval': {'textcat_p': 0.9999999900000002, 'textcat_r': 0.9999999900000002, 'textcat_f': 0.9999999900000002}}, 'compatibility': {'tp': 6.0, 'fp': 5.00000001, 'fn': 10.00000001, 'tn': 63.0, 'tot': 16.00000001, 'eval': {'textcat_p': 0.5454545449586776, 'textcat_r': 0.374999999765625, 'textcat_f': 0.44444444411522627}}, 'security': {'tp': 4.0, 'fp': 4.00000001, 'fn': 8.00000001, 'tn': 68.0, 'tot': 12.00000001, 'eval': {'textcat_p': 0.49999999937499995, 'textcat_r': 0.3333333330555555, 'textcat_f': 0.3999999996}}, 'maintainability': {'tp': 3.0, 'fp': 1.00000001, 'fn': 5.00000001, 'tn': 75.0, 'tot': 8.00000001, 'eval': {'textcat_p': 0.7499999981250001, 'textcat_r': 0.37499999953124996, 'textcat_f': 0.4999999991666667}}, 'eval_global': {'textcat_p': 0.5833333330902778, 'textcat_r': 0.3783783782761139, 'textcat_f': 0.45901639329212574}}",90
91,"{'performance': {'tp': 1.0, 'fp': 1e-08, 'fn': 1e-08, 'tn': 83.0, 'tot': 1.00000001, 'eval': {'textcat_p': 0.9999999900000002, 'textcat_r': 0.9999999900000002, 'textcat_f': 0.9999999900000002}}, 'compatibility': {'tp': 6.0, 'fp': 5.00000001, 'fn': 10.00000001, 'tn': 63.0, 'tot': 16.00000001, 'eval': {'textcat_p': 0.5454545449586776, 'textcat_r': 0.374999999765625, 'textcat_f': 0.44444444411522627}}, 'security': {'tp': 4.0, 'fp': 4.00000001, 'fn': 8.00000001, 'tn': 68.0, 'tot': 12.00000001, 'eval': {'textcat_p': 0.49999999937499995, 'textcat_r': 0.3333333330555555, 'textcat_f': 0.3999999996}}, 'maintainability': {'tp': 3.0, 'fp': 1.00000001, 'fn': 5.00000001, 'tn': 75.0, 'tot': 8.00000001, 'eval': {'textcat_p': 0.7499999981250001, 'textcat_r': 0.37499999953124996, 'textcat_f': 0.4999999991666667}}, 'eval_global': {'textcat_p': 0.5833333330902778, 'textcat_r': 0.3783783782761139, 'textcat_f': 0.45901639329212574}}",91
92,"{'performance': {'tp': 1.0, 'fp': 1e-08, 'fn': 1e-08, 'tn': 83.0, 'tot': 1.00000001, 'eval': {'textcat_p': 0.9999999900000002, 'textcat_r': 0.9999999900000002, 'textcat_f': 0.9999999900000002}}, 'compatibility': {'tp': 6.0, 'fp': 5.00000001, 'fn': 10.00000001, 'tn': 63.0, 'tot': 16.00000001, 'eval': {'textcat_p': 0.5454545449586776, 'textcat_r': 0.374999999765625, 'textcat_f': 0.44444444411522627}}, 'security': {'tp': 4.0, 'fp': 4.00000001, 'fn': 8.00000001, 'tn': 68.0, 'tot': 12.00000001, 'eval': {'textcat_p': 0.49999999937499995, 'textcat_r': 0.3333333330555555, 'textcat_f': 0.3999999996}}, 'maintainability': {'tp': 3.0, 'fp': 1.00000001, 'fn': 5.00000001, 'tn': 75.0, 'tot': 8.00000001, 'eval': {'textcat_p': 0.7499999981250001, 'textcat_r': 0.37499999953124996, 'textcat_f': 0.4999999991666667}}, 'eval_global': {'textcat_p': 0.5833333330902778, 'textcat_r': 0.3783783782761139, 'textcat_f': 0.45901639329212574}}",92
93,"{'performance': {'tp': 1.0, 'fp': 1e-08, 'fn': 1e-08, 'tn': 83.0, 'tot': 1.00000001, 'eval': {'textcat_p': 0.9999999900000002, 'textcat_r': 0.9999999900000002, 'textcat_f': 0.9999999900000002}}, 'compatibility': {'tp': 6.0, 'fp': 5.00000001, 'fn': 10.00000001, 'tn': 63.0, 'tot': 16.00000001, 'eval': {'textcat_p': 0.5454545449586776, 'textcat_r': 0.374999999765625, 'textcat_f': 0.44444444411522627}}, 'security': {'tp': 5.0, 'fp': 5.00000001, 'fn': 7.00000001, 'tn': 67.0, 'tot': 12.00000001, 'eval': {'textcat_p': 0.49999999949999996, 'textcat_r': 0.41666666631944443, 'textcat_f': 0.45454545413223135}}, 'maintainability': {'tp': 3.0, 'fp': 1.00000001, 'fn': 5.00000001, 'tn': 75.0, 'tot': 8.00000001, 'eval': {'textcat_p': 0.7499999981250001, 'textcat_r': 0.37499999953124996, 'textcat_f': 0.4999999991666667}}, 'eval_global': {'textcat_p': 0.5769230767011834, 'textcat_r': 0.40540540529583635, 'textcat_f': 0.47619047603930453}}",93
94,"{'performance': {'tp': 1.0, 'fp': 1e-08, 'fn': 1e-08, 'tn': 83.0, 'tot': 1.00000001, 'eval': {'textcat_p': 0.9999999900000002, 'textcat_r': 0.9999999900000002, 'textcat_f': 0.9999999900000002}}, 'compatibility': {'tp': 6.0, 'fp': 5.00000001, 'fn': 10.00000001, 'tn': 63.0, 'tot': 16.00000001, 'eval': {'textcat_p': 0.5454545449586776, 'textcat_r': 0.374999999765625, 'textcat_f': 0.44444444411522627}}, 'security': {'tp': 4.0, 'fp': 5.00000001, 'fn': 8.00000001, 'tn': 67.0, 'tot': 12.00000001, 'eval': {'textcat_p': 0.4444444439506172, 'textcat_r': 0.3333333330555555, 'textcat_f': 0.38095238058956915}}, 'maintainability': {'tp': 3.0, 'fp': 1.00000001, 'fn': 5.00000001, 'tn': 75.0, 'tot': 8.00000001, 'eval': {'textcat_p': 0.7499999981250001, 'textcat_r': 0.37499999953124996, 'textcat_f': 0.4999999991666667}}, 'eval_global': {'textcat_p': 0.559999999776, 'textcat_r': 0.3783783782761139, 'textcat_f': 0.45161290308012486}}",94
95,"{'performance': {'tp': 1.0, 'fp': 1e-08, 'fn': 1e-08, 'tn': 83.0, 'tot': 1.00000001, 'eval': {'textcat_p': 0.9999999900000002, 'textcat_r': 0.9999999900000002, 'textcat_f': 0.9999999900000002}}, 'compatibility': {'tp': 6.0, 'fp': 6.00000001, 'fn': 10.00000001, 'tn': 62.0, 'tot': 16.00000001, 'eval': {'textcat_p': 0.4999999995833333, 'textcat_r': 0.374999999765625, 'textcat_f': 0.4285714282653061}}, 'security': {'tp': 4.0, 'fp': 5.00000001, 'fn': 8.00000001, 'tn': 67.0, 'tot': 12.00000001, 'eval': {'textcat_p': 0.4444444439506172, 'textcat_r': 0.3333333330555555, 'textcat_f': 0.38095238058956915}}, 'maintainability': {'tp': 3.0, 'fp': 1.00000001, 'fn': 5.00000001, 'tn': 75.0, 'tot': 8.00000001, 'eval': {'textcat_p': 0.7499999981250001, 'textcat_r': 0.37499999953124996, 'textcat_f': 0.4999999991666667}}, 'eval_global': {'textcat_p': 0.5384615382544379, 'textcat_r': 0.3783783782761139, 'textcat_f': 0.4444444443033509}}",95
96,"{'performance': {'tp': 1.0, 'fp': 1e-08, 'fn': 1e-08, 'tn': 83.0, 'tot': 1.00000001, 'eval': {'textcat_p': 0.9999999900000002, 'textcat_r': 0.9999999900000002, 'textcat_f': 0.9999999900000002}}, 'compatibility': {'tp': 6.0, 'fp': 6.00000001, 'fn': 10.00000001, 'tn': 62.0, 'tot': 16.00000001, 'eval': {'textcat_p': 0.4999999995833333, 'textcat_r': 0.374999999765625, 'textcat_f': 0.4285714282653061}}, 'security': {'tp': 4.0, 'fp': 5.00000001, 'fn': 8.00000001, 'tn': 67.0, 'tot': 12.00000001, 'eval': {'textcat_p': 0.4444444439506172, 'textcat_r': 0.3333333330555555, 'textcat_f': 0.38095238058956915}}, 'maintainability': {'tp': 3.0, 'fp': 1.00000001, 'fn': 5.00000001, 'tn': 75.0, 'tot': 8.00000001, 'eval': {'textcat_p': 0.7499999981250001, 'textcat_r': 0.37499999953124996, 'textcat_f': 0.4999999991666667}}, 'eval_global': {'textcat_p': 0.5384615382544379, 'textcat_r': 0.3783783782761139, 'textcat_f': 0.4444444443033509}}",96
97,"{'performance': {'tp': 1.0, 'fp': 1e-08, 'fn': 1e-08, 'tn': 83.0, 'tot': 1.00000001, 'eval': {'textcat_p': 0.9999999900000002, 'textcat_r': 0.9999999900000002, 'textcat_f': 0.9999999900000002}}, 'compatibility': {'tp': 6.0, 'fp': 5.00000001, 'fn': 10.00000001, 'tn': 63.0, 'tot': 16.00000001, 'eval': {'textcat_p': 0.5454545449586776, 'textcat_r': 0.374999999765625, 'textcat_f': 0.44444444411522627}}, 'security': {'tp': 4.0, 'fp': 5.00000001, 'fn': 8.00000001, 'tn': 67.0, 'tot': 12.00000001, 'eval': {'textcat_p': 0.4444444439506172, 'textcat_r': 0.3333333330555555, 'textcat_f': 0.38095238058956915}}, 'maintainability': {'tp': 3.0, 'fp': 1.00000001, 'fn': 5.00000001, 'tn': 75.0, 'tot': 8.00000001, 'eval': {'textcat_p': 0.7499999981250001, 'textcat_r': 0.37499999953124996, 'textcat_f': 0.4999999991666667}}, 'eval_global': {'textcat_p': 0.559999999776, 'textcat_r': 0.3783783782761139, 'textcat_f': 0.45161290308012486}}",97
98,"{'performance': {'tp': 1.0, 'fp': 1e-08, 'fn': 1e-08, 'tn': 83.0, 'tot': 1.00000001, 'eval': {'textcat_p': 0.9999999900000002, 'textcat_r': 0.9999999900000002, 'textcat_f': 0.9999999900000002}}, 'compatibility': {'tp': 6.0, 'fp': 5.00000001, 'fn': 10.00000001, 'tn': 63.0, 'tot': 16.00000001, 'eval': {'textcat_p': 0.5454545449586776, 'textcat_r': 0.374999999765625, 'textcat_f': 0.44444444411522627}}, 'security': {'tp': 4.0, 'fp': 5.00000001, 'fn': 8.00000001, 'tn': 67.0, 'tot': 12.00000001, 'eval': {'textcat_p': 0.4444444439506172, 'textcat_r': 0.3333333330555555, 'textcat_f': 0.38095238058956915}}, 'maintainability': {'tp': 3.0, 'fp': 1.00000001, 'fn': 5.00000001, 'tn': 75.0, 'tot': 8.00000001, 'eval': {'textcat_p': 0.7499999981250001, 'textcat_r': 0.37499999953124996, 'textcat_f': 0.4999999991666667}}, 'eval_global': {'textcat_p': 0.559999999776, 'textcat_r': 0.3783783782761139, 'textcat_f': 0.45161290308012486}}",98
99,"{'performance': {'tp': 1.0, 'fp': 1e-08, 'fn': 1e-08, 'tn': 83.0, 'tot': 1.00000001, 'eval': {'textcat_p': 0.9999999900000002, 'textcat_r': 0.9999999900000002, 'textcat_f': 0.9999999900000002}}, 'compatibility': {'tp': 6.0, 'fp': 5.00000001, 'fn': 10.00000001, 'tn': 63.0, 'tot': 16.00000001, 'eval': {'textcat_p': 0.5454545449586776, 'textcat_r': 0.374999999765625, 'textcat_f': 0.44444444411522627}}, 'security': {'tp': 4.0, 'fp': 5.00000001, 'fn': 8.00000001, 'tn': 67.0, 'tot': 12.00000001, 'eval': {'textcat_p': 0.4444444439506172, 'textcat_r': 0.3333333330555555, 'textcat_f': 0.38095238058956915}}, 'maintainability': {'tp': 3.0, 'fp': 1.00000001, 'fn': 5.00000001, 'tn': 75.0, 'tot': 8.00000001, 'eval': {'textcat_p': 0.7499999981250001, 'textcat_r': 0.37499999953124996, 'textcat_f': 0.4999999991666667}}, 'eval_global': {'textcat_p': 0.559999999776, 'textcat_r': 0.3783783782761139, 'textcat_f': 0.45161290308012486}}",99
