,US,pred,label
0,"As a Developer, I want to get a Data Package into Clojure in seconds, so that I can start using the data in doing analysis and visualizations. ",0.9999545812606812,performance
1,"As a FABS user, I want to have my validations run in a reasonable amount of time.",0.9999545812606812,performance
2,"As a Researcher, I want to get a Data Package into SPSS in seconds, so that I can start using the data for doing analysis and visualizations. ",0.9999473094940186,performance
3,"As a Developer, I want to get a Data Package into C++ in seconds, so that I can start using the data in doing analysis and visualizations. ",0.9999545812606812,performance
4,"As a Developer, I want to prevent duplicate transactions from being published and deal with the time gap between validation and the publishing decision.",0.9999545812606812,performance
5,"As a developer, I want to have created database indexes, so that the queries run as fast as possible.",0.9999545812606812,performance
6,"As a Developer , I want my domain models to be indexed properly, so that I can get validation results back in a reasonable amount of time.",0.9998635053634644,performance
7,"As a Researcher, I want to get a Data Package into STATA in seconds, so that I can start using the data for doing analysis and visualizations. ",0.9999545812606812,performance
8,"As a Developer, I want to get a Data Package into Julia in seconds, so that I can start using the data in doing analysis and visualizations. ",0.9999545812606812,performance
9,"As a user, I want to upload large files of over 1GB in size.",0.9999545812606812,performance
10,"As an archive, I want to get information about the volume of data to preserve at an early stage, so that I can provide the adequate storage infrastructure.",0.9998167157173157,performance
11,"As a Researcher, I want to get a Data Package into Julia in seconds, so that I can start using the data for doing analysis and visualizations. ",0.9999545812606812,performance
12,"As an OlderPerson, I want to have a very good battery for ALFRED so I can keep him on the whole day.",0.9998780488967896,performance
13,"As a Researcher, I want an app that create proxy Data Packages for well know and reliable data, sources, so that I can load high quality data using Data Package tooling. ",0.9992509484291077,performance
14,"As an institutional data manager, I want to know about the privacy and security requirements of the data, so that I can plan the right storage system and sharing permissions.",0.9974554181098938,performance
15,"As a user, I want to have the application respond quickly to my actions, so that I don't get bored.",0.999861478805542,performance
16,"As a Researcher, I want to get a Data Package into R in seconds, so that I can start using the data for doing analysis and visualizations. ",0.9999369382858276,performance
17,"As a rector, I want to know how many data will be stored, so that I can plan long term resources.",0.9999514818191528,performance
18,"As a Researcher, I want to get a Data Package into Excel in seconds, so that I can start using the data for doing analysis and visualizations. ",0.9999192953109741,performance
19,"As a Developer, I want D Files generation requests to be managed and cached, so that duplicate requests do not cause performance issues.",0.9999545812606812,performance
20,"As a repository operator, I want to know about the kind of data, so that I can evaluate the storage size and system.",0.9998500347137451,performance
21,"As a depositor, I want to deposit arbitrarily large files, so that I am not limited in what files I can and cannot deposit.",0.9999545812606812,performance
22,"As an Agency user, I want to be able to include a large number of flexfields without performance impact.",0.9999392032623291,performance
23,"As a PI, I want to plan what kind of data I want to record/store, so that I can ensure it will possible to store it.",0.9997730851173401,performance
0,"As a Developer, I want to get a Data Package into Clojure in seconds, so that I can start using the data in doing analysis and visualizations. ",0.9998807907104492,compatibility
1,"As a Researcher, I want to be able to translate my EML dataset to a Data Package, so that I can benefit from the wide array of tools available for Data Packages. ",0.9999043941497803,compatibility
2,"As a user, I want to view the group's shared calendars via the Neurohub Nodes' Web page as well as on my mobile device.",0.9997885823249817,compatibility
3,"As an OlderPerson, I want to have my data stored directly on the phone.",0.9999151229858398,compatibility
4,"As a user, I want to have the option to tell Neurohub to push posted content to my Twitter feed at the same time.",0.9998471736907959,compatibility
5,"As a researcher, I want to discover items in the repository through the library's discovery system and Google, so that I can facilitate my easy use of the content.",0.9999545812606812,compatibility
6,"As a Researcher, I want to get a Data Package into SPSS in seconds, so that I can start using the data for doing analysis and visualizations. ",0.9999545812606812,compatibility
7,"As a Developer, I want to get a Data Package into C++ in seconds, so that I can start using the data in doing analysis and visualizations. ",0.9999417066574097,compatibility
8,"As an OlderPerson, I want to do guided exercises with ALFRED and ALFRED should also use sensors to capture health data while I am doing exercises. ",0.9998863935470581,compatibility
9,"As a Developer, I want a Mongo integration, so that I can integrate data-packaged data with pipelines that use Mongo. ",0.9999545812606812,compatibility
10,"As a trainer, I want to load an Excel file into the site, so that the course participants are added to the Scrum Alliance records.",0.9999439716339111,compatibility
11,"As a Zooniverse admin, I want to perform automatic animal attribute preclassification in Snapshot Serengeti.",0.9999545812606812,compatibility
12,"As an Archivist, I want to import EAD data.",0.9999545812606812,compatibility
13,"As a researcher, I want to point my Mendeley client at a group-wide shared repository of research papers and get notifications via Mendeley when new content is added.",0.9986839890480042,compatibility
14,"As an agency user, I want the maximum length allowed for LegalEntityAddressLine3 to match Schema v1.1.",0.9999545812606812,compatibility
15,"As a Data Publishing User, I want to be able to edit the model of data I have already imported, So that I can fix bugs or make enhancements in the API built for my data.",0.9998611211776733,compatibility
16,"As an agency user, I want to be confident that the data coming from SAM is complete.",0.9999545812606812,compatibility
17,"As an IT staff member, I want to know which formats are used, so that I can determine what kind of technical services and functionalities are required.",0.9999545812606812,compatibility
18,"As an UnivITservice, I want to integrate the archive with existing university systems such as LDAP, so that the cost of administering the system can be kept low.",0.9994648098945618,compatibility
19,"As a developer, I want an online service that is connected to my data repository that validates data on update, so that I can delegate data validation to a third party. ",0.9986945986747742,compatibility
20,"As a Researcher, I want to get a Data Package into STATA in seconds, so that I can start using the data for doing analysis and visualizations. ",0.9998968839645386,compatibility
21,"As a Researcher, I want an app that generates an OpenRefine reconciliation API endpoint from a Tabular Data Package, so that I can use it to clean messy data. ",0.9999545812606812,compatibility
22,"As a Technical Staff member, I want to update the GIS Property Management, so that I can successfully update the transactional Parcel Pin to reference the GIS layer where the Split or Merged Parcel Pin exists.",0.9999545812606812,compatibility
23,"As a moderator, I want to copy/paste stories from a spreadsheet, so that I can get started more quickly.",0.9999258518218994,compatibility
24,"As a Researcher, working with data, I want an Microsoft Power BI integration, so that I can import datasets without downloading them locally. ",0.9999545812606812,compatibility
25,"As a Developer, I want to get a Data Package into Julia in seconds, so that I can start using the data in doing analysis and visualizations. ",0.9999384880065918,compatibility
26,"As a Developer, I want HDF5 integration, so that I can integrate data-packaged data with pipelines that use HDF5.",0.9999545812606812,compatibility
27,"As an Archivist, I want to export agent records as EAC-CPF.",0.9999545812606812,compatibility
28,"As an Archivist, I want to import Agent information from EAC-CPF records.",0.9999545812606812,compatibility
29,"As a Planning Staff member, I want to Generate Planning-related Reports, so that I can access, analyze and/or export the needed information in the format I requested.",0.9999545812606812,compatibility
30,"As a team member, I want to have a platform that allows me to rapidly prototype HTML ideas.",0.9999545812606812,compatibility
31,"As a user, I want to click on the address, so that it takes me to a new tab with Google Maps.",0.9999208450317383,compatibility
32,"As a Zooniverse admin, I want to perform automatic preclassification of plankton species in Plankton Portal images.",0.9999545812606812,compatibility
33,"As a Data Publishing User, I want to have the Packager support Constants, So that I can model dimensions that may not exist in the source file.",0.9999545812606812,compatibility
34,"As a user, I want to have that my Twitter Tweets to appear in Neurohub, so that other researchers in the centre can see what I am up to.",0.9998763799667358,compatibility
35,"As a Consumer, I want to load a Data Package from R, so that that I can immediately start playing with it.",0.9999545812606812,compatibility
36,"As a developer, determine if we can use the in-built Fedora 4 event audit services.",0.9998613595962524,compatibility
37,"As a ResearcherPublisher, I want an integration with Zenodo, so that when I store my dataset in GitHub, I don't have to retype descriptive information about my dataset. ",0.9998753070831299,compatibility
38,"As a ResearcherPublisher, I want to publish Data Packages to CKAN, so that my data is findable, and I can have a data API. ",0.9997614026069641,compatibility
39,"As a institutional data steward, I want to be able to extract the data sets that are submitted to external repositories, so that I can add them to an institutional data catalogue.",0.999910831451416,compatibility
40,"As a Data Publishing User, I want to be able to import data in Excel, So that I do not have to convert data formats in order to use the data packager.",0.9999545812606812,compatibility
41,"As a Researcher, I want to get my Excel spreadsheet into a Data Package, so that I can benefit from better tooling and standardization. ",0.9999316930770874,compatibility
42,"As a depositor, I want to have metadata automatically filled from other University systems and remembered from previous deposits, so that I don't have to waste time reentering the same information.",0.9999545812606812,compatibility
43,"As an UnivITservice, I want to store archived data on existing storage systems, so that university data storage is consistent and maintainable and future availability of data can be guaranteed.",0.999848484992981,compatibility
44,"As a Data Publishing User, I want to be able to import data from Fiscal Data Package descriptor file, So that I do not have to convert data formats in order to use the data packager.",0.9999545812606812,compatibility
45,"As a Researcher, I want to get a Data Package into Julia in seconds, so that I can start using the data for doing analysis and visualizations. ",0.9999005794525146,compatibility
46,"As a Developer , I want to develop a custom importer.",0.9999545812606812,compatibility
47,"As an Archivist, I want to import only Agent and Subject information from MARCXML records.",0.9998600482940674,compatibility
48,"As a Machine Learning expert, I would like to package ML datasets as data packages, so that I can easily import them into my ML platform, so that I can start using the data in doing analysis. ",0.9999545812606812,compatibility
49,"As a metadata batch editor, I'd like to be able to export and import descriptive and administrative metadata for multiple collections together.",0.9999487400054932,compatibility
50,"As a Zooniverse admin, I want to assess how interesting or appealing or complex a picture is based on automated analysis, citizen annotations, and comments on Talk.",0.9999545812606812,compatibility
51,"As a Data Publishing User, I want to have a functioning Python Client, So that I can add data to the datastore in bulk from the command line or my own programs.",0.9996923208236694,compatibility
52,"As an OlderPerson, I want to use ALFRED to pay for small amounts.",0.9995577931404114,compatibility
53,"As an Archivist, I want to upload an EAD for import from within the frontend application.",0.9999457597732544,compatibility
54,"As a ResearcherDeveloper, would like the ability import/export from MS-SQL, so that I can use Data Packages in workflows that involve MS-SQL. ",0.9999545812606812,compatibility
55,"As a Zooniverse admin, I want to perform automatic segmentation or localization of plankton in Plankton Portal.",0.9999545812606812,compatibility
56,"As a repository manager, I'd like to be able to export a spreadsheet of technical metadata at the repository, collection, or item level.",0.9998806715011597,compatibility
57,"As a Zooniverse admin, I want to detect when a scientist should be prompted to look at a subject, based on annotations and information from Talk comments.",0.9998378753662109,compatibility
58,"As an agency user, I want to use the schema v1.1 headers in my FABS file.",0.9999473094940186,compatibility
59,"As a Zooniverse admin, I want to automatically detect Plankton Portal images with no classifiable plankton in them.",0.9995455145835876,compatibility
60,"As a patron, I want to download report/dataset release calendar to load into own calendar.",0.9994688630104065,compatibility
61,"As an OlderPerson, I want to use ALFRED to maintain my contact list in my phone. ",0.9995272159576416,compatibility
62,"As a content editor, I want to be able to add videos from Brightcove.",0.999834418296814,compatibility
63,"As a repository administrator, I want to be able to expose repository contents via OAI-PMH.",0.9999127388000488,compatibility
64,"As a Data Consuming User, I want to be able to download a CSV of the data that is used in any visualisation I am viewing, So that I can use the data in other tools.",0.9997939467430115,compatibility
65,"As a Visitor, I want to sign up via github or google, so that that I don't have to enter lots of information and remember my password for yet another website.",0.9995018243789673,compatibility
66,"As a developer, I want to have the API components to be on a high level so that I don't have to deal with their details. ",0.9974531531333923,compatibility
67,"As an Archivist, I want to import EAD files that were exported by Archon.",0.9999325275421143,compatibility
68,"As an assistant archivist, I want to easily access interdepartmental forms.",0.9999545812606812,compatibility
69,"As a user, I want to specify schema as a JSON string.",0.9999545812606812,compatibility
70,"As a DeveloperWrangler, I want to use a command line tool that allows me to validate data, so that I can feel trust in the validity and usefulness of the data quickly and in the context of my command line workflow. ",0.9996398687362671,compatibility
71,"As a data reuser, I want to view a DOI for a dataset, so that I can get back to the data in future and I can import the dataset into my referencemanagement software automatically.",0.9999545812606812,compatibility
72,"As a repository administrator, I want to provide a Linked Data interface to the repository.",0.9994027614593506,compatibility
73,"As a Zooniverse admin, I want to perform automatic animal species preclassification in Snapshot Serengeti.",0.9999545812606812,compatibility
74,"As a Researcher, I want to get a Data Package into R in seconds, so that I can start using the data for doing analysis and visualizations. ",0.9999545812606812,compatibility
75,"As a Staff member, I want to Send or Post Citations and Fines, so that I can successfully send the Notice Of Violation document to the property owner and log information about the action.",0.9992265701293945,compatibility
76,"As a developer, I want to have an easy way to read data from health sensors the user is wearing. ",0.9999425411224365,compatibility
77,"As a user, I want to sync events created in NeuroHub with a web-based Calendar such as Google Calendar.",0.9998770952224731,compatibility
78,"As a Publisher, I would like an integration with Excel, so that I can output cleaned Data Packages. ",0.9999545812606812,compatibility
79,"As the Digital Records Archivist, I need a method to batch ingest ETDs we receive from ProQuest. A script might work, but a GUI would be nice.",0.9994052648544312,compatibility
80,"As a Zooniverse admin, I want to perform automatic detection of plankton size or orientation in Plankton Portal images.",0.9999545812606812,compatibility
81,"As a Developer, I want an EPrints integration, so that I can integrate data-packaged data with pipelines that use EPrints. ",0.9999545812606812,compatibility
82,"As Metadata Architect, I want to be able to use batch tools to ingest, update, and export descriptive and administrative metadata in lieu of METS ingest.",0.9996241331100464,compatibility
83,"As a developer, I want to deposit and maintain datasets via an API such as SWORD2, so that my service can interact with the archive. ",0.9998544454574585,compatibility
84,"As a moderator, I want to export a transcript of a game as a CSV file, so that I can further process the stories and estimates.",0.9999076128005981,compatibility
85,"As a repository administrator, I would like Symplectic Elements to be able to communicate bidirectionally with the repository.",0.9999544620513916,compatibility
86,"As a serious games developer, I want to be able to take control over some functions to provide the desired user experience. ",0.9999529123306274,compatibility
87,"As an Archivist, I want to export a description as EAD.",0.9997283816337585,compatibility
88,"As a Developer, I want to use data package as a node lib in my project, so that that I can depend on it using my normal dependency framework.",0.9995668530464172,compatibility
89,"As a Consumer, I want to download a DataPackage's data one coherent SQLite database, so that that I can get it easily in one form.",0.9995822310447693,compatibility
90,"As a developer, I would like to create a web socket protocol for Frictionless data tools, so that I can easily use data packages with additional data analysis tools. ",0.9997921586036682,compatibility
91,"As an API User, I want to be able to get a CSV output of any cube-based query, So that I can use work with tools that read CSV.",0.9994513392448425,compatibility
92,"As a depositor, I want to deposit and maintain datasets through Virtual Research Environments and other workflow tools, so that I can continue to work with tools with which I'm familiar.",0.9991856217384338,compatibility
93,"As a researcher,  I want to have the ability to interact with a revision control system so that I can keep track of changes to files over time.",0.9998855590820312,compatibility
94,"As an Archivist, I want to import Accessions data in CSV.",0.9999545812606812,compatibility
95,"As a library staff member, I want to make digital items held in trusted external system searchable within our system, so that I can provide seamless access to disparate collections.",0.9999449253082275,compatibility
96,"As a Researcher, I want to get a Data Package into Excel in seconds, so that I can start using the data for doing analysis and visualizations. ",0.9999545812606812,compatibility
97,"As a Researcher, I want to be able to reference a remote-controlled vocabulary for my dataset, so that I can be sure that column of my dataset are valid against a single shared list of terms. ",0.9998284578323364,compatibility
98,"As a moderator, I want to export a transcript of a game as a HTML file, so that I can save the stories and estimates locally.",0.999873161315918,compatibility
99,"As a Publisher, I would like an integration with Open Refine, so that I can output cleaned Data Packages. ",0.9999231100082397,compatibility
100,"As a Data Publishing User, I want to be able to provide the Platform Administrator with additional GeoJSON sources, So that I can improve the map-based visualisations of my data.",0.9989128112792969,compatibility
101,"As a Developer, I want a DAT integration, so that I can integrate data-packaged data with pipelines that use DAT. ",0.9999545812606812,compatibility
102,"As a repository administrator, I want Symplectic Elements to integrate with DDR. They provide a Fedora Connector and Emory is using a hidden Fedora instance that Hydra collects objects for. Note that there is bidirectional communication with Elements.",0.9988890290260315,compatibility
103,"As a Data Publishing User, I want to be able to import data from a Google Spreadsheet, So that I do not have to convert data formats in order to use the data packager.",0.9999545812606812,compatibility
104,"As a data reuser, I want to search the archive through Primo , so that I can search books, articles and data all in one place.",0.9994476437568665,compatibility
105,"As a collection curator, I would like metadata changes made to items with repository-assigned DOIs to be propagated to the EZID.",0.9999504089355469,compatibility
106,"As a collection curator, I want to deposit items into the repository from within ArchivesSpace and to view the status of those objects in ArchivesSpace.",0.9999014139175415,compatibility
107,"As a developer, I want to access an API from the website, so that I can integrate it and implement certain features in my own iOS application.",0.9999209642410278,compatibility
108,"As an owner, I want to be sure that USAspending only send grant records to my system.",0.9989263415336609,compatibility
109,"As a Developer, I want to do exploratory data analysis in R and operationalize that analysis in Python, so that I can use the best tool for the job.",0.9998326301574707,compatibility
110,"As a Developer, I want an Elasticsearch integration, so that I can integrate data-packaged data with pipelines that use Elasticsearch. ",0.9999545812606812,compatibility
111,"As a researcher, I want to upload files prior to having them attached to a log book page using a mapped network drive.",0.9999140501022339,compatibility
112,"As a DeveloperDataWrangler, I want to store my Data Package in GitHub and have it automatically stored into CKAN, so that I get a data API and my dataset is listed in a relevant catalog. ",0.9999202489852905,compatibility
113,"As an archivist, I want to use archival content on the RAC website, so that I can integrate our collections into our web presence.",0.9996142387390137,compatibility
114,"As an OlderPerson, I want to have an ALFRED device that responds to the changing demand of the users by offering new Apps in the ALFREDO platform.",0.999691367149353,compatibility
115,"As a metadata batch editor, I want to export the CSV, remove the fields I'm not editing, edit the remaining fields, and upload the remediated file to overwrite values",0.9999338388442993,compatibility
116,"As an UnivITservice, I want to store archived data directly on the HCP object store, so that  features can be made.",0.9999536275863647,compatibility
117,"As a Publisher, I want to be able to preview the views of the current data package using cli prior to publishing, so that that I can refine the json declarations of datapackage view section to achieve a great looking result.",0.9999545812606812,compatibility
118,"As a Research Information manager, I want to integrate the archive with CRIS, so that I can analyse impact of research data publication I can link funding to all of the outputs it produces.",0.9998800754547119,compatibility
119,"As a developer, I want an DSpace integration, so that I can integrate data-packaged data with pipelines that use Dspace. ",0.9999545812606812,compatibility
120,"As a researcher, I want the DMP to prepopulate information that I have already entered in other institutional systems, so that I do not have to re-enter information ensuring the DMP contains accurate and standardized information.",0.9997020363807678,compatibility
121,"As a developer, I want to have my App to be granted access to several operating system features. ",0.9994553923606873,compatibility
122,"As an administrator, I want to be able to use systems such as Symplectic Elements and Activity Insight to properly track faculty scholarly output in the repositories, so that I can facilitate personnel decisions.",0.9999349117279053,compatibility
123,"As a research facility manager, I want to deposit data from my facility directly into the archive on behalf of researchers, so that I am no longer required to maintain my own archive of facility data and researchers can access their own data as needed. ",0.9999444484710693,compatibility
124,"As an archivist, I want to automatically create access derivatives of digital objects, so that I don't have to do this manually.",0.998285710811615,compatibility
125,"As a Broker user, I want the D1 file generation to be synced with the FPDS data load, so that I don't have to regenerate a file if no data has been updated.",0.9982603192329407,compatibility
126,"As a Developer, I want Feather integration, so that I can integrate data-packaged data with pipelines that use Feather. ",0.9999545812606812,compatibility
127,"As a Research Information manager, I want to track citation counts for published datasets, so that impact of datasets within academia can be demonstrated.",0.9999545812606812,compatibility
128,"As a repository administrator, I want author/creator to store the DUID of the person to allow for name authority control and interoperability with other systems like Symplectic Elements.",0.9998364448547363,compatibility
129,"As a depositor, I want to deposit arbitrarily large files, so that I am not limited in what files I can and cannot deposit.",0.999099850654602,compatibility
130,"As a Cornell faculty member, I want to login remotely to the repository using Shibboleth, so that I can get remote access to Cornell campus-only content.",0.9890775680541992,compatibility
131,"As an Archivist, I want to import EAD files that were exported by the Archivists' Toolkit.",0.9999545812606812,compatibility
132,"As a user, I want to specify schema as a SQL schema string.",0.9999545812606812,compatibility
133,"As a developer, I want to use bootstrap in the process of developing, so that I can easily design my website.",0.9999113082885742,compatibility
134,"As an agency user, I want to submit my data elements surrounded by quotation marks, so that Excel won't strip off leading and trailing zeroes.",0.9999228715896606,compatibility
135,"As an administrator, I want to allow users to log in using Active Directory credentials, so that I don't have to manage another set of usernames and passwords.",0.9992327690124512,compatibility
136,"As a user, I want to be able to access the site and do all the other stuffs on all of my electronic devices.",0.9980286955833435,compatibility
137,"As a Researcher, I want an integration with https://data.mendeley.com/, so that I can validate my data upon ingest to the service.",0.9999505281448364,compatibility
138,"As a depositor, I want to link datasets to publications in Opus, so that both my data and publications are more easily discovered.",0.9997467398643494,compatibility
139,"As a researcher, I want to import metadata that I captured with a metadata tool, so that I do not have to capture it again in a DMP.",0.9996246099472046,compatibility
140,"As a agency user, I want to map the FederalActionObligation properly to the Atom Feed.",0.9996989965438843,compatibility
141,"As a administrator, I want to tag my blog posts for consumption by Drupal Planet, so that they will be listed on the Drupal Planet blog.",0.9999545812606812,compatibility
142,"As an IT staff member, I want to know with which software or technology the data is produced or used, so that I can determine what kind of technical services and functionalities are required.",0.9999545812606812,compatibility
143,"As a researcher, I want to access files stored in my Neurohub workspace, using a network drive attached to my workstation.",0.9998292922973633,compatibility
144,"As a data depositor, I'd like to use the Simple Ingest Format to update existing items and components creating new versions where they already exist and creating new ones where the don't.",0.9998133778572083,compatibility
145,"As a Zooniverse admin, I want to perform automatic worm motion analysis to reduce video duration in Worm Watch Lab.",0.9998822212219238,compatibility
0,"As a developer, I want to have the site comply with the W3C accessibility guidelines where possible, so that people with accessibility issues can use the application.",0.9997773766517639,usability
1,"As a Consumer, I want to download the data package in one file, so that that I don't have to download descriptor and each resource by hand.",0.9984537363052368,usability
2,"As a user, I want to navigate forwards and backwards between log books and log book pages without having to use my browser's back button.",0.9963456988334656,usability
3,"As an archivist, I want to search images by uploading an image, so that so I can find images when i don't have any metadata.",0.9995892643928528,usability
4,"As a site editor, I want to have a prominent area on the home page where I can put special announcements not necessarily news or articles, so that I can give them additional exposure.",0.9958418011665344,usability
5,"As a FABS user, I want the frontend URLs to more accurately reflect the page I'm accessing, so that I'm not confused.",0.9989364743232727,usability
6,"As a user, I want to have a great UI and UX from the sites, so that I have a pleasant experience when navigating through them.",0.9997517466545105,usability
7,"As an Agency user, I want to better understand my file-level errors.",0.998812198638916,usability
8,"As a ResearcherPublisher, I want to understand the ways in which my data is invalid, so that I can know how to fix it. ",0.9997299313545227,usability
9,"As a developer, I want to attend some UI/UX lessons, so that I can develop an awesome and beautiful features website.",0.9997788071632385,usability
10,"As a Data Consuming User, I want to see textual descriptions that accompany embedded visualisations, So that I can more easily understand what I am viewing.",0.99974125623703,usability
11,"As a UI designer, I want to redesign the Resources page, so that it matches the new Broker design styles.",0.9956383109092712,usability
12,"As the site editor, I want to have pretty good control over how the article, so that articles are visually appealing.",0.9976693987846375,usability
13,"As a participant, I want to have a small thumbnail photo displayed near where my cards are played, so that the game is more personal because I see who I'm estimating with.",0.9996305704116821,usability
14,"As a ProspectiveApplicant, I want to research requirements and to select a service, so that I can find the relevant service and/or application type to initiate via the online portal.",0.999670147895813,usability
15,"As a user, I want to view user documentation for the website, so that I know how to use the web app.",0.9962460398674011,usability
16,"As a user, I want to get feedback when I enter an invalid zip code.",0.9986258745193481,usability
17,"As a moderator, I want to see dates and times in my local timezone, so that I don't have to do timezone conversion myself.",0.9988106489181519,usability
18,"As a FABS user, I want the language on FABS pages to be appropriate for me, so that I am not confused.",0.9994497895240784,usability
19,"As an OlderPerson, I want to insert my meetings into ALFRED using speech. ",0.999703586101532,usability
20,"As a metadata editor, I would like to be able to add and edit metadata without assistance.",0.9832183122634888,usability
21,"As a Data Consuming User, I want to be able to have stepped zoom on map visualisations, So that I can have better control over the navigation experience inside a map view.",0.9992066025733948,usability
22,"As a repository manager, I want to have metadata in additional languages, so that I can allow for multilingual data archive.",0.9983983635902405,usability
23,"As a user, I want to be able to anonymously view public information, so that I know about recycling centers near me before creating an account.",0.9971888661384583,usability
24,"As a user, I want to view thumbnail sequences of video segments.",0.9981107711791992,usability
25,"As a lab administrator, I want to theme the Web interface graphics/colours.",0.9996669292449951,usability
26,"As a user, I want to be able to use Unicode, so that I can use any language I like.",0.9995133876800537,usability
27,"As a FABS user, I do not want  DABS banner messages and vice versa, so that I have the appropriate information for my application.",0.9982321858406067,usability
28,"As a Developer I want to quickly access Broker application data, so that I can investigate issues.",0.9905827045440674,usability
29,"As a company, I want to have a website that is easy to use, so that I can upload or delete stuff step by step.",0.9990634322166443,usability
30,"As a researcher, I want to have the ability to insert Greek symbols into my logbook entries.",0.9995046854019165,usability
31,"As a Broker user, I want  to help create content mockups, so that I can submit my data efficiently.",0.9990743398666382,usability
32,"As a donor representative, I want to see thumbnails of images, so that I can select which one I want.",0.9992819428443909,usability
33,"As a depositor, I want to have a user interface that is familiar to me, so that I feel like all the University systems are joined up.",0.996948778629303,usability
34,"As an OlderPerson, I want to receive information from ALFRED by speech technology. ",0.9982627034187317,usability
35,"As an OlderPerson, I want to use only well-visible buttons.",0.9958546757698059,usability
36,"As a user, I want to see sensible and predictable URLs, so that the application feels logical and transparent.",0.999408483505249,usability
37,"As an OlderPerson, I want to use ALFRED as much as possible with speech interaction.",0.9994562268257141,usability
38,"As a user, I want to draw tables using HTML tags as part of the content of a log book page.",0.9960230588912964,usability
39,"As a County Staff Member, I want to create a custom query/report outside of the common querying/reporting functionality, so that I can fulfill a request.",0.9965370893478394,usability
40,"As an OlderPerson, I want to have an ALFRED device that can be easily adapted for user that have visual or hearing troubles.",0.9964898228645325,usability
41,"As an OlderPerson, I want to have an ALFRED device that speaks very slowly and clearly.",0.998471200466156,usability
42,"As a ResearcherPublisher, I want validate my data with a minimum of clicks, so that I can feel trust in the validity and usefulness of the data. ",0.9987297654151917,usability
43,"As an owner, I only want zero-padded fields, so that I can justify padding.",0.9995675683021545,usability
44,"As an Applicant, I want to Check the Status of a transaction, so that I can understand where the provisioning of my service is in the process, such as information related to service levels, fees, plan review, permit, or inspection results.",0.9997956156730652,usability
45,"As a user, I want more information about how many rows will be published prior to deciding whether to publish.",0.9951193332672119,usability
46,"As an Agency user, I want to accurately see who created a submission, so that I'm not confused about who last updated a submission.",0.9978342652320862,usability
47,"As a Publisher, I want to data to be validated when I publish it, so that that I know immediately if I have accidentally broken my data or have bugs and can take action to correct.",0.9923616647720337,usability
48,"As a Consumer, I want to see some example data packages quickly, so that I get a sense of what is on this site and if it is useful to look further.",0.9741988182067871,usability
49,"As a trainer, I want to be assured that no one can submit the same answers multiple time and skew my results, so that my ratings are accurate.",0.9967820644378662,usability
50,"As a FABS user, I want to see correct status labels on the Submission Dashboard, so that I can quickly see my submission history.",0.9974493384361267,usability
51,"As a Developer , I want to clarify to users what exactly is triggering the CFDA error code in each case.",0.9981953501701355,usability
52,"As a Publisher, I want to preview a datapackage I have prepared, so that that I can check it works and share the results.",0.9947410821914673,usability
53,"As a Platform administrator, I want to be able to translate the data types hierarchies of the Viewer while in embed mode, So that my users can understand the interface in their native language.",0.9999545812606812,usability
54,"As a publisher, I want to embed an interactive preview of my data on my site, so that users can be encouraged that this is the correct data for them. ",0.9991077780723572,usability
55,"As a publisher, I want to embed a preview button on my site, so that users can preview the data and be encouraged that this is the correct data for them.",0.9995094537734985,usability
56,"As a data reuser, I want to access the system in my native language, so that I am not put off reusing University of Bath data by language barriers.",0.9999545812606812,usability
57,"As an archivist, I want to automatically create access derivatives of digital objects, so that I don't have to do this manually.",0.9843356609344482,usability
58,"As a Broker user, I want the D1 file generation to be synced with the FPDS data load, so that I don't have to regenerate a file if no data has been updated.",0.995834231376648,usability
59,"As a Staff member, I need to be notified when Geospatial attributes change, so that I can ensure that I am reviewing the permit/application to the most current data and appropriate standards.",0.9978298544883728,usability
60,"As a participant, I want to be able to change my estimate up until the last person selects a card and all are shown, so that I can change my mind based on information I hear.",0.9995449185371399,usability
61,"As a user, I want the flexfields in my submission file to appear in the warning and error files when the only error is a missing required element.",0.9976891279220581,usability
62,"As a participant, I want to always have the cards in the same order across multiple draws, so that it's easy to compare estimates.",0.9989622831344604,usability
63,"As a Data Consuming User, I want to be able to filter, sort and aggregate data by multiple dimensions and measures, So that I can get more granular views on the data.",0.9991037249565125,usability
64,"As a user, I want to have nice error pages when something goes wrong, so that I can trust the system and its developers.",0.9991401433944702,usability
65,"As a UI designer, I want to report to the Agencies about user testing, so that they are aware of their contributions to making Broker a better UX.",0.997649610042572,usability
66,"As a moderator, I want to add an item to the list of items to be estimated, so that so that we can be flexible and accommodate situations where we think of a new story while playing.",0.999861478805542,usability
67,"As a user, I want to have the ability to move multiple files around and rearrange them using the Neurohub file browser while processing data.",0.9990190267562866,usability
68,"As a researcher, I want to promote/share my work through interactive maps, so that I can display the range and extent of my work graphically.",0.9979208111763,usability
69,"As an Owner, I want to create a user testing summary from the UI SME, so that I can know what UI improvements we will follow through on.",0.9991466999053955,usability
70,"As a FABS user, I want to submission errors to accurately represent FABS errors, so that I know why my submission didn't work.",0.9999271631240845,usability
71,"As a user, I want the publish button in FABS to deactivate after I click it while the derivations are happening, so that I cannot click it multiple times for the same submission.",0.999549925327301,usability
72,"As a site visitor, I want to be able to get back to the home page quickly and easily, so that I don't get lost navigating.",0.9905734658241272,usability
73,"As a Data Consuming User, I want to have consistent use of colour on map visualisations, So that I can better understand the visual logic of the map view.",0.9996073842048645,usability
74,"As a depositor, I want to deposit and maintain datasets through Pure, so that I have a single onestop shop for managing my research outputs.",0.9995372295379639,usability
0,"As a systems administrator, I want to be able to control the location of the demo database and I want it to be backed up.",0.9994422793388367,reliability
1,"As a repository administrator, I would like to be able to continue to provide access to the repository in the event that the server fails.",0.9995623230934143,reliability
2,"As a collection curator, I want the repository to queue my collection for replication upon ingest to our remote storage site and to display the remote replication status in each item and component page in the staff interface. I would also like to see a summary of this at the collection level on my dashboard.",0.9998013377189636,reliability
3,"As a depositor, I want to have guarantees about data integrity, so that I can use my data in the future and I can fulfil funder requirements for archival.",0.997300922870636,reliability
4,"As a researcher, I want to indicate where my data will be stored during the project and where after the project, so that it remains accessible during all stages of the data lifecycle.",0.9994082450866699,reliability
5,"As a collection curator housed in the Protected Data Network, I want my collection to be encrypted with a key maintained on that server, a checksum made and stored of the encrypted file, and the encrypted file replicated to our remote storage site.",0.9995840191841125,reliability
6,"As an Archivist, I want to be able to understand that an error occurred during import and why it might have occurred.",0.9992541670799255,reliability
7,"As a data manager, I want to know whether the data can be reproduced efficiently, so that I can determine whether and how the data has to be stored.",0.9987448453903198,reliability
8,"As a researcher, I want to have services to support the long term curation of data, so that I can be sure that data will not get 'lost' with the passage of time.",0.9981537461280823,reliability
9,"As an app developer, I want to ensure that application creation fails if any of its datasets cannot be created.",0.9957699179649353,reliability
10,"As a fundingbody, I want to be reassured that researchers I fund have robust archival plans for their data, so that I can be sure that funding them is a worthwhile investment.",0.9965192079544067,reliability
11,"As an app developer, I want to ensure that application redeployment fails if any of its datasets cannot be reconfigured.",0.9982654452323914,reliability
12,"As a Consumer, I want to be able to get the data for a data package even if the original data has been moved or removed, so that that I can still use is and my app or analysis keeps working.",0.999394416809082,reliability
13,"As a system administrator, I want to have a managed backup protocol for the system.",0.9988310933113098,reliability
14,"As an asset manager, I want to be assured that the digital copy I deposit is stored redundantly, so that when one copy suffers destruction or unwanted changes, I still have other good copies to restore from.",0.9999545812606812,reliability
15,"As a Researcher, I want an app that create proxy Data Packages for well know and reliable data, sources, so that I can load high quality data using Data Package tooling. ",0.9997618794441223,reliability
16,"As a repository manager, I want to specify the remote replication policy for each collection. I want to be able to elect to either replicate remotely or not and possibly to replicate beyond the primary remote site. E.g., some collections may not leave Duke, some may be replicated to DuraCloud, and some may be replicated to both DuraCloud and Glacier.",0.9998435974121094,reliability
17,"As an asset manager, I want to be assured that threats to copies in one repository are not automatically incurred by the redundant copies.",0.9999517202377319,reliability
18,"As a user, I want to ensure that if reconfiguration of a dataset fails then no changes have taken effect, so that all steps required to reconfigure a dataset must be done as a single atomic action.",0.9994297623634338,reliability
19,"As a Publisher, I want to be able to restore the deleted data package via cli, so that that it is back visible and available to view, download.",0.9972831010818481,reliability
20,"As a library staff member, I want to deliver streaming media from within the repository, so that I can deliver such content in the manner expected and ensure continued access to said content.",0.9997766613960266,reliability
21,"As a pipeline designer, I want to get a meaningful error message when pipeline creation fails when I use an existing dataset as a sink or source, so that I know that the schema or any other property of the dataset is incompatible with what the pipeline requires. ",0.9982727766036987,reliability
22,"As a user, I want to ensure that an update of explore never leads to silent loss of data or data available for explore. ",0.9933299422264099,reliability
23,"As an asset manager, I want to be assured that the redundant copies are continuously monitored for unwanted changes, and that if/when changes do occur, there is a mechanism by which I can determine the original object and restore it to all copies.",0.9999545812606812,reliability
24,"As a dataset developer, I want to delete outdated versions of a dataset type and I expect this to fail if there are any dataset instances with that version of the type.",0.9854189157485962,reliability
25,"As an OlderPerson, I want to have an ALFRED device that informs me about a low battery when leaving the house. ",0.99937504529953,reliability
26,"As a library staff member, I want to preserve both the content and the metadata within the repository in a robust manner, so that I can provide stable, long-term access to this material.",0.9994744658470154,reliability
0,"As a PI, I want to know who owns the data, so that I know what I am allowed to do with it.",0.9999545812606812,security
1,"As a repository manager, I want to constrain curatorial access to my units assets to staff members of my unit and to DAMS managers having universal access.    ",0.9998621940612793,security
2,"As a collection curator, I want users to be able to contact me directly from the repository to request access to restricted objects.",0.9997734427452087,security
3,"As lab administrator, I want to have increased access to the system to support regular users. ",0.9997594952583313,security
4,"As a member, I want to have the system email me a new password or a password reminder since i have short-term memory problems.",0.9999545812606812,security
5,"As a user, I want to search and discover music using content identification or fingerprinting.",0.9997128844261169,security
6,"As a non-Duke researcher, I and my team need to describe our objects in the repository after they've been deposited if we've been assigned permission to edit metadata.",0.999826967716217,security
7,"As an Application Administrator, I want to be able to reset a User's password for them.",0.9997913241386414,security
8,"As repository manager, I'd like to be able to view authenticated, active users and anonymous users.",0.9999243021011353,security
9,"As a user, I want to link my email account to my profile, so that I can get a temporary password in case I forget my own one.",0.9999375343322754,security
10,"As a researcher,  I want to have the ability to restrict the data I share to certain researchers or groups of researchers.",0.9999545812606812,security
11,"As a Director of Research Integrity, I want to access reports containing details of research projects in which data are classified as sensitive or highly sensitive, so that I can confirm security protocols are applied to these data.",0.9999462366104126,security
12,"As an UnivITservice, I want to integrate the archive with existing university systems such as LDAP, so that the cost of administering the system can be kept low.",0.9998064637184143,security
13,"As an administrator, I want to assign RAC staff to different user groups, so that I can control read/write access.",0.9996030926704407,security
14,"As a Consumer, I want to know that the data I am downloading is good and can be relied on, so that that I don't have to check it myself or run into annoying bugs later on.",0.9999178647994995,security
15,"As an archivist, I want to restrict access to certain files by user, so that I can allow donor representatives to see certain files.",0.9999545812606812,security
16,"As an IT officer, I want to know how secure data is, so that I can ensure legal compliance.",0.9999136924743652,security
17,"As a collection curator housed in the Protected Data Network, I want my collection to be encrypted with a key maintained on that server, a checksum made and stored of the encrypted file, and the encrypted file replicated to our remote storage site.",0.9992868304252625,security
18,"As a data manager, I want to know the security requirements of the data, so that I can check whether the data can be kept secure.",0.9999545812606812,security
19,"As a collection curator, I would like to be able to view the permission on my objects all together.",0.9995744824409485,security
20,"As a parent, I want to be able to create an account, so that I can sign up my kids for camp online.",0.9991034865379333,security
21,"As a fundingbody, I want to be reassured that researchers I fund have robust archival plans for their data, so that I can be sure that funding them is a worthwhile investment.",0.9956564903259277,security
22,"As an OlderPerson, I want to be able to manage my privacy and data settings. ",0.9990027546882629,security
23,"As an admin, I want to have all data encrypted, so that important information will not be stolen during a server breach or an attack.",0.9998173117637634,security
24,"As a Publisher, I want to have private data packages, so that I can share just with my team.",0.9998310804367065,security
25,"As a Customer, I want to Create a Customer Portal User Account, so that I can log on to the Customer Portal and perform transactions that first require user authentication.",0.9999505281448364,security
26,"As an archivist, I want to mark individual files as restricted, so that they don't get shared by mistake.",0.9999352693557739,security
27,"As an OlderPerson, I want to use ALFRED to pay for small amounts.",0.9957540035247803,security
28,"As a CST, I want to pay an annual fee, so that my CST status is active.",0.9999338388442993,security
29,"As a site member, I want to mark my email address as private even if the rest of my profile is not, so that no one can contact me.",0.9999545812606812,security
30,"As an archivist, I want to add restriction end date information to files, so that I can share files when they become open.",0.9999545812606812,security
31,"As a user,  I want to have the ability to keep my data private on the system, and only share data that I deem should be shared.",0.9999107122421265,security
32,"As a User, I want to authenticate locally.",0.9999089241027832,security
33,"As an IT staff member, I want to know the security requirements of the data, so that I know which kind of security measures to apply.",0.9982959628105164,security
34,"As a authenticateduser, I want to Enter payment information and have my card charged for an individual sponsorship, so that I can pay for an individual sponsorship.",0.9999301433563232,security
35,"As a collection curator, I want items to be made available under the permissions they were configured once the embargo date has been reached.",0.9999545812606812,security
36,"As a researcher, I want to secure remote access to the Neurohub node when working away from the laboratory",0.9998477697372437,security
37,"As an institutional data manager, I want to know about the privacy and security requirements of the data, so that I can plan the right storage system and sharing permissions.",0.9996412992477417,security
38,"As a researcher, I want to have a group-level repository for sharing papers/reviews/comments with other researchers.",0.9998247027397156,security
39,"As an administrator, I want to limit who can see certain metadata fields, so that I can show or hide things from display based on user groups.",0.9998581409454346,security
40,"As a faculty member, I want to go to my repository dashboard to manage members of my classes. I want to be able to grant submit permissions by pasting in a list of NetIDs, see confirmation that DDR recognizes the NetIDs, ability to manually remove permissions, ability to set begin and end dates for a submission window, and a have a status screen to clearly illustrate who has and hasn't submitted.",0.9999545812606812,security
41,"As a DB/IR administrator, I want to have a personal account with the ability to change passwords to make them more secure or to retrieve forgotten ones.",0.9999545812606812,security
42,As a collection curator I want to be able to change permissions on one or more items simultaneously.,0.9998548030853271,security
43,"As an administrator, I want to create user groups, so that I can control user permissions.",0.9999545812606812,security
44,"As a collection curator, I want to be able require authentication to access objects unless the request is coming from a whitelisted IP address, list of addresses (like the Special Collections Reading Room, or range.",0.9999545812606812,security
45,"As a site editor, I want to be able to indicate whether an article is publicly available or for members only, so that visitors are incentivized to become members.",0.9996494054794312,security
46,"As an administrator, I want to create user roles, so that I can group users by role.",0.9999375343322754,security
47,"As a DB/IR administrator, I want to login to personal account with access to authorized functions.",0.9999545812606812,security
48,"As an Application Administrator, I want to assign Users to an Advanced Data Entry and ensure that the appropriate permissions are enforced.",0.9999545812606812,security
49,"As a library staff member, I want to be able to add custom metadata fields for deposits I make on behalf of researchers to allow for better search capabilities.",0.9991198182106018,security
50,"As a superuser, I should be able to enter and exit the superuser scope.",0.9998607635498047,security
51,"As the Digital Records Archivist, I want to be able to grant embargo privileges to other repository administrators.",0.9999545812606812,security
52,"As a depositor, I want to link datasets with the project DMP, so that compliance with DMP can be demonstrated and whole project workflow is linked together.",0.9997759461402893,security
53,"As the Digital Records Archivist, I want a method to add and remove multiple people to deposit groups in specific collections. Ideally, I'd be able to set a date that the deposit window closes. The permissions conferred on these depositors should pick up on the collection's default permission.",0.9999545812606812,security
54,"As a PI, I want to know how secure data is, so that I can ensure legal compliance.",0.999921441078186,security
55,"As a user, I want to be able to create an account, so that I can create my own profile.",0.9997084736824036,security
56,"As a DB/IR administrator, I want to administrate patron accounts for purpose of closing accounts, viewing subscriptions, changing subscriptions, resetting passwords, changing email address, etc.",0.9999545812606812,security
57,"As a repository manager, I want to know all the collections for which I have curatorial responsibility. ",0.9999545812606812,security
58,"As User, I want to be able to log in.",0.9991206526756287,security
59,"As a DAMS manager, I want know the dates for when a permission or restriction is active.  ",0.9999545812606812,security
60,"As the Digital Records Archivist, I want the repository to lift embargoes on the release date and set the access controls to the configuration set on item on that date.",0.9995249509811401,security
61,"As a collection curator, I want to restrict access to my collection or items to Duke IP addresses.",0.999862790107727,security
62,"As a user, I want to have my personal information kept securely in the database of the website, so that I will not suffer from identity theft or telephone harassment.",0.9997778534889221,security
63,"As a site member, I want to mark my profile as private in which case only my name will appear, so that no one can learn things about me I don't want shared.",0.9998062252998352,security
64,"As a legalofficer, I want to know about data sensitivity, so that I can establish sharing options.",0.9998899698257446,security
65,"As a moderator, I want to create an account for the application by entering my name, email address, a password and a username, so that I can start using the application.",0.9997264742851257,security
66,"As an administrator, I want to assign rights to user groups or roles, so that I can control what users can and can't do.",0.9998666048049927,security
67,"As a DB/IR administrator, I want to set up or delete accounts for other administrators with various levels of permission.",0.999832034111023,security
68,"As a authenticateduser, I want to identify myself as and pay for a $350 company sponsorship, so that I can easily become a sponsor at this level without having to interface with badcamp personnel to get a sponsorship.",0.9999287128448486,security
69,"As a research facility manager, I want to deposit data from my facility directly into the archive on behalf of researchers, so that I am no longer required to maintain my own archive of facility data and researchers can access their own data as needed. ",0.9977269768714905,security
70,"As an archivist, I want to restrict access to some files by IP address, so that I can give reading room access only to certain digital files.",0.9999545812606812,security
71,"As a repository manager, I want to know all the collections and objects in the DAMS for which I have custodial responsibility.  ",0.9999393224716187,security
72,"AS an externalcoordinator, I want to access data from Bath collaborators off campus, so that I can collaborate effectively.",0.9998990297317505,security
73,"As a collection curator, I want to allow some collections the option of setting an embargo date (e.g. 2017-01-01)at deposit. Item metadata should be discoverable until that date. Once the embargo date is reached, the embargo should be lifted and access to the item should be allowed under the access permissions set on the object.",0.9999545812606812,security
74,"As a Cornell faculty member, I want to login remotely to the repository using Shibboleth, so that I can get remote access to Cornell campus-only content.",0.9998517036437988,security
75,"As a depositor, I want to place data under an embargo, so that my right of first use is protected, and I can fulfil my confidentiality responsibilities.",0.9995689988136292,security
76,"As an admin, I want to be able to block specific users based on IP address, so that I can prevent spamming on the websites.",0.9998806715011597,security
77,"As an archivist, I want to add detailed restrictions to groups of files, so that I know if and how they can be shared.",0.9997708201408386,security
78,"As an administrator, I want to allow users to log in using Active Directory credentials, so that I don't have to manage another set of usernames and passwords.",0.9980249404907227,security
79,"As a Platform Administrator, I want to be able to Hide any dataset already added as Public, So that I can maintain Public/Hidden status for other users.",0.9999545812606812,security
80,"As a depositor, I want to allow others to deposit on my behalf, so that I can delegate research data management tasks appropriately.",0.9993025064468384,security
81,"As a collection curator, I would like an easy way to create groups of users to manage permissions in the repository.",0.9997695088386536,security
82,"As a FABS user, I want to have read-only access to DABS, so that I can view DABS pages without wanting two sets of permissions.",0.9998867511749268,security
83,"As an administrator, I want to have researchers reset their own passwords, so that I don't have to send passwords in cleartext.",0.9999414682388306,security
84,"As a Researcher, I want results to be stored in a non-identifiable way, so that I can study the data to see things like whether estimates converged around the first opinion given by ""estimator A"" for example.",0.9997898936271667,security
85,"As a library staff member, I want to upload material to the repository on the author's behalf, so that I can fulfill a service obligation.",0.9999510049819946,security
0,"As a developer, I want to have detailed information of what happened when my App crashes on the user's device. ",0.9994744658470154,maintainability
1,"As an admin, I want to view user error logs, so that I can fix or review any issues that are being faced by users of the system.",0.9992232322692871,maintainability
2,"As a dataset developer, I want to deploy a new version of a dataset type without affecting the dataset instances of that type.",0.9997701048851013,maintainability
3,"As an app developer, I want to ensure that when I deploy a new version of an app that includes a shared dataset type that all dataset instances created by this app start using the new code but all dataset instances created by other apps remain unchanged.",0.9999358654022217,maintainability
4,"As a Data Publishing User, I want to be able to edit the model of data I have already imported, So that I can fix bugs or make enhancements in the API built for my data.",0.9997187256813049,maintainability
5,"As a Broker user, I want to have PPoPZIP+4 work the same as the Legal Entity ZIP validations.",0.9993438124656677,maintainability
6,"As a dataset developer, I want to have the option of implementing a migration procedure that can be run after an upgrade of a dataset instance to a new version of it type. ",0.9997079968452454,maintainability
7,"As a developer, I want an online service that is connected to my data repository that validates data on update, so that I can delegate data validation to a third party. ",0.9993966817855835,maintainability
8,"As a team member, I want to have a platform that allows me to rapidly prototype HTML ideas.",0.9984275102615356,maintainability
9,"As a Data Publishing User, I want to have the Packager support Constants, So that I can model dimensions that may not exist in the source file.",0.9991876482963562,maintainability
10,"As a Developer, I want to list all DataPackages requirements for my project in the file and pin the exact versions of any DataPackage that my project depends on, so that that the project can be deterministically deployed locally and won't break because of the DataPackage schema changes. ",0.9980429410934448,maintainability
11,"As an UnivITservice, I want to store archived data on existing storage systems, so that university data storage is consistent and maintainable and future availability of data can be guaranteed.",0.9979198575019836,maintainability
12,"As an app developer, I want to share a dataset type across multiple applications that include the dataset type's code in their artifacts.",0.9992582201957703,maintainability
13,"As a developer, I want to have the API to be well defined and well documented. ",0.9978349804878235,maintainability
14,"As a tester, I want to have access to test features in environments other than Staging, so that I can test any nonProd feature in any environment.",0.9999545812606812,maintainability
15,"As a Web Developer, I want to be able to install multiple versions of the same datapackage separately, so that that all my projects could be developed independently and deployed locally.",0.9842771291732788,maintainability
16,"As a Developer I want to quickly access Broker application data, so that I can investigate issues.",0.998236894607544,maintainability
17,"As a plugin developer, I want to upgrade the code of a dataset type used by a dataset instance created by that plugin when I deploy a new version of the plugin and update the pipeline to use that version.",0.997637152671814,maintainability
18,"As a developer, I want to have the API components to be on a high level so that I don't have to deal with their details. ",0.9972018003463745,maintainability
19,"As a developer, I want a version of DUL Hydra that works with Active Fedora 9 and passes all tests.",0.9996065497398376,maintainability
20,"As a developer, I want a dummy app to test DDR models on Fedora 4.",0.998390793800354,maintainability
21,"As an app developer, I want to write unit tests for an app that depends on the interface of a dataset type.",0.9999496936798096,maintainability
22,"As an app developer, I want to ensure that when I deploy a new version of an app that includes a different version of a dataset type deployed by another app and this app shares a dataset instance of this type with the other app the deployment will fail with a version conflict error. ",0.9997720122337341,maintainability
23,"As a user, I want to update the properties of a dataset instance and I expect this to fail if the new properties are not compatible with a meaningful error message.",0.9980547428131104,maintainability
24,"As a Developer , I want to be able to log better, so that I can troubleshoot issues with particular submissions and functions.",0.9995850920677185,maintainability
25,"As a system administrator, I want to run a script that tests to see if a Neurohub installation is functioning correctly.",0.9997045397758484,maintainability
26,"As Metadata Architect, I want to be able to use batch tools to ingest, update, and export descriptive and administrative metadata in lieu of METS ingest.",0.9995916485786438,maintainability
27,"As a developer, I want to deposit and maintain datasets via an API such as SWORD2, so that my service can interact with the archive. ",0.9990791082382202,maintainability
28,"As an app developer, I want to only depend on the interface of a dataset type in my app and have the system inject the implementation at runtime.",0.9992761015892029,maintainability
29,"As a release engineer, I want to call a script to execute acceptance tests against a Neurohub installation and report back the results.",0.9999358654022217,maintainability
30,"As a dataset developer, I want to separate the interface from the implementation of a dataset type.",0.998769223690033,maintainability
31,"As repository developer, I want to find opportunities to merge functionality in batch tools.",0.9985812902450562,maintainability
32,"As a dataset developer, I want to have the option of forcing applications to have the dataset code injected at runtime.",0.9997147917747498,maintainability
33,"As a broker team member, I want to make some updates to the SQL codes for clarity.",0.9983957409858704,maintainability
34,"As an app developer, I want to deploy a new version of a dataset type as part of an app artifact, without affecting other datasets of this type.",0.998336672782898,maintainability
35,"As a developer, I want to have the ALFRED API to reduce the work to achieve my goals. ",0.9989656209945679,maintainability
36,"As an Owner, I want to reset the environment to only take Staging MAX permissions, so that I can ensure that the FABS testers no longer have access.",0.9995902180671692,maintainability
37,"As a data scientist, I want to be able to upgrade a dataset instance to a new version of its code.",0.9971429705619812,maintainability
38,"As a tester, I want to ensure that FABS is deriving fields properly through a robust test file plus a follow up check.",0.9998055100440979,maintainability
39,"As an app developer, I want to deploy a new version of a dataset type as part of deploying a new version of the app that includes it and I expect that all dataset instances of that type that were created as part of the app deployment start using the new code.",0.9999545812606812,maintainability
40,"As a data scientist, I want to be able to create a dataset instance of an existing dataset type without writing code.",0.9995393753051758,maintainability
41,"As a MedicalCaregiver, I want to have a simple ALFRED unit that is expandable in is functions. ",0.9986050724983215,maintainability
42,"As a UI designer, I want to track the issues that come up in Tech Thursday, so that I know what to test and what want s to be fixed.",0.9994457364082336,maintainability
43,"As a developer, I want a version of the DDR Batch gem that works with Active Fedora 9 and passes all tests on Fedora 4.",0.9999545812606812,maintainability
44,"As a UI designer, I want to report to the Agencies about user testing, so that they are aware of their contributions to making Broker a better UX.",0.9985911250114441,maintainability
45,"As a UI designer, I want to begin user testing, so that I can validate stakeholder UI improvement requests.",0.9992589354515076,maintainability
46,"As a Data Publishing User, I want to know if my CSV file is valid, So that I can fix possible data issues before publishing it on Open Spending.",0.9997159838676453,maintainability
47,"As an Owner, I want to create a user testing summary from the UI SME, so that I can know what UI improvements we will follow through on.",0.9993327260017395,maintainability
0,"As a user, I want to view the group's shared calendars via the Neurohub Nodes' Web page as well as on my mobile device.",0.9997735619544983,portability
1,"As a team member, I want to see the first iteration of beta up on cloud.gov.",0.9999545812606812,portability
2,"As a Developer, I want to list all DataPackages requirements for my project in the file and pin the exact versions of any DataPackage that my project depends on, so that that the project can be deterministically deployed locally and won't break because of the DataPackage schema changes. ",0.9969894289970398,portability
3,"As a system administrator, I want to run a script that installs the Neurohub node onto a virgin Ubuntu operating system.",0.9999545812606812,portability
4,"As an OlderPerson, I want to have ALFRED on all my computers, tablets and phone.",0.9999312162399292,portability
5,"As a Web Developer, I want to be able to install multiple versions of the same datapackage separately, so that that all my projects could be developed independently and deployed locally.",0.9994993209838867,portability
6,"As a Cornell faculty member, I want to search the repository and browse through its contents on my phone, so that I can check things on the go.",0.9998825788497925,portability
7,"As a plugin developer, I want to upgrade the code of a dataset type used by a dataset instance created by that plugin when I deploy a new version of the plugin and update the pipeline to use that version.",0.9993830919265747,portability
8,"As a developer, I want a version of DUL Hydra that works with Active Fedora 9 and passes all tests.",0.9994113445281982,portability
9,"As a developer, I want a dummy app to test DDR models on Fedora 4.",0.9969858527183533,portability
10,"As a developer, I want to present my App in several ways. ",0.9997100234031677,portability
11,"As a repository developer, I would like to upgrade to Fedora 4 and migrate our applications and data.",0.9995272159576416,portability
12,"As a system administrator, I want to migrate data from an older version of NeuroHub to the current version.",0.9994274377822876,portability
13,"As an app developer, I want to deploy a new version of a dataset type as part of deploying a new version of the app that includes it and I expect that all dataset instances of that type that were created as part of the app deployment start using the new code.",0.9893872737884521,portability
14,"As an Admin, I want to set key configuration parameters for my site deployment, so that that I can change key information like the site title.",0.9989251494407654,portability
15,"As a repository administrator, I want author/creator to store the DUID of the person to allow for name authority control and interoperability with other systems like Symplectic Elements.",0.9979901313781738,portability
16,"As a systems administrator, I want  to install Neurohub dependencies into an Ubuntu 10.04 LTS machine using the normal Ubuntu package management tools.",0.9999494552612305,portability
17,"As a developer, I want a version of the DDR Batch gem that works with Active Fedora 9 and passes all tests on Fedora 4.",0.9998725652694702,portability
18,"As a user, I want to be able to access the site and do all the other stuffs on all of my electronic devices.",0.9988402724266052,portability
19,"As a Data Publishing User, I want to know if my CSV file is valid, So that I can fix possible data issues before publishing it on Open Spending.",0.9961920976638794,portability
