,US,pred,label
0,"As a Developer, I want to get a Data Package into Clojure in seconds, so that I can start using the data in doing analysis and visualizations. ",0.9999545812606812,performance
1,"As a FABS user, I want to have my validations run in a reasonable amount of time.",0.9995507597923279,performance
2,"As a Researcher, I want to get a Data Package into SPSS in seconds, so that I can start using the data for doing analysis and visualizations. ",0.9999545812606812,performance
3,"As a Developer, I want to get a Data Package into C++ in seconds, so that I can start using the data in doing analysis and visualizations. ",0.9999545812606812,performance
4,"As a Developer, I want to prevent duplicate transactions from being published and deal with the time gap between validation and the publishing decision.",0.9998743534088135,performance
5,"As a user, I want to upload large files of over 1GB in size.",0.9997082352638245,performance
6,"As an archive, I want to get information about the volume of data to preserve at an early stage, so that I can provide the adequate storage infrastructure.",0.9997422099113464,performance
7,"As a Researcher, I want to get a Data Package into Julia in seconds, so that I can start using the data for doing analysis and visualizations. ",0.9999545812606812,performance
8,"As an OlderPerson, I want to have a very good battery for ALFRED so I can keep him on the whole day.",0.9995070695877075,performance
9,"As a participant, I want to be shown all estimates at the same time after all estimators have given their estimate, so that I can be sure estimates are independent and not influenced by other estimates given in the same draw.",0.9992495179176331,performance
10,"As a Cornell faculty member, I want to share on the repository files that are larger than 1GB in a way that still allows users to download them if I want to use them, so that I can meet funder requirements.",0.9997686743736267,performance
11,"As an IT staff member, I want to have an estimate of the produced data volume, so that I can plan the overall storage consumption.",0.9999101161956787,performance
12,"As a Developer, I want to get a Data Package into Python in seconds, so that I can start using the data for doing analysis and visualizations. ",0.9999418258666992,performance
13,"As an IT manager, I want to know about IT resource requirements early in the project lifecycle, so that I can enable resource acquisition planning.",0.9999139308929443,performance
14,"As a Researcher, I want to get a Data Package into LibreOffice/OpenOffice in seconds, so that I can start using the data for doing analysis and visualizations. ",0.9999539852142334,performance
15,"As a Researcher, I want an app that create proxy Data Packages for well know and reliable data, sources, so that I can load high quality data using Data Package tooling. ",0.9954208731651306,performance
16,"As an institutional data manager, I want to know about the privacy and security requirements of the data, so that I can plan the right storage system and sharing permissions.",0.9990662932395935,performance
17,"As a user, I want to have the application respond quickly to my actions, so that I don't get bored.",0.9987261891365051,performance
18,"As a Researcher, I want to get a Data Package into R in seconds, so that I can start using the data for doing analysis and visualizations. ",0.9999545812606812,performance
19,"As a rector, I want to know how many data will be stored, so that I can plan long term resources.",0.9992740750312805,performance
20,"As a Researcher, I want to get a Data Package into Excel in seconds, so that I can start using the data for doing analysis and visualizations. ",0.9999053478240967,performance
21,"As a Developer, I want D Files generation requests to be managed and cached, so that duplicate requests do not cause performance issues.",0.9994781613349915,performance
22,"As a repository operator, I want to know about the kind of data, so that I can evaluate the storage size and system.",0.9993908405303955,performance
23,"As a depositor, I want to deposit arbitrarily large files, so that I am not limited in what files I can and cannot deposit.",0.9999349117279053,performance
24,"As an Agency user, I want to be able to include a large number of flexfields without performance impact.",0.9998984336853027,performance
25,"As a PI, I want to plan what kind of data I want to record/store, so that I can ensure it will possible to store it.",0.998017430305481,performance
0,"As a Developer, I want to get a Data Package into Clojure in seconds, so that I can start using the data in doing analysis and visualizations. ",0.9999222755432129,compatibility
1,"As a Researcher, I want to be able to translate my EML dataset to a Data Package, so that I can benefit from the wide array of tools available for Data Packages. ",0.9994736313819885,compatibility
2,"As a user, I want to view the group's shared calendars via the Neurohub Nodes' Web page as well as on my mobile device.",0.999114453792572,compatibility
3,"As an OlderPerson, I want to have my data stored directly on the phone.",0.999305009841919,compatibility
4,"As a user, I want to have the option to tell Neurohub to push posted content to my Twitter feed at the same time.",0.9994732737541199,compatibility
5,"As a researcher, I want to discover items in the repository through the library's discovery system and Google, so that I can facilitate my easy use of the content.",0.9998154044151306,compatibility
6,"As a Researcher, I want to get a Data Package into SPSS in seconds, so that I can start using the data for doing analysis and visualizations. ",0.9999457597732544,compatibility
7,"As a Developer, I want to get a Data Package into C++ in seconds, so that I can start using the data in doing analysis and visualizations. ",0.999902606010437,compatibility
8,"As an OlderPerson, I want to do guided exercises with ALFRED and ALFRED should also use sensors to capture health data while I am doing exercises. ",0.9999545812606812,compatibility
9,"As a Developer, I want a Mongo integration, so that I can integrate data-packaged data with pipelines that use Mongo. ",0.9999545812606812,compatibility
10,"As a trainer, I want to load an Excel file into the site, so that the course participants are added to the Scrum Alliance records.",0.9996378421783447,compatibility
11,"As a Zooniverse admin, I want to perform automatic animal attribute preclassification in Snapshot Serengeti.",0.9997286200523376,compatibility
12,"As an Archivist, I want to import EAD data.",0.9999545812606812,compatibility
13,"As a researcher, I want to point my Mendeley client at a group-wide shared repository of research papers and get notifications via Mendeley when new content is added.",0.9997789263725281,compatibility
14,"As a Data Publishing User, I want to have the Packager support Constants, So that I can model dimensions that may not exist in the source file.",0.9989482760429382,compatibility
15,"As a user, I want to have that my Twitter Tweets to appear in Neurohub, so that other researchers in the centre can see what I am up to.",0.9998549222946167,compatibility
16,"As a Consumer, I want to load a Data Package from R, so that that I can immediately start playing with it.",0.9999222755432129,compatibility
17,"As a developer, determine if we can use the in-built Fedora 4 event audit services.",0.9974931478500366,compatibility
18,"As a ResearcherPublisher, I want an integration with Zenodo, so that when I store my dataset in GitHub, I don't have to retype descriptive information about my dataset. ",0.9991255402565002,compatibility
19,"As a ResearcherPublisher, I want to publish Data Packages to CKAN, so that my data is findable, and I can have a data API. ",0.9993777275085449,compatibility
20,"As a institutional data steward, I want to be able to extract the data sets that are submitted to external repositories, so that I can add them to an institutional data catalogue.",0.9999127388000488,compatibility
21,"As a Data Publishing User, I want to be able to import data in Excel, So that I do not have to convert data formats in order to use the data packager.",0.9999545812606812,compatibility
22,"As a Researcher, I want to get my Excel spreadsheet into a Data Package, so that I can benefit from better tooling and standardization. ",0.99994957447052,compatibility
23,"As a depositor, I want to have metadata automatically filled from other University systems and remembered from previous deposits, so that I don't have to waste time reentering the same information.",0.9993938207626343,compatibility
24,"As an UnivITservice, I want to store archived data on existing storage systems, so that university data storage is consistent and maintainable and future availability of data can be guaranteed.",0.9988901019096375,compatibility
25,"As a Data Publishing User, I want to be able to import data from Fiscal Data Package descriptor file, So that I do not have to convert data formats in order to use the data packager.",0.9999545812606812,compatibility
26,"As a Researcher, I want to get a Data Package into Julia in seconds, so that I can start using the data for doing analysis and visualizations. ",0.9998916387557983,compatibility
27,"As a Developer , I want to develop a custom importer.",0.9988802075386047,compatibility
28,"As an Archivist, I want to import only Agent and Subject information from MARCXML records.",0.9990278482437134,compatibility
29,"As a Machine Learning expert, I would like to package ML datasets as data packages, so that I can easily import them into my ML platform, so that I can start using the data in doing analysis. ",0.9999545812606812,compatibility
30,"As a user, I want to upload my week's schedule, so that I can get recommendations for recycling centers that best fit my availability.",0.9996204376220703,compatibility
31,"As a developer, I want to have the application function correctly in Internet Explorer 6 and 7, Firefox 1.5 and 2, and Safari 2, so that as many people as possible can fully use the application.",0.9996474981307983,compatibility
32,"As a Developer, I want the data loaded from historical FABS to include the FREC derivations, so that I can have consistent FREC data for USASpending.gov.",0.999687910079956,compatibility
33,"As a library staff member, I want to use content and metadata from the repository in other systems and/or web pages easily, so that I can deliver such content in the manner best fit to the audience or occasion.",0.999201238155365,compatibility
34,"As a Data Publishing User, I want to be able to import data in JSON, So that I do not have to convert data formats in order to use the data packager.",0.9999545812606812,compatibility
35,"As a collection curator, when I update the metadata for an object, that change should be propagated to the DOI system if the repository has assigned a DOI to that object.",0.9996163845062256,compatibility
36,"As a User , I want to authenticate using LDAP.",0.9971446394920349,compatibility
37,"As a Developer, I want an SPSS integration, so that I can integrate data-packaged data with pipelines that use SPSS. ",0.9999545812606812,compatibility
38,"As an archivist, I want to access the digital files on the X-drive, so that I can use them.",0.9997223019599915,compatibility
39,"As an Archivist, I want to import Resources from MARCXML records.",0.9998202919960022,compatibility
40,"As a Researcher, working with data in NetCDF, I want NetCDF integration, so that I can store my data in plaintext while still retaining its metadata. ",0.9998161196708679,compatibility
41,"As a patron, I want to view/upload content in multiple formats, including old formats such as Lotus Works.",0.999200165271759,compatibility
42,"As a Zooniverse admin, I want to perform automatic animal number detection in Snapshot Serengeti.",0.9997782111167908,compatibility
43,"As a moderator, I want to import stories from a spreadsheet, so that I don't have to copy and paste each individual story.",0.9998420476913452,compatibility
44,"As a Developer, I want to get a Data Package into Python in seconds, so that I can start using the data for doing analysis and visualizations. ",0.999901294708252,compatibility
45,"As a developer, I want to have written a site which is compliant with XHTML and CSS standards, so that as many people as possible can access the site and view it as intended.",0.9968332648277283,compatibility
46,"As a Developer, I want a jQuery plugin for Core Data Packages, so that I can use it to apply to form control that uses a core dataset for autocompletion. ",0.9994007349014282,compatibility
47,"As a Data Publishing User, I want to be able to edit the data source of data I have already imported, So that I can fix bugs or make enhancements in the API built for my data.",0.999426007270813,compatibility
48,"As a Researcher, I want to get a Data Package into LibreOffice/OpenOffice in seconds, so that I can start using the data for doing analysis and visualizations. ",0.9999085664749146,compatibility
49,"As a metadata batch editor, I'd like to be able to export and import descriptive and administrative metadata for multiple collections together.",0.9997075200080872,compatibility
50,"As a Zooniverse admin, I want to assess how interesting or appealing or complex a picture is based on automated analysis, citizen annotations, and comments on Talk.",0.9999545812606812,compatibility
51,"As a Data Publishing User, I want to have a functioning Python Client, So that I can add data to the datastore in bulk from the command line or my own programs.",0.9999130964279175,compatibility
52,"As an OlderPerson, I want to use ALFRED to pay for small amounts.",0.9965568780899048,compatibility
53,"As an Archivist, I want to upload an EAD for import from within the frontend application.",0.9986764788627625,compatibility
54,"As a ResearcherDeveloper, would like the ability import/export from MS-SQL, so that I can use Data Packages in workflows that involve MS-SQL. ",0.9999545812606812,compatibility
55,"As a Zooniverse admin, I want to perform automatic segmentation or localization of plankton in Plankton Portal.",0.9999545812606812,compatibility
56,"As a repository manager, I'd like to be able to export a spreadsheet of technical metadata at the repository, collection, or item level.",0.9998499155044556,compatibility
57,"As a Zooniverse admin, I want to detect when a scientist should be prompted to look at a subject, based on annotations and information from Talk comments.",0.999622106552124,compatibility
58,"As an agency user, I want to use the schema v1.1 headers in my FABS file.",0.999583899974823,compatibility
59,"As a Zooniverse admin, I want to automatically detect Plankton Portal images with no classifiable plankton in them.",0.9997116923332214,compatibility
60,"As a patron, I want to download report/dataset release calendar to load into own calendar.",0.9998041987419128,compatibility
61,"As an OlderPerson, I want to use ALFRED to maintain my contact list in my phone. ",0.9968836903572083,compatibility
62,"As a content editor, I want to be able to add videos from Brightcove.",0.996681272983551,compatibility
63,"As a repository administrator, I want to be able to expose repository contents via OAI-PMH.",0.9995124340057373,compatibility
64,"As a Data Consuming User, I want to be able to download a CSV of the data that is used in any visualisation I am viewing, So that I can use the data in other tools.",0.9982882142066956,compatibility
65,"As a Visitor, I want to sign up via github or google, so that that I don't have to enter lots of information and remember my password for yet another website.",0.9987629652023315,compatibility
66,"As a developer, I want to have the API components to be on a high level so that I don't have to deal with their details. ",0.9967288970947266,compatibility
67,"As an Archivist, I want to import EAD files that were exported by Archon.",0.9998339414596558,compatibility
68,"As an assistant archivist, I want to easily access interdepartmental forms.",0.9995425939559937,compatibility
69,"As a user, I want to specify schema as a JSON string.",0.9994435906410217,compatibility
70,"As a DeveloperWrangler, I want to use a command line tool that allows me to validate data, so that I can feel trust in the validity and usefulness of the data quickly and in the context of my command line workflow. ",0.9998612403869629,compatibility
71,"As a data reuser, I want to view a DOI for a dataset, so that I can get back to the data in future and I can import the dataset into my referencemanagement software automatically.",0.9999312162399292,compatibility
72,"As a repository administrator, I want to provide a Linked Data interface to the repository.",0.9994701743125916,compatibility
73,"As a Zooniverse admin, I want to perform automatic animal species preclassification in Snapshot Serengeti.",0.999775230884552,compatibility
74,"As a Researcher, I want to get a Data Package into R in seconds, so that I can start using the data for doing analysis and visualizations. ",0.9999545812606812,compatibility
75,"As a Staff member, I want to Send or Post Citations and Fines, so that I can successfully send the Notice Of Violation document to the property owner and log information about the action.",0.9998261332511902,compatibility
76,"As a developer, I want to have an easy way to read data from health sensors the user is wearing. ",0.9979637861251831,compatibility
77,"As a user, I want to sync events created in NeuroHub with a web-based Calendar such as Google Calendar.",0.9995632767677307,compatibility
78,"As a Publisher, I would like an integration with Excel, so that I can output cleaned Data Packages. ",0.9999442100524902,compatibility
79,"As the Digital Records Archivist, I need a method to batch ingest ETDs we receive from ProQuest. A script might work, but a GUI would be nice.",0.9978343844413757,compatibility
80,"As a Zooniverse admin, I want to perform automatic detection of plankton size or orientation in Plankton Portal images.",0.9999464750289917,compatibility
81,"As a Developer, I want an EPrints integration, so that I can integrate data-packaged data with pipelines that use EPrints. ",0.9999545812606812,compatibility
82,"As Metadata Architect, I want to be able to use batch tools to ingest, update, and export descriptive and administrative metadata in lieu of METS ingest.",0.999873161315918,compatibility
83,"As a developer, I want to deposit and maintain datasets via an API such as SWORD2, so that my service can interact with the archive. ",0.9995512366294861,compatibility
84,"As a moderator, I want to export a transcript of a game as a CSV file, so that I can further process the stories and estimates.",0.9996534585952759,compatibility
85,"As a repository administrator, I would like Symplectic Elements to be able to communicate bidirectionally with the repository.",0.9998555183410645,compatibility
86,"As a serious games developer, I want to be able to take control over some functions to provide the desired user experience. ",0.9970149993896484,compatibility
87,"As an Archivist, I want to export a description as EAD.",0.9997400641441345,compatibility
88,"As a Developer, I want to use data package as a node lib in my project, so that that I can depend on it using my normal dependency framework.",0.9992843270301819,compatibility
89,"As a Consumer, I want to download a DataPackage's data one coherent SQLite database, so that that I can get it easily in one form.",0.9980132579803467,compatibility
90,"As a developer, I would like to create a web socket protocol for Frictionless data tools, so that I can easily use data packages with additional data analysis tools. ",0.9995031356811523,compatibility
91,"As an API User, I want to be able to get a CSV output of any cube-based query, So that I can use work with tools that read CSV.",0.9996447563171387,compatibility
92,"As a depositor, I want to deposit and maintain datasets through Virtual Research Environments and other workflow tools, so that I can continue to work with tools with which I'm familiar.",0.9990288019180298,compatibility
93,"As a researcher,  I want to have the ability to interact with a revision control system so that I can keep track of changes to files over time.",0.9948166012763977,compatibility
94,"As an Archivist, I want to import Accessions data in CSV.",0.9998313188552856,compatibility
95,"As a library staff member, I want to make digital items held in trusted external system searchable within our system, so that I can provide seamless access to disparate collections.",0.9995433688163757,compatibility
96,"As a Researcher, I want to get a Data Package into Excel in seconds, so that I can start using the data for doing analysis and visualizations. ",0.9999545812606812,compatibility
97,"As a Researcher, I want to be able to reference a remote-controlled vocabulary for my dataset, so that I can be sure that column of my dataset are valid against a single shared list of terms. ",0.9992634654045105,compatibility
98,"As a moderator, I want to export a transcript of a game as a HTML file, so that I can save the stories and estimates locally.",0.9972238540649414,compatibility
99,"As a Publisher, I would like an integration with Open Refine, so that I can output cleaned Data Packages. ",0.9998550415039062,compatibility
100,"As a Data Publishing User, I want to be able to provide the Platform Administrator with additional GeoJSON sources, So that I can improve the map-based visualisations of my data.",0.999244213104248,compatibility
101,"As a Developer, I want a DAT integration, so that I can integrate data-packaged data with pipelines that use DAT. ",0.9999397993087769,compatibility
102,"As a repository administrator, I want Symplectic Elements to integrate with DDR. They provide a Fedora Connector and Emory is using a hidden Fedora instance that Hydra collects objects for. Note that there is bidirectional communication with Elements.",0.9991998076438904,compatibility
103,"As a Data Publishing User, I want to be able to import data from a Google Spreadsheet, So that I do not have to convert data formats in order to use the data packager.",0.9999545812606812,compatibility
104,"As a data reuser, I want to search the archive through Primo , so that I can search books, articles and data all in one place.",0.9997662901878357,compatibility
105,"As a collection curator, I would like metadata changes made to items with repository-assigned DOIs to be propagated to the EZID.",0.9991482496261597,compatibility
106,"As a collection curator, I want to deposit items into the repository from within ArchivesSpace and to view the status of those objects in ArchivesSpace.",0.9993257522583008,compatibility
107,"As a developer, I want to access an API from the website, so that I can integrate it and implement certain features in my own iOS application.",0.9994956254959106,compatibility
108,"As an owner, I want to be sure that USAspending only send grant records to my system.",0.9990329742431641,compatibility
109,"As a Developer, I want to do exploratory data analysis in R and operationalize that analysis in Python, so that I can use the best tool for the job.",0.9996908903121948,compatibility
110,"As a Developer, I want an Elasticsearch integration, so that I can integrate data-packaged data with pipelines that use Elasticsearch. ",0.9999545812606812,compatibility
111,"As a researcher, I want to upload files prior to having them attached to a log book page using a mapped network drive.",0.9998013377189636,compatibility
112,"As a DeveloperDataWrangler, I want to store my Data Package in GitHub and have it automatically stored into CKAN, so that I get a data API and my dataset is listed in a relevant catalog. ",0.9998714923858643,compatibility
113,"As an archivist, I want to use archival content on the RAC website, so that I can integrate our collections into our web presence.",0.999504804611206,compatibility
114,"As an OlderPerson, I want to have an ALFRED device that responds to the changing demand of the users by offering new Apps in the ALFREDO platform.",0.9985004663467407,compatibility
115,"As a metadata batch editor, I want to export the CSV, remove the fields I'm not editing, edit the remaining fields, and upload the remediated file to overwrite values",0.9999257326126099,compatibility
116,"As an UnivITservice, I want to store archived data directly on the HCP object store, so that  features can be made.",0.9995307922363281,compatibility
117,"As a Publisher, I want to be able to preview the views of the current data package using cli prior to publishing, so that that I can refine the json declarations of datapackage view section to achieve a great looking result.",0.999782145023346,compatibility
118,"As a Research Information manager, I want to integrate the archive with CRIS, so that I can analyse impact of research data publication I can link funding to all of the outputs it produces.",0.9972924590110779,compatibility
119,"As a developer, I want an DSpace integration, so that I can integrate data-packaged data with pipelines that use Dspace. ",0.9999545812606812,compatibility
120,"As a researcher, I want the DMP to prepopulate information that I have already entered in other institutional systems, so that I do not have to re-enter information ensuring the DMP contains accurate and standardized information.",0.999932050704956,compatibility
121,"As a developer, I want to have my App to be granted access to several operating system features. ",0.9981523156166077,compatibility
122,"As an administrator, I want to be able to use systems such as Symplectic Elements and Activity Insight to properly track faculty scholarly output in the repositories, so that I can facilitate personnel decisions.",0.9999531507492065,compatibility
123,"As a research facility manager, I want to deposit data from my facility directly into the archive on behalf of researchers, so that I am no longer required to maintain my own archive of facility data and researchers can access their own data as needed. ",0.9994072914123535,compatibility
124,"As an archivist, I want to automatically create access derivatives of digital objects, so that I don't have to do this manually.",0.9985103011131287,compatibility
125,"As a Broker user, I want the D1 file generation to be synced with the FPDS data load, so that I don't have to regenerate a file if no data has been updated.",0.9987612962722778,compatibility
126,"As a Developer, I want Feather integration, so that I can integrate data-packaged data with pipelines that use Feather. ",0.9999545812606812,compatibility
127,"As a Research Information manager, I want to track citation counts for published datasets, so that impact of datasets within academia can be demonstrated.",0.9991021156311035,compatibility
128,"As a repository administrator, I want author/creator to store the DUID of the person to allow for name authority control and interoperability with other systems like Symplectic Elements.",0.9997244477272034,compatibility
129,"As a depositor, I want to deposit arbitrarily large files, so that I am not limited in what files I can and cannot deposit.",0.9986203908920288,compatibility
130,"As a Cornell faculty member, I want to login remotely to the repository using Shibboleth, so that I can get remote access to Cornell campus-only content.",0.9989532232284546,compatibility
131,"As an Archivist, I want to import EAD files that were exported by the Archivists' Toolkit.",0.9999192953109741,compatibility
132,"As a user, I want to specify schema as a SQL schema string.",0.9995757937431335,compatibility
133,"As a developer, I want to use bootstrap in the process of developing, so that I can easily design my website.",0.9982115030288696,compatibility
134,"As an agency user, I want to submit my data elements surrounded by quotation marks, so that Excel won't strip off leading and trailing zeroes.",0.9996022582054138,compatibility
135,"As an administrator, I want to allow users to log in using Active Directory credentials, so that I don't have to manage another set of usernames and passwords.",0.9994887113571167,compatibility
136,"As a user, I want to be able to access the site and do all the other stuffs on all of my electronic devices.",0.9985697269439697,compatibility
137,"As a Researcher, I want an integration with https://data.mendeley.com/, so that I can validate my data upon ingest to the service.",0.99835205078125,compatibility
138,"As a depositor, I want to link datasets to publications in Opus, so that both my data and publications are more easily discovered.",0.9981783628463745,compatibility
139,"As a researcher, I want to import metadata that I captured with a metadata tool, so that I do not have to capture it again in a DMP.",0.996249258518219,compatibility
140,"As a agency user, I want to map the FederalActionObligation properly to the Atom Feed.",0.9996399879455566,compatibility
141,"As a administrator, I want to tag my blog posts for consumption by Drupal Planet, so that they will be listed on the Drupal Planet blog.",0.9998167157173157,compatibility
142,"As an IT staff member, I want to know with which software or technology the data is produced or used, so that I can determine what kind of technical services and functionalities are required.",0.9990606904029846,compatibility
143,"As a researcher, I want to access files stored in my Neurohub workspace, using a network drive attached to my workstation.",0.999891996383667,compatibility
144,"As a data depositor, I'd like to use the Simple Ingest Format to update existing items and components creating new versions where they already exist and creating new ones where the don't.",0.9994173049926758,compatibility
145,"As a Zooniverse admin, I want to perform automatic worm motion analysis to reduce video duration in Worm Watch Lab.",0.9997860789299011,compatibility
0,"As a developer, I want to have the site comply with the W3C accessibility guidelines where possible, so that people with accessibility issues can use the application.",0.9994271993637085,usability
1,"As a Consumer, I want to download the data package in one file, so that that I don't have to download descriptor and each resource by hand.",0.9998557567596436,usability
2,"As a user, I want to navigate forwards and backwards between log books and log book pages without having to use my browser's back button.",0.9999545812606812,usability
3,"As an archivist, I want to search images by uploading an image, so that so I can find images when i don't have any metadata.",0.9998993873596191,usability
4,"As a site editor, I want to have a prominent area on the home page where I can put special announcements not necessarily news or articles, so that I can give them additional exposure.",0.9997898936271667,usability
5,"As a FABS user, I want the frontend URLs to more accurately reflect the page I'm accessing, so that I'm not confused.",0.9997022747993469,usability
6,"As a user, I want to have a great UI and UX from the sites, so that I have a pleasant experience when navigating through them.",0.9999310970306396,usability
7,"As an Agency user, I want to better understand my file-level errors.",0.9997031092643738,usability
8,"As a user, I want to get feedback when I enter an invalid zip code.",0.9999337196350098,usability
9,"As a moderator, I want to see dates and times in my local timezone, so that I don't have to do timezone conversion myself.",0.9999232292175293,usability
10,"As a FABS user, I want the language on FABS pages to be appropriate for me, so that I am not confused.",0.9994269609451294,usability
11,"As an OlderPerson, I want to insert my meetings into ALFRED using speech. ",0.9992061257362366,usability
12,"As a metadata editor, I would like to be able to add and edit metadata without assistance.",0.9995914101600647,usability
13,"As a Data Consuming User, I want to be able to have stepped zoom on map visualisations, So that I can have better control over the navigation experience inside a map view.",0.9999496936798096,usability
14,"As a repository manager, I want to have metadata in additional languages, so that I can allow for multilingual data archive.",0.9996738433837891,usability
15,"As an agency user, I want a landing page to navigate to either FABS or DABS pages, so that I can access both sides of the site.",0.9986666440963745,usability
16,"As a Publisher, I want to see real examples of published packages so that I can understand how useful and simple the datapackage format and the registry is.",0.999721109867096,usability
17,"As an Agency user, I want to receive a more helpful file-level error when I upload a file with the wrong extension.",0.9998887777328491,usability
18,"As a publisher, I want to be able to check that every time I update my data it is still good, so that I can catch errors early and store reliable data. ",0.9992203712463379,usability
19,"As a Publisher, I want to be warned that a tag exists when I try to overwrite it, so that that I don't accidentally overwrite stable tagged data which is relied on by consumers.",0.9990690350532532,usability
20,"As a user, I want to be able to anonymously view public information, so that I know about recycling centers near me before creating an account.",0.9988086223602295,usability
21,"As a user, I want to view thumbnail sequences of video segments.",0.9991505146026611,usability
22,"As a lab administrator, I want to theme the Web interface graphics/colours.",0.9996539354324341,usability
23,"As a user, I want to be able to use Unicode, so that I can use any language I like.",0.9988203644752502,usability
24,"As a FABS user, I do not want  DABS banner messages and vice versa, so that I have the appropriate information for my application.",0.9992666840553284,usability
25,"As a Developer I want to quickly access Broker application data, so that I can investigate issues.",0.9985139966011047,usability
26,"As a company, I want to have a website that is easy to use, so that I can upload or delete stuff step by step.",0.9995220899581909,usability
27,"As a researcher, I want to have the ability to insert Greek symbols into my logbook entries.",0.9999433755874634,usability
28,"As a Broker user, I want  to help create content mockups, so that I can submit my data efficiently.",0.9988042116165161,usability
29,"As a donor representative, I want to see thumbnails of images, so that I can select which one I want.",0.999789297580719,usability
30,"As a depositor, I want to have a user interface that is familiar to me, so that I feel like all the University systems are joined up.",0.9994768500328064,usability
31,"As an OlderPerson, I want to receive information from ALFRED by speech technology. ",0.9998899698257446,usability
32,"As an OlderPerson, I want to use only well-visible buttons.",0.9992701411247253,usability
33,"As a user, I want to see sensible and predictable URLs, so that the application feels logical and transparent.",0.9999407529830933,usability
34,"As an OlderPerson, I want to use ALFRED as much as possible with speech interaction.",0.9994996786117554,usability
35,"As a user, I want to draw tables using HTML tags as part of the content of a log book page.",0.9994572997093201,usability
36,"As a County Staff Member, I want to create a custom query/report outside of the common querying/reporting functionality, so that I can fulfill a request.",0.9998880624771118,usability
37,"As an OlderPerson, I want to have an ALFRED device that can be easily adapted for user that have visual or hearing troubles.",0.9992225170135498,usability
38,"As an OlderPerson, I want to have an ALFRED device that speaks very slowly and clearly.",0.998156726360321,usability
39,"As a ResearcherPublisher, I want validate my data with a minimum of clicks, so that I can feel trust in the validity and usefulness of the data. ",0.9997590184211731,usability
40,"As an owner, I only want zero-padded fields, so that I can justify padding.",0.9997339844703674,usability
41,"As an Applicant, I want to Check the Status of a transaction, so that I can understand where the provisioning of my service is in the process, such as information related to service levels, fees, plan review, permit, or inspection results.",0.9994866847991943,usability
42,"As a user, I want more information about how many rows will be published prior to deciding whether to publish.",0.9989563226699829,usability
43,"As an Agency user, I want to accurately see who created a submission, so that I'm not confused about who last updated a submission.",0.999485969543457,usability
44,"As a Publisher, I want to data to be validated when I publish it, so that that I know immediately if I have accidentally broken my data or have bugs and can take action to correct.",0.9989908337593079,usability
45,"As a Consumer, I want to see some example data packages quickly, so that I get a sense of what is on this site and if it is useful to look further.",0.9964497089385986,usability
46,"As a trainer, I want to be assured that no one can submit the same answers multiple time and skew my results, so that my ratings are accurate.",0.9991958737373352,usability
47,"As a FABS user, I want to see correct status labels on the Submission Dashboard, so that I can quickly see my submission history.",0.9999545812606812,usability
48,"As a Developer , I want to clarify to users what exactly is triggering the CFDA error code in each case.",0.9998310804367065,usability
49,"As a Publisher, I want to preview a datapackage I have prepared, so that that I can check it works and share the results.",0.9991307854652405,usability
50,"As a Platform administrator, I want to be able to translate the data types hierarchies of the Viewer while in embed mode, So that my users can understand the interface in their native language.",0.9996349811553955,usability
51,"As a publisher, I want to embed an interactive preview of my data on my site, so that users can be encouraged that this is the correct data for them. ",0.9993709921836853,usability
52,"As a publisher, I want to embed a preview button on my site, so that users can preview the data and be encouraged that this is the correct data for them.",0.9997958540916443,usability
53,"As a data reuser, I want to access the system in my native language, so that I am not put off reusing University of Bath data by language barriers.",0.9998928308486938,usability
54,"As an archivist, I want to automatically create access derivatives of digital objects, so that I don't have to do this manually.",0.9971339702606201,usability
55,"As a Broker user, I want the D1 file generation to be synced with the FPDS data load, so that I don't have to regenerate a file if no data has been updated.",0.9939395189285278,usability
56,"As a Staff member, I need to be notified when Geospatial attributes change, so that I can ensure that I am reviewing the permit/application to the most current data and appropriate standards.",0.9991519451141357,usability
57,"As a participant, I want to be able to change my estimate up until the last person selects a card and all are shown, so that I can change my mind based on information I hear.",0.9998260140419006,usability
58,"As a user, I want the flexfields in my submission file to appear in the warning and error files when the only error is a missing required element.",0.9998546838760376,usability
59,"As a participant, I want to always have the cards in the same order across multiple draws, so that it's easy to compare estimates.",0.9992033839225769,usability
60,"As a Data Consuming User, I want to be able to filter, sort and aggregate data by multiple dimensions and measures, So that I can get more granular views on the data.",0.9998886585235596,usability
61,"As a user, I want to have nice error pages when something goes wrong, so that I can trust the system and its developers.",0.9999545812606812,usability
62,"As a UI designer, I want to report to the Agencies about user testing, so that they are aware of their contributions to making Broker a better UX.",0.9991562366485596,usability
63,"As a moderator, I want to add an item to the list of items to be estimated, so that so that we can be flexible and accommodate situations where we think of a new story while playing.",0.9998020529747009,usability
64,"As a user, I want to have the ability to move multiple files around and rearrange them using the Neurohub file browser while processing data.",0.9998062252998352,usability
65,"As a researcher, I want to promote/share my work through interactive maps, so that I can display the range and extent of my work graphically.",0.9994592070579529,usability
66,"As an Owner, I want to create a user testing summary from the UI SME, so that I can know what UI improvements we will follow through on.",0.998790442943573,usability
67,"As a FABS user, I want to submission errors to accurately represent FABS errors, so that I know why my submission didn't work.",0.9999347925186157,usability
68,"As a user, I want the publish button in FABS to deactivate after I click it while the derivations are happening, so that I cannot click it multiple times for the same submission.",0.9998294115066528,usability
69,"As a site visitor, I want to be able to get back to the home page quickly and easily, so that I don't get lost navigating.",0.9992033839225769,usability
70,"As a Data Consuming User, I want to have consistent use of colour on map visualisations, So that I can better understand the visual logic of the map view.",0.9986659288406372,usability
71,"As a depositor, I want to deposit and maintain datasets through Pure, so that I have a single onestop shop for managing my research outputs.",0.9998714923858643,usability
0,"As a systems administrator, I want to be able to control the location of the demo database and I want it to be backed up.",0.9991632699966431,reliability
1,"As a repository administrator, I would like to be able to continue to provide access to the repository in the event that the server fails.",0.999384880065918,reliability
2,"As a collection curator, I want the repository to queue my collection for replication upon ingest to our remote storage site and to display the remote replication status in each item and component page in the staff interface. I would also like to see a summary of this at the collection level on my dashboard.",0.9999545812606812,reliability
3,"As an app developer, I want to ensure that application creation fails if any of its datasets cannot be created.",0.9997689127922058,reliability
4,"As a fundingbody, I want to be reassured that researchers I fund have robust archival plans for their data, so that I can be sure that funding them is a worthwhile investment.",0.9992734789848328,reliability
5,"As an app developer, I want to ensure that application redeployment fails if any of its datasets cannot be reconfigured.",0.9998683929443359,reliability
6,"As a Consumer, I want to be able to get the data for a data package even if the original data has been moved or removed, so that that I can still use is and my app or analysis keeps working.",0.9990735054016113,reliability
7,"As a system administrator, I want to have a managed backup protocol for the system.",0.9997493624687195,reliability
8,"As a Publisher, I want to publish a data package where its resource data is stored on my servers but the registry caches a copy of that data, so that that if my data is lost or gets broken I still have a copy people can use.",0.9995166063308716,reliability
9,"As an asset manager, I want to be assured that the digital copy I deposit is stored redundantly, so that when one copy suffers destruction or unwanted changes, I still have other good copies to restore from.",0.9998262524604797,reliability
10,"As a Researcher, I want an app that create proxy Data Packages for well know and reliable data, sources, so that I can load high quality data using Data Package tooling. ",0.9974270462989807,reliability
11,"As a repository manager, I want to specify the remote replication policy for each collection. I want to be able to elect to either replicate remotely or not and possibly to replicate beyond the primary remote site. E.g., some collections may not leave Duke, some may be replicated to DuraCloud, and some may be replicated to both DuraCloud and Glacier.",0.9999545812606812,reliability
12,"As an asset manager, I want to be assured that threats to copies in one repository are not automatically incurred by the redundant copies.",0.9997991919517517,reliability
13,"As a user, I want to ensure that if reconfiguration of a dataset fails then no changes have taken effect, so that all steps required to reconfigure a dataset must be done as a single atomic action.",0.9997190833091736,reliability
14,"As a Publisher, I want to be able to restore the deleted data package via cli, so that that it is back visible and available to view, download.",0.9986886382102966,reliability
15,"As a library staff member, I want to deliver streaming media from within the repository, so that I can deliver such content in the manner expected and ensure continued access to said content.",0.9998496770858765,reliability
16,"As a pipeline designer, I want to get a meaningful error message when pipeline creation fails when I use an existing dataset as a sink or source, so that I know that the schema or any other property of the dataset is incompatible with what the pipeline requires. ",0.999832272529602,reliability
17,"As a user, I want to ensure that an update of explore never leads to silent loss of data or data available for explore. ",0.9997130036354065,reliability
18,"As an asset manager, I want to be assured that the redundant copies are continuously monitored for unwanted changes, and that if/when changes do occur, there is a mechanism by which I can determine the original object and restore it to all copies.",0.999904990196228,reliability
19,"As a dataset developer, I want to delete outdated versions of a dataset type and I expect this to fail if there are any dataset instances with that version of the type.",0.9984329342842102,reliability
20,"As an OlderPerson, I want to have an ALFRED device that informs me about a low battery when leaving the house. ",0.9993686079978943,reliability
21,"As a library staff member, I want to preserve both the content and the metadata within the repository in a robust manner, so that I can provide stable, long-term access to this material.",0.997719943523407,reliability
0,"As a PI, I want to know who owns the data, so that I know what I am allowed to do with it.",0.9998200535774231,security
1,"As a repository manager, I want to constrain curatorial access to my units assets to staff members of my unit and to DAMS managers having universal access.    ",0.9999545812606812,security
2,"As a collection curator, I want users to be able to contact me directly from the repository to request access to restricted objects.",0.9999545812606812,security
3,"As lab administrator, I want to have increased access to the system to support regular users. ",0.99979168176651,security
4,"As a member, I want to have the system email me a new password or a password reminder since i have short-term memory problems.",0.9993746876716614,security
5,"As a user, I want to search and discover music using content identification or fingerprinting.",0.9996274709701538,security
6,"As a non-Duke researcher, I and my team need to describe our objects in the repository after they've been deposited if we've been assigned permission to edit metadata.",0.999357283115387,security
7,"As an Application Administrator, I want to be able to reset a User's password for them.",0.9993454813957214,security
8,"As repository manager, I'd like to be able to view authenticated, active users and anonymous users.",0.9996228218078613,security
9,"As a user, I want to link my email account to my profile, so that I can get a temporary password in case I forget my own one.",0.9998904466629028,security
10,"As a researcher,  I want to have the ability to restrict the data I share to certain researchers or groups of researchers.",0.999451220035553,security
11,"As a collection curator, I would like to be able to view the permission on my objects all together.",0.9990543723106384,security
12,"As a parent, I want to be able to create an account, so that I can sign up my kids for camp online.",0.9997170567512512,security
13,"As a fundingbody, I want to be reassured that researchers I fund have robust archival plans for their data, so that I can be sure that funding them is a worthwhile investment.",0.9996126294136047,security
14,"As an OlderPerson, I want to be able to manage my privacy and data settings. ",0.9996185302734375,security
15,"As an admin, I want to have all data encrypted, so that important information will not be stolen during a server breach or an attack.",0.999610960483551,security
16,"As a parent, I want to be able to sign and submit consent forms online, so that I don't have to deal with my child losing a consent form.",0.9992805123329163,security
17,"As a MedicalCaregiver, I want to be sure that the user can decide who has access to her data. ",0.9994547963142395,security
18,"As an OlderPerson, I want to decide who has access to my vital data. ",0.9997265934944153,security
19,"As an archivist, I want to mark groups of files as restricted, so that they don't get shared by mistake.",0.999275267124176,security
20,"As a User , I want to authenticate using LDAP.",0.9964359998703003,security
21,"As an externalcollaborator, I want to gain privileged access to data for projects in which I am involved, so that I can collaborate effectively.",0.9998257756233215,security
22,"As a moderator, I want to log in using my account name and password, so that I can start using the application.",0.9999545812606812,security
23,"As a moderator, I want to get a password reminder by email, so that I can get back to using the application when I've forgotten my password.",0.999805748462677,security
24,"As the Digital Records Archivist, I need the batch ingest tool to recognize and set embargoes. Permissions for embargoed items should be allow everyone to view metadata and collection curator and repository administrators to be able to download the files.",0.9999545812606812,security
25,"As an administrator, I want to check that all data has the appropriate security level, so that I can demonstrate compliance.",0.9991772770881653,security
26,"As an OlderPerson, I want to know exactly what ALFRED does with my personal data, and share it only on my specific permission. ",0.9992066025733948,security
27,"As a Publisher, I want to have private data packages, so that I can share just with my team.",0.9981451034545898,security
28,"As a Customer, I want to Create a Customer Portal User Account, so that I can log on to the Customer Portal and perform transactions that first require user authentication.",0.9999289512634277,security
29,"As an archivist, I want to mark individual files as restricted, so that they don't get shared by mistake.",0.9980502128601074,security
30,"As an OlderPerson, I want to use ALFRED to pay for small amounts.",0.9982141256332397,security
31,"As a CST, I want to pay an annual fee, so that my CST status is active.",0.9999387264251709,security
32,"As a site member, I want to mark my email address as private even if the rest of my profile is not, so that no one can contact me.",0.999705970287323,security
33,"As an archivist, I want to add restriction end date information to files, so that I can share files when they become open.",0.9995806813240051,security
34,"As a user,  I want to have the ability to keep my data private on the system, and only share data that I deem should be shared.",0.999484658241272,security
35,"As a User, I want to authenticate locally.",0.9998144507408142,security
36,"As an IT staff member, I want to know the security requirements of the data, so that I know which kind of security measures to apply.",0.999446451663971,security
37,"As a authenticateduser, I want to Enter payment information and have my card charged for an individual sponsorship, so that I can pay for an individual sponsorship.",0.9999213218688965,security
38,"As a collection curator, I want items to be made available under the permissions they were configured once the embargo date has been reached.",0.9999545812606812,security
39,"As a researcher, I want to secure remote access to the Neurohub node when working away from the laboratory",0.9991936087608337,security
40,"As an institutional data manager, I want to know about the privacy and security requirements of the data, so that I can plan the right storage system and sharing permissions.",0.999665379524231,security
41,"As a researcher, I want to have a group-level repository for sharing papers/reviews/comments with other researchers.",0.9993444085121155,security
42,"As an administrator, I want to limit who can see certain metadata fields, so that I can show or hide things from display based on user groups.",0.998054027557373,security
43,"As a faculty member, I want to go to my repository dashboard to manage members of my classes. I want to be able to grant submit permissions by pasting in a list of NetIDs, see confirmation that DDR recognizes the NetIDs, ability to manually remove permissions, ability to set begin and end dates for a submission window, and a have a status screen to clearly illustrate who has and hasn't submitted.",0.9999545812606812,security
44,"As a DB/IR administrator, I want to have a personal account with the ability to change passwords to make them more secure or to retrieve forgotten ones.",0.9999545812606812,security
45,As a collection curator I want to be able to change permissions on one or more items simultaneously.,0.9998971223831177,security
46,"As an administrator, I want to create user groups, so that I can control user permissions.",0.9998496770858765,security
47,"As a collection curator, I want to be able require authentication to access objects unless the request is coming from a whitelisted IP address, list of addresses (like the Special Collections Reading Room, or range.",0.9999545812606812,security
48,"As a site editor, I want to be able to indicate whether an article is publicly available or for members only, so that visitors are incentivized to become members.",0.9995427131652832,security
49,"As an administrator, I want to create user roles, so that I can group users by role.",0.9995567202568054,security
50,"As a DB/IR administrator, I want to login to personal account with access to authorized functions.",0.9999545812606812,security
51,"As an Application Administrator, I want to assign Users to an Advanced Data Entry and ensure that the appropriate permissions are enforced.",0.9999098777770996,security
52,"As a library staff member, I want to be able to add custom metadata fields for deposits I make on behalf of researchers to allow for better search capabilities.",0.9970165491104126,security
53,"As a superuser, I should be able to enter and exit the superuser scope.",0.9997058510780334,security
54,"As the Digital Records Archivist, I want to be able to grant embargo privileges to other repository administrators.",0.9995841383934021,security
55,"As a depositor, I want to link datasets with the project DMP, so that compliance with DMP can be demonstrated and whole project workflow is linked together.",0.9987523555755615,security
56,"As the Digital Records Archivist, I want a method to add and remove multiple people to deposit groups in specific collections. Ideally, I'd be able to set a date that the deposit window closes. The permissions conferred on these depositors should pick up on the collection's default permission.",0.9999154806137085,security
57,"As a PI, I want to know how secure data is, so that I can ensure legal compliance.",0.9820959568023682,security
58,"As a user, I want to be able to create an account, so that I can create my own profile.",0.997902512550354,security
59,"As a DB/IR administrator, I want to administrate patron accounts for purpose of closing accounts, viewing subscriptions, changing subscriptions, resetting passwords, changing email address, etc.",0.9999533891677856,security
60,"As a repository manager, I want to know all the collections for which I have curatorial responsibility. ",0.9999226331710815,security
61,"As User, I want to be able to log in.",0.993150532245636,security
62,"As a DAMS manager, I want know the dates for when a permission or restriction is active.  ",0.9983087778091431,security
63,"As the Digital Records Archivist, I want the repository to lift embargoes on the release date and set the access controls to the configuration set on item on that date.",0.9992350339889526,security
64,"As a collection curator, I want to restrict access to my collection or items to Duke IP addresses.",0.9999269247055054,security
65,"As a user, I want to have my personal information kept securely in the database of the website, so that I will not suffer from identity theft or telephone harassment.",0.9999545812606812,security
66,"As a site member, I want to mark my profile as private in which case only my name will appear, so that no one can learn things about me I don't want shared.",0.9993962049484253,security
67,"As a legalofficer, I want to know about data sensitivity, so that I can establish sharing options.",0.9999134540557861,security
68,"As a moderator, I want to create an account for the application by entering my name, email address, a password and a username, so that I can start using the application.",0.9998266100883484,security
69,"As an administrator, I want to assign rights to user groups or roles, so that I can control what users can and can't do.",0.999729573726654,security
70,"As a DB/IR administrator, I want to set up or delete accounts for other administrators with various levels of permission.",0.9998698234558105,security
71,"As a authenticateduser, I want to identify myself as and pay for a $350 company sponsorship, so that I can easily become a sponsor at this level without having to interface with badcamp personnel to get a sponsorship.",0.999758780002594,security
72,"As a research facility manager, I want to deposit data from my facility directly into the archive on behalf of researchers, so that I am no longer required to maintain my own archive of facility data and researchers can access their own data as needed. ",0.9986388087272644,security
73,"As an archivist, I want to restrict access to some files by IP address, so that I can give reading room access only to certain digital files.",0.9999544620513916,security
74,"As a repository manager, I want to know all the collections and objects in the DAMS for which I have custodial responsibility.  ",0.9994200468063354,security
75,"AS an externalcoordinator, I want to access data from Bath collaborators off campus, so that I can collaborate effectively.",0.9997133612632751,security
76,"As a collection curator, I want to allow some collections the option of setting an embargo date (e.g. 2017-01-01)at deposit. Item metadata should be discoverable until that date. Once the embargo date is reached, the embargo should be lifted and access to the item should be allowed under the access permissions set on the object.",0.9999459981918335,security
77,"As a Cornell faculty member, I want to login remotely to the repository using Shibboleth, so that I can get remote access to Cornell campus-only content.",0.9997956156730652,security
78,"As a depositor, I want to place data under an embargo, so that my right of first use is protected, and I can fulfil my confidentiality responsibilities.",0.9998244643211365,security
79,"As an admin, I want to be able to block specific users based on IP address, so that I can prevent spamming on the websites.",0.9998430013656616,security
80,"As an archivist, I want to add detailed restrictions to groups of files, so that I know if and how they can be shared.",0.9990298748016357,security
81,"As an administrator, I want to allow users to log in using Active Directory credentials, so that I don't have to manage another set of usernames and passwords.",0.99978107213974,security
82,"As a Platform Administrator, I want to be able to Hide any dataset already added as Public, So that I can maintain Public/Hidden status for other users.",0.9992803931236267,security
83,"As a depositor, I want to allow others to deposit on my behalf, so that I can delegate research data management tasks appropriately.",0.9995101690292358,security
84,"As a collection curator, I would like an easy way to create groups of users to manage permissions in the repository.",0.9998999834060669,security
85,"As a FABS user, I want to have read-only access to DABS, so that I can view DABS pages without wanting two sets of permissions.",0.9999257326126099,security
86,"As an administrator, I want to have researchers reset their own passwords, so that I don't have to send passwords in cleartext.",0.999886155128479,security
87,"As a Researcher, I want results to be stored in a non-identifiable way, so that I can study the data to see things like whether estimates converged around the first opinion given by ""estimator A"" for example.",0.9997866749763489,security
88,"As a library staff member, I want to upload material to the repository on the author's behalf, so that I can fulfill a service obligation.",0.9997497200965881,security
0,"As a developer, I want to have detailed information of what happened when my App crashes on the user's device. ",0.9999545812606812,maintainability
1,"As an admin, I want to view user error logs, so that I can fix or review any issues that are being faced by users of the system.",0.9999545812606812,maintainability
2,"As a dataset developer, I want to deploy a new version of a dataset type without affecting the dataset instances of that type.",0.9999545812606812,maintainability
3,"As an app developer, I want to ensure that when I deploy a new version of an app that includes a shared dataset type that all dataset instances created by this app start using the new code but all dataset instances created by other apps remain unchanged.",0.999849796295166,maintainability
4,"As a Data Publishing User, I want to have the Packager support Constants, So that I can model dimensions that may not exist in the source file.",0.9998950958251953,maintainability
5,"As a Developer, I want to list all DataPackages requirements for my project in the file and pin the exact versions of any DataPackage that my project depends on, so that that the project can be deterministically deployed locally and won't break because of the DataPackage schema changes. ",0.9999089241027832,maintainability
6,"As an UnivITservice, I want to store archived data on existing storage systems, so that university data storage is consistent and maintainable and future availability of data can be guaranteed.",0.9998171925544739,maintainability
7,"As an app developer, I want to share a dataset type across multiple applications that include the dataset type's code in their artifacts.",0.9999545812606812,maintainability
8,"As a developer, I want to use a configuration that is not prepackaged within a built version of application.",0.999864935874939,maintainability
9,"As a plugin developer, I want to use a custom dataset type that was deployed independently or as part of an app inside the plugin. ",0.9993731379508972,maintainability
10,"As a dataset developer, I want to deploy a dataset type independent from any app and allow apps to create and use dataset instances of that type.",0.999607264995575,maintainability
11,"As a Developer, I want to be able to customise the Brand Name and Icon, and Primary Color of all frontend Javascript apps, So that I can customise the branding for my own needs.",0.999893069267273,maintainability
12,"As an NSF administrator, I want to shadow the CMS implementation, so that I can learn as the prototype is developed further.",0.9999545812606812,maintainability
13,"As a release engineer, I want to configure nightly builds that automatically perform a Neurohub installation on a virgin operating system, execute tests and report back results, without requiring any manual input/interaction.",0.9998749494552612,maintainability
14,"As an app developer, I want to ensure that when I deploy a new version of an app that includes an older version of a dataset type deployed by another app and I expect that the dataset instances created by this app use the dataset type code included in this app.",0.9999091625213623,maintainability
15,"As a developer, I want a version of the DDR models gem that uses Active Fedora 9 and passes all tests on Fedora 4.",0.9999545812606812,maintainability
16,"As a Data Publishing User, I want to be able to edit the data source of data I have already imported, So that I can fix bugs or make enhancements in the API built for my data.",0.9999077320098877,maintainability
17,"As a developer, I want to have the API to be well defined and well documented. ",0.9999545812606812,maintainability
18,"As a tester, I want to have access to test features in environments other than Staging, so that I can test any nonProd feature in any environment.",0.999897837638855,maintainability
19,"As a Web Developer, I want to be able to install multiple versions of the same datapackage separately, so that that all my projects could be developed independently and deployed locally.",0.9998865127563477,maintainability
20,"As a Developer I want to quickly access Broker application data, so that I can investigate issues.",0.9984350800514221,maintainability
21,"As a plugin developer, I want to upgrade the code of a dataset type used by a dataset instance created by that plugin when I deploy a new version of the plugin and update the pipeline to use that version.",0.9997046589851379,maintainability
22,"As a developer, I want to have the API components to be on a high level so that I don't have to deal with their details. ",0.9997672438621521,maintainability
23,"As a developer, I want a version of DUL Hydra that works with Active Fedora 9 and passes all tests.",0.999854326248169,maintainability
24,"As a developer, I want a dummy app to test DDR models on Fedora 4.",0.9996368885040283,maintainability
25,"As an app developer, I want to write unit tests for an app that depends on the interface of a dataset type.",0.9999545812606812,maintainability
26,"As an app developer, I want to ensure that when I deploy a new version of an app that includes a different version of a dataset type deployed by another app and this app shares a dataset instance of this type with the other app the deployment will fail with a version conflict error. ",0.9999545812606812,maintainability
27,"As a user, I want to update the properties of a dataset instance and I expect this to fail if the new properties are not compatible with a meaningful error message.",0.9997656941413879,maintainability
28,"As a Developer , I want to be able to log better, so that I can troubleshoot issues with particular submissions and functions.",0.9999545812606812,maintainability
29,"As a system administrator, I want to run a script that tests to see if a Neurohub installation is functioning correctly.",0.9999545812606812,maintainability
30,"As Metadata Architect, I want to be able to use batch tools to ingest, update, and export descriptive and administrative metadata in lieu of METS ingest.",0.9996998310089111,maintainability
31,"As a developer, I want to deposit and maintain datasets via an API such as SWORD2, so that my service can interact with the archive. ",0.999690055847168,maintainability
32,"As an app developer, I want to only depend on the interface of a dataset type in my app and have the system inject the implementation at runtime.",0.9994899034500122,maintainability
33,"As a release engineer, I want to call a script to execute acceptance tests against a Neurohub installation and report back the results.",0.9999545812606812,maintainability
34,"As a dataset developer, I want to separate the interface from the implementation of a dataset type.",0.999606192111969,maintainability
35,"As repository developer, I want to find opportunities to merge functionality in batch tools.",0.999923586845398,maintainability
36,"As a dataset developer, I want to have the option of forcing applications to have the dataset code injected at runtime.",0.9998158812522888,maintainability
37,"As a broker team member, I want to make some updates to the SQL codes for clarity.",0.999858021736145,maintainability
38,"As an app developer, I want to deploy a new version of a dataset type as part of an app artifact, without affecting other datasets of this type.",0.9976648092269897,maintainability
39,"As a developer, I want to have the ALFRED API to reduce the work to achieve my goals. ",0.9995421171188354,maintainability
40,"As an Owner, I want to reset the environment to only take Staging MAX permissions, so that I can ensure that the FABS testers no longer have access.",0.9998304843902588,maintainability
41,"As a data scientist, I want to be able to upgrade a dataset instance to a new version of its code.",0.9994263648986816,maintainability
42,"As a tester, I want to ensure that FABS is deriving fields properly through a robust test file plus a follow up check.",0.9997287392616272,maintainability
43,"As an app developer, I want to deploy a new version of a dataset type as part of deploying a new version of the app that includes it and I expect that all dataset instances of that type that were created as part of the app deployment start using the new code.",0.9999545812606812,maintainability
44,"As a data scientist, I want to be able to create a dataset instance of an existing dataset type without writing code.",0.9999159574508667,maintainability
45,"As a MedicalCaregiver, I want to have a simple ALFRED unit that is expandable in is functions. ",0.9998898506164551,maintainability
46,"As a UI designer, I want to track the issues that come up in Tech Thursday, so that I know what to test and what want s to be fixed.",0.9999545812606812,maintainability
47,"As a developer, I want a version of the DDR Batch gem that works with Active Fedora 9 and passes all tests on Fedora 4.",0.9999545812606812,maintainability
48,"As a UI designer, I want to report to the Agencies about user testing, so that they are aware of their contributions to making Broker a better UX.",0.9994916915893555,maintainability
49,"As a UI designer, I want to begin user testing, so that I can validate stakeholder UI improvement requests.",0.9999545812606812,maintainability
50,"As a Data Publishing User, I want to know if my CSV file is valid, So that I can fix possible data issues before publishing it on Open Spending.",0.9989392161369324,maintainability
51,"As an Owner, I want to create a user testing summary from the UI SME, so that I can know what UI improvements we will follow through on.",0.9980903267860413,maintainability
0,"As a user, I want to view the group's shared calendars via the Neurohub Nodes' Web page as well as on my mobile device.",0.9999545812606812,portability
1,"As a Developer, I want to list all DataPackages requirements for my project in the file and pin the exact versions of any DataPackage that my project depends on, so that that the project can be deterministically deployed locally and won't break because of the DataPackage schema changes. ",0.9972104430198669,portability
2,"As a system administrator, I want to run a script that installs the Neurohub node onto a virgin Ubuntu operating system.",0.99790358543396,portability
3,"As an OlderPerson, I want to have ALFRED on all my computers, tablets and phone.",0.9963430762290955,portability
4,"As a plugin developer, I want to use a custom dataset type that was deployed independently or as part of an app inside the plugin. ",0.9969090819358826,portability
5,"As an NSF administrator, I want to shadow the CMS implementation, so that I can learn as the prototype is developed further.",0.9966686367988586,portability
6,"As a release engineer, I want to configure nightly builds that automatically perform a Neurohub installation on a virgin operating system, execute tests and report back results, without requiring any manual input/interaction.",0.9980459213256836,portability
7,"As an app developer, I want to ensure that when I deploy a new version of an app that includes an older version of a dataset type deployed by another app and I expect that the dataset instances created by this app use the dataset type code included in this app.",0.9982481002807617,portability
8,"As a developer, I want a version of the DDR models gem that uses Active Fedora 9 and passes all tests on Fedora 4.",0.9999545812606812,portability
9,"As a Web Developer, I want to be able to install multiple versions of the same datapackage separately, so that that all my projects could be developed independently and deployed locally.",0.9988935589790344,portability
10,"As a Cornell faculty member, I want to search the repository and browse through its contents on my phone, so that I can check things on the go.",0.9986648559570312,portability
11,"As a plugin developer, I want to upgrade the code of a dataset type used by a dataset instance created by that plugin when I deploy a new version of the plugin and update the pipeline to use that version.",0.9975088834762573,portability
12,"As a developer, I want a version of DUL Hydra that works with Active Fedora 9 and passes all tests.",0.9974774718284607,portability
13,"As a developer, I want a dummy app to test DDR models on Fedora 4.",0.9983323216438293,portability
14,"As a developer, I want to present my App in several ways. ",0.9976009726524353,portability
15,"As a repository developer, I would like to upgrade to Fedora 4 and migrate our applications and data.",0.99480140209198,portability
16,"As a system administrator, I want to migrate data from an older version of NeuroHub to the current version.",0.9992918968200684,portability
17,"As an app developer, I want to deploy a new version of a dataset type as part of deploying a new version of the app that includes it and I expect that all dataset instances of that type that were created as part of the app deployment start using the new code.",0.9935166835784912,portability
18,"As an Admin, I want to set key configuration parameters for my site deployment, so that that I can change key information like the site title.",0.9982638955116272,portability
19,"As a repository administrator, I want author/creator to store the DUID of the person to allow for name authority control and interoperability with other systems like Symplectic Elements.",0.9965320825576782,portability
20,"As a systems administrator, I want  to install Neurohub dependencies into an Ubuntu 10.04 LTS machine using the normal Ubuntu package management tools.",0.9990166425704956,portability
21,"As a developer, I want a version of the DDR Batch gem that works with Active Fedora 9 and passes all tests on Fedora 4.",0.9999464750289917,portability
22,"As a user, I want to be able to access the site and do all the other stuffs on all of my electronic devices.",0.9933783411979675,portability
23,"As a Data Publishing User, I want to know if my CSV file is valid, So that I can fix possible data issues before publishing it on Open Spending.",0.998515784740448,portability
