,US,pred,label
0,"As a user, I want to view the group's shared calendars via the Neurohub Nodes' Web page as well as on my mobile device.",0.9999545812606812,portability
1,"As a developer, I want a dummy app to test DDR models on Fedora 4.",0.9999545812606812,portability
2,"As a Web Developer, I want to be able to install multiple versions of the same datapackage separately, so that that all my projects could be developed independently and deployed locally.",0.9999545812606812,portability
3,"As a developer, I want a version of the DDR Batch gem that works with Active Fedora 9 and passes all tests on Fedora 4.",0.9999545812606812,portability
4,"As an NSF administrator, I want to shadow the CMS implementation, so that I can learn as the prototype is developed further.",0.9999545812606812,portability
5,"As a developer, I want a version of the DDR models gem that uses Active Fedora 9 and passes all tests on Fedora 4.",0.9999545812606812,portability
6,"As a team member, I want to see the first iteration of beta up on cloud.gov.",0.9999545812606812,portability
7,"As a developer, I want a dummy app to test DDR models on Fedora 4.",0.9999545812606812,portability
8,"As a user, I want to view the group's shared calendars via the Neurohub Nodes' Web page as well as on my mobile device.",0.9999545812606812,portability
9,"As a developer, I want a version of the DDR models gem that uses Active Fedora 9 and passes all tests on Fedora 4.",0.9999545812606812,portability
10,"As a repository administrator, I want author/creator to store the DUID of the person to allow for name authority control and interoperability with other systems like Symplectic Elements.",0.999051034450531,portability
11,"As an NSF administrator, I want to shadow the CMS implementation, so that I can learn as the prototype is developed further.",0.9999545812606812,portability
12,"As a developer, I want a version of the DDR Batch gem that works with Active Fedora 9 and passes all tests on Fedora 4.",0.9999545812606812,portability
13,"As a system administrator, I want to migrate data from an older version of NeuroHub to the current version.",0.9999545812606812,portability
14,"As a repository developer, I would like to upgrade to Fedora 4 and migrate our applications and data.",0.9999545812606812,portability
15,"As a release engineer, I want to configure nightly builds that automatically perform a Neurohub installation on a virgin operating system, execute tests and report back results, without requiring any manual input/interaction.",0.9999545812606812,portability
16,"As an Admin, I want to set key configuration parameters for my site deployment, so that that I can change key information like the site title.",0.9999545812606812,portability
17,"As a developer, I want to present my App in several ways. ",0.9999545812606812,portability
18,"As a Web Developer, I want to be able to install multiple versions of the same datapackage separately, so that that all my projects could be developed independently and deployed locally.",0.9999545812606812,portability
19,"As a system administrator, I want to run a script that installs the Neurohub node onto a virgin Ubuntu operating system.",0.9999545812606812,portability
20,"As a Cornell faculty member, I want to search the repository and browse through its contents on my phone, so that I can check things on the go.",0.9999545812606812,portability
