{
  "data":{
    "data_train_path":"data/processed/centric/train_centric.csv",
    "data_test_path":"data/processed/centric/test_centric.csv",
    "all_data_path":"data/processed/all_data_US_QA.csv",
    "dir_data_raw_path":"data/raw/",
    "list_QA":["centric"]
  },
  "model_train":{
    "name":"centric",
    "save_model_path":"data/saved_model/",
    "n_texts":2000,
    "n_epoch":100,
    "batch_size":32,
    "path_save_obs":"data/saved_obs_sent/",
    "list_label":["centric"],
    "k_fold":0,
    "ratio":0.5
  },

  "preprocessing":{
    "id_data": "only_lab",
    "size_data_with_no_label": 0.33,
    "test_size": 0.33
  }
  
}
